1
2
3
4
5
Fizz
7
8
9
10
11
Fizz
13
14
15
16
17
Fizz
19
20
21
22
23
Fizz
25
26
27
28
29
Fizz
31
32
33
34
35
Fizz
37
38
39
40
41
Fizz
43
44
45
46
47
Fizz
49
50
51
52
53
Fizz
55
56
57
58
59
Fizz
61
62
63
64
65
Fizz
67
68
69
70
71
Fizz
73
74
75
76
77
Fizz
Buzz
80
81
82
83
Fizz
85
86
87
88
89
Fizz
91
92
93
94
95
Fizz
97
98
99
100
101
Fizz
103
104
105
106
107
Fizz
109
110
111
112
113
Fizz
115
116
117
118
119
Fizz
121
122
123
124
125
Fizz
127
128
129
130
131
Fizz
133
134
135
136
137
Fizz
139
140
141
142
143
Fizz
145
146
147
148
149
Fizz
151
152
153
154
155
Fizz
157
Buzz
159
160
161
Fizz
163
164
165
166
167
Fizz
169
170
171
172
173
Fizz
175
176
177
178
179
Fizz
181
182
183
184
185
Fizz
187
188
189
190
191
Fizz
193
194
195
196
197
Fizz
199
200
201
202
203
Fizz
205
206
207
208
209
Fizz
211
212
213
214
215
Fizz
217
218
219
220
221
Fizz
223
224
225
226
227
Fizz
229
230
231
232
233
Fizz
235
236
Buzz
238
239
Fizz
241
242
243
244
245
Fizz
247
248
249
250
251
Fizz
253
254
255
256
257
Fizz
259
260
261
262
263
Fizz
265
266
267
268
269
Fizz
271
272
273
274
275
Fizz
277
278
279
280
281
Fizz
283
284
285
286
287
Fizz
289
290
291
292
293
Fizz
295
296
297
298
299
Fizz
301
302
303
304
305
Fizz
307
308
309
310
311
Fizz
313
314
315
Buzz
317
Fizz
319
320
321
322
323
Fizz
325
326
327
328
329
Fizz
331
332
333
334
335
Fizz
337
338
339
340
341
Fizz
343
344
345
346
347
Fizz
349
350
351
352
353
Fizz
355
356
357
358
359
Fizz
361
362
363
364
365
Fizz
367
368
369
370
371
Fizz
373
374
375
376
377
Fizz
379
380
381
382
383
Fizz
385
386
387
388
389
Fizz
391
392
393
394
Buzz
Fizz
397
398
399
400
401
Fizz
403
404
405
406
407
Fizz
409
410
411
412
413
Fizz
415
416
417
418
419
Fizz
421
422
423
424
425
Fizz
427
428
429
430
431
Fizz
433
434
435
436
437
Fizz
439
440
441
442
443
Fizz
445
446
447
448
449
Fizz
451
452
453
454
455
Fizz
457
458
459
460
461
Fizz
463
464
465
466
467
Fizz
469
470
471
472
473
FizzBuzz
475
476
477
478
479
Fizz
481
482
483
484
485
Fizz
487
488
489
490
491
Fizz
493
494
495
496
497
Fizz
499
500
501
502
503
Fizz
505
506
507
508
509
Fizz
511
512
513
514
515
Fizz
517
518
519
520
521
Fizz
523
524
525
526
527
Fizz
529
530
531
532
533
Fizz
535
536
537
538
539
Fizz
541
542
543
544
545
Fizz
547
548
549
550
551
Fizz
Buzz
554
555
556
557
Fizz
559
560
561
562
563
Fizz
565
566
567
568
569
Fizz
571
572
573
574
575
Fizz
577
578
579
580
581
Fizz
583
584
585
586
587
Fizz
589
590
591
592
593
Fizz
595
596
597
598
599
Fizz
601
602
603
604
605
Fizz
607
608
609
610
611
Fizz
613
614
615
616
617
Fizz
619
620
621
622
623
Fizz
625
626
627
628
629
Fizz
631
Buzz
633
634
635
Fizz
637
638
639
640
641
Fizz
643
644
645
646
647
Fizz
649
650
651
652
653
Fizz
655
656
657
658
659
Fizz
661
662
663
664
665
Fizz
667
668
669
670
671
Fizz
673
674
675
676
677
Fizz
679
680
681
682
683
Fizz
685
686
687
688
689
Fizz
691
692
693
694
695
Fizz
697
698
699
700
701
Fizz
703
704
705
706
707
Fizz
709
710
Buzz
712
713
Fizz
715
716
717
718
719
Fizz
721
722
723
724
725
Fizz
727
728
729
730
731
Fizz
733
734
735
736
737
Fizz
739
740
741
742
743
Fizz
745
746
747
748
749
Fizz
751
752
753
754
755
Fizz
757
758
759
760
761
Fizz
763
764
765
766
767
Fizz
769
770
771
772
773
Fizz
775
776
777
778
779
Fizz
781
782
783
784
785
Fizz
787
788
789
Buzz
791
Fizz
793
794
795
796
797
Fizz
799
800
801
802
803
Fizz
805
806
807
808
809
Fizz
811
812
813
814
815
Fizz
817
818
819
820
821
Fizz
823
824
825
826
827
Fizz
829
830
831
832
833
Fizz
835
836
837
838
839
Fizz
841
842
843
844
845
Fizz
847
848
849
850
851
Fizz
853
854
855
856
857
Fizz
859
860
861
862
863
Fizz
865
866
867
868
Buzz
Fizz
871
872
873
874
875
Fizz
877
878
879
880
881
Fizz
883
884
885
886
887
Fizz
889
890
891
892
893
Fizz
895
896
897
898
899
Fizz
901
902
903
904
905
Fizz
907
908
909
910
911
Fizz
913
914
915
916
917
Fizz
919
920
921
922
923
Fizz
925
926
927
928
929
Fizz
931
932
933
934
935
Fizz
937
938
939
940
941
Fizz
943
944
945
946
947
FizzBuzz
949
950
951
952
953
Fizz
955
956
957
958
959
Fizz
961
962
963
964
965
Fizz
967
968
969
970
971
Fizz
973
974
975
976
977
Fizz
979
980
981
982
983
Fizz
985
986
987
988
989
Fizz
991
992
993
994
995
Fizz
997
998
999
1000
1001
Fizz
1003
1004
1005
1006
1007
Fizz
1009
1010
1011
1012
1013
Fizz
1015
1016
1017
1018
1019
Fizz
1021
1022
1023
1024
1025
Fizz
Buzz
1028
1029
1030
1031
Fizz
1033
1034
1035
1036
1037
Fizz
1039
1040
1041
1042
1043
Fizz
1045
1046
1047
1048
1049
Fizz
1051
1052
1053
1054
1055
Fizz
1057
1058
1059
1060
1061
Fizz
1063
1064
1065
1066
1067
Fizz
1069
1070
1071
1072
1073
Fizz
1075
1076
1077
1078
1079
Fizz
1081
1082
1083
1084
1085
Fizz
1087
1088
1089
1090
1091
Fizz
1093
1094
1095
1096
1097
Fizz
1099
1100
1101
1102
1103
Fizz
1105
Buzz
1107
1108
1109
Fizz
1111
1112
1113
1114
1115
Fizz
1117
1118
1119
1120
1121
Fizz
1123
1124
1125
1126
1127
Fizz
1129
1130
1131
1132
1133
Fizz
1135
1136
1137
1138
1139
Fizz
1141
1142
1143
1144
1145
Fizz
1147
1148
1149
1150
1151
Fizz
1153
1154
1155
1156
1157
Fizz
1159
1160
1161
1162
1163
Fizz
1165
1166
1167
1168
1169
Fizz
1171
1172
1173
1174
1175
Fizz
1177
1178
1179
1180
1181
Fizz
1183
1184
Buzz
1186
1187
Fizz
1189
1190
1191
1192
1193
Fizz
1195
1196
1197
1198
1199
Fizz
1201
1202
1203
1204
1205
Fizz
1207
1208
1209
1210
1211
Fizz
1213
1214
1215
1216
1217
Fizz
1219
1220
1221
1222
1223
Fizz
1225
1226
1227
1228
1229
Fizz
1231
1232
1233
1234
1235
Fizz
1237
1238
1239
1240
1241
Fizz
1243
1244
1245
1246
1247
Fizz
1249
1250
1251
1252
1253
Fizz
1255
1256
1257
1258
1259
Fizz
1261
1262
1263
Buzz
1265
Fizz
1267
1268
1269
1270
1271
Fizz
1273
1274
1275
1276
1277
Fizz
1279
1280
1281
1282
1283
Fizz
1285
1286
1287
1288
1289
Fizz
1291
1292
1293
1294
1295
Fizz
1297
1298
1299
1300
1301
Fizz
1303
1304
1305
1306
1307
Fizz
1309
1310
1311
1312
1313
Fizz
1315
1316
1317
1318
1319
Fizz
1321
1322
1323
1324
1325
Fizz
1327
1328
1329
1330
1331
Fizz
1333
1334
1335
1336
1337
Fizz
1339
1340
1341
1342
Buzz
Fizz
1345
1346
1347
1348
1349
Fizz
1351
1352
1353
1354
1355
Fizz
1357
1358
1359
1360
1361
Fizz
1363
1364
1365
1366
1367
Fizz
1369
1370
1371
1372
1373
Fizz
1375
1376
1377
1378
1379
Fizz
1381
1382
1383
1384
1385
Fizz
1387
1388
1389
1390
1391
Fizz
1393
1394
1395
1396
1397
Fizz
1399
1400
1401
1402
1403
Fizz
1405
1406
1407
1408
1409
Fizz
1411
1412
1413
1414
1415
Fizz
1417
1418
1419
1420
1421
FizzBuzz
1423
1424
1425
1426
1427
Fizz
1429
1430
1431
1432
1433
Fizz
1435
1436
1437
1438
1439
Fizz
1441
1442
1443
1444
1445
Fizz
1447
1448
1449
1450
1451
Fizz
1453
1454
1455
1456
1457
Fizz
1459
1460
1461
1462
1463
Fizz
1465
1466
1467
1468
1469
Fizz
1471
1472
1473
1474
1475
Fizz
1477
1478
1479
1480
1481
Fizz
1483
1484
1485
1486
1487
Fizz
1489
1490
1491
1492
1493
Fizz
1495
1496
1497
1498
1499
Fizz
Buzz
1502
1503
1504
1505
Fizz
1507
1508
1509
1510
1511
Fizz
1513
1514
1515
1516
1517
Fizz
1519
1520
1521
1522
1523
Fizz
1525
1526
1527
1528
1529
Fizz
1531
1532
1533
1534
1535
Fizz
1537
1538
1539
1540
1541
Fizz
1543
1544
1545
1546
1547
Fizz
1549
1550
1551
1552
1553
Fizz
1555
1556
1557
1558
1559
Fizz
1561
1562
1563
1564
1565
Fizz
1567
1568
1569
1570
1571
Fizz
1573
1574
1575
1576
1577
Fizz
1579
Buzz
1581
1582
1583
Fizz
1585
1586
1587
1588
1589
Fizz
1591
1592
1593
1594
1595
Fizz
1597
1598
1599
1600
1601
Fizz
1603
1604
1605
1606
1607
Fizz
1609
1610
1611
1612
1613
Fizz
1615
1616
1617
1618
1619
Fizz
1621
1622
1623
1624
1625
Fizz
1627
1628
1629
1630
1631
Fizz
1633
1634
1635
1636
1637
Fizz
1639
1640
1641
1642
1643
Fizz
1645
1646
1647
1648
1649
Fizz
1651
1652
1653
1654
1655
Fizz
1657
1658
Buzz
1660
1661
Fizz
1663
1664
1665
1666
1667
Fizz
1669
1670
1671
1672
1673
Fizz
1675
1676
1677
1678
1679
Fizz
1681
1682
1683
1684
1685
Fizz
1687
1688
1689
1690
1691
Fizz
1693
1694
1695
1696
1697
Fizz
1699
1700
1701
1702
1703
Fizz
1705
1706
1707
1708
1709
Fizz
1711
1712
1713
1714
1715
Fizz
1717
1718
1719
1720
1721
Fizz
1723
1724
1725
1726
1727
Fizz
1729
1730
1731
1732
1733
Fizz
1735
1736
1737
Buzz
1739
Fizz
1741
1742
1743
1744
1745
Fizz
1747
1748
1749
1750
1751
Fizz
1753
1754
1755
1756
1757
Fizz
1759
1760
1761
1762
1763
Fizz
1765
1766
1767
1768
1769
Fizz
1771
1772
1773
1774
1775
Fizz
1777
1778
1779
1780
1781
Fizz
1783
1784
1785
1786
1787
Fizz
1789
1790
1791
1792
1793
Fizz
1795
1796
1797
1798
1799
Fizz
1801
1802
1803
1804
1805
Fizz
1807
1808
1809
1810
1811
Fizz
1813
1814
1815
1816
Buzz
Fizz
1819
1820
1821
1822
1823
Fizz
1825
1826
1827
1828
1829
Fizz
1831
1832
1833
1834
1835
Fizz
1837
1838
1839
1840
1841
Fizz
1843
1844
1845
1846
1847
Fizz
1849
1850
1851
1852
1853
Fizz
1855
1856
1857
1858
1859
Fizz
1861
1862
1863
1864
1865
Fizz
1867
1868
1869
1870
1871
Fizz
1873
1874
1875
1876
1877
Fizz
1879
1880
1881
1882
1883
Fizz
1885
1886
1887
1888
1889
Fizz
1891
1892
1893
1894
1895
FizzBuzz
1897
1898
1899
1900
1901
Fizz
1903
1904
1905
1906
1907
Fizz
1909
1910
1911
1912
1913
Fizz
1915
1916
1917
1918
1919
Fizz
1921
1922
1923
1924
1925
Fizz
1927
1928
1929
1930
1931
Fizz
1933
1934
1935
1936
1937
Fizz
1939
1940
1941
1942
1943
Fizz
1945
1946
1947
1948
1949
Fizz
1951
1952
1953
1954
1955
Fizz
1957
1958
1959
1960
1961
Fizz
1963
1964
1965
1966
1967
Fizz
1969
1970
1971
1972
1973
Fizz
Buzz
1976
1977
1978
1979
Fizz
1981
1982
1983
1984
1985
Fizz
1987
1988
1989
1990
1991
Fizz
1993
1994
1995
1996
1997
Fizz
1999
2000
2001
2002
2003
Fizz
2005
2006
2007
2008
2009
Fizz
2011
2012
2013
2014
2015
Fizz
2017
2018
2019
2020
2021
Fizz
2023
2024
2025
2026
2027
Fizz
2029
2030
2031
2032
2033
Fizz
2035
2036
2037
2038
2039
Fizz
2041
2042
2043
2044
2045
Fizz
2047
2048
2049
2050
2051
Fizz
2053
Buzz
2055
2056
2057
Fizz
2059
2060
2061
2062
2063
Fizz
2065
2066
2067
2068
2069
Fizz
2071
2072
2073
2074
2075
Fizz
2077
2078
2079
2080
2081
Fizz
2083
2084
2085
2086
2087
Fizz
2089
2090
2091
2092
2093
Fizz
2095
2096
2097
2098
2099
Fizz
2101
2102
2103
2104
2105
Fizz
2107
2108
2109
2110
2111
Fizz
2113
2114
2115
2116
2117
Fizz
2119
2120
2121
2122
2123
Fizz
2125
2126
2127
2128
2129
Fizz
2131
2132
Buzz
2134
2135
Fizz
2137
2138
2139
2140
2141
Fizz
2143
2144
2145
2146
2147
Fizz
2149
2150
2151
2152
2153
Fizz
2155
2156
2157
2158
2159
Fizz
2161
2162
2163
2164
2165
Fizz
2167
2168
2169
2170
2171
Fizz
2173
2174
2175
2176
2177
Fizz
2179
2180
2181
2182
2183
Fizz
2185
2186
2187
2188
2189
Fizz
2191
2192
2193
2194
2195
Fizz
2197
2198
2199
2200
2201
Fizz
2203
2204
2205
2206
2207
Fizz
2209
2210
2211
Buzz
2213
Fizz
2215
2216
2217
2218
2219
Fizz
2221
2222
2223
2224
2225
Fizz
2227
2228
2229
2230
2231
Fizz
2233
2234
2235
2236
2237
Fizz
2239
2240
2241
2242
2243
Fizz
2245
2246
2247
2248
2249
Fizz
2251
2252
2253
2254
2255
Fizz
2257
2258
2259
2260
2261
Fizz
2263
2264
2265
2266
2267
Fizz
2269
2270
2271
2272
2273
Fizz
2275
2276
2277
2278
2279
Fizz
2281
2282
2283
2284
2285
Fizz
2287
2288
2289
2290
Buzz
Fizz
2293
2294
2295
2296
2297
Fizz
2299
2300
2301
2302
2303
Fizz
2305
2306
2307
2308
2309
Fizz
2311
2312
2313
2314
2315
Fizz
2317
2318
2319
2320
2321
Fizz
2323
2324
2325
2326
2327
Fizz
2329
2330
2331
2332
2333
Fizz
2335
2336
2337
2338
2339
Fizz
2341
2342
2343
2344
2345
Fizz
2347
2348
2349
2350
2351
Fizz
2353
2354
2355
2356
2357
Fizz
2359
2360
2361
2362
2363
Fizz
2365
2366
2367
2368
2369
FizzBuzz
2371
2372
2373
2374
2375
Fizz
2377
2378
2379
2380
2381
Fizz
2383
2384
2385
2386
2387
Fizz
2389
2390
2391
2392
2393
Fizz
2395
2396
2397
2398
2399
Fizz
2401
2402
2403
2404
2405
Fizz
2407
2408
2409
2410
2411
Fizz
2413
2414
2415
2416
2417
Fizz
2419
2420
2421
2422
2423
Fizz
2425
2426
2427
2428
2429
Fizz
2431
2432
2433
2434
2435
Fizz
2437
2438
2439
2440
2441
Fizz
2443
2444
2445
2446
2447
Fizz
Buzz
2450
2451
2452
2453
Fizz
2455
2456
2457
2458
2459
Fizz
2461
2462
2463
2464
2465
Fizz
2467
2468
2469
2470
2471
Fizz
2473
2474
2475
2476
2477
Fizz
2479
2480
2481
2482
2483
Fizz
2485
2486
2487
2488
2489
Fizz
2491
2492
2493
2494
2495
Fizz
2497
2498
2499
2500
2501
Fizz
2503
2504
2505
2506
2507
Fizz
2509
2510
2511
2512
2513
Fizz
2515
2516
2517
2518
2519
Fizz
2521
2522
2523
2524
2525
Fizz
2527
Buzz
2529
2530
2531
Fizz
2533
2534
2535
2536
2537
Fizz
2539
2540
2541
2542
2543
Fizz
2545
2546
2547
2548
2549
Fizz
2551
2552
2553
2554
2555
Fizz
2557
2558
2559
2560
2561
Fizz
2563
2564
2565
2566
2567
Fizz
2569
2570
2571
2572
2573
Fizz
2575
2576
2577
2578
2579
Fizz
2581
2582
2583
2584
2585
Fizz
2587
2588
2589
2590
2591
Fizz
2593
2594
2595
2596
2597
Fizz
2599
2600
2601
2602
2603
Fizz
2605
2606
Buzz
2608
2609
Fizz
2611
2612
2613
2614
2615
Fizz
2617
2618
2619
2620
2621
Fizz
2623
2624
2625
2626
2627
Fizz
2629
2630
2631
2632
2633
Fizz
2635
2636
2637
2638
2639
Fizz
2641
2642
2643
2644
2645
Fizz
2647
2648
2649
2650
2651
Fizz
2653
2654
2655
2656
2657
Fizz
2659
2660
2661
2662
2663
Fizz
2665
2666
2667
2668
2669
Fizz
2671
2672
2673
2674
2675
Fizz
2677
2678
2679
2680
2681
Fizz
2683
2684
2685
Buzz
2687
Fizz
2689
2690
2691
2692
2693
Fizz
2695
2696
2697
2698
2699
Fizz
2701
2702
2703
2704
2705
Fizz
2707
2708
2709
2710
2711
Fizz
2713
2714
2715
2716
2717
Fizz
2719
2720
2721
2722
2723
Fizz
2725
2726
2727
2728
2729
Fizz
2731
2732
2733
2734
2735
Fizz
2737
2738
2739
2740
2741
Fizz
2743
2744
2745
2746
2747
Fizz
2749
2750
2751
2752
2753
Fizz
2755
2756
2757
2758
2759
Fizz
2761
2762
2763
2764
Buzz
Fizz
2767
2768
2769
2770
2771
Fizz
2773
2774
2775
2776
2777
Fizz
2779
2780
2781
2782
2783
Fizz
2785
2786
2787
2788
2789
Fizz
2791
2792
2793
2794
2795
Fizz
2797
2798
2799
2800
2801
Fizz
2803
2804
2805
2806
2807
Fizz
2809
2810
2811
2812
2813
Fizz
2815
2816
2817
2818
2819
Fizz
2821
2822
2823
2824
2825
Fizz
2827
2828
2829
2830
2831
Fizz
2833
2834
2835
2836
2837
Fizz
2839
2840
2841
2842
2843
FizzBuzz
2845
2846
2847
2848
2849
Fizz
2851
2852
2853
2854
2855
Fizz
2857
2858
2859
2860
2861
Fizz
2863
2864
2865
2866
2867
Fizz
2869
2870
2871
2872
2873
Fizz
2875
2876
2877
2878
2879
Fizz
2881
2882
2883
2884
2885
Fizz
2887
2888
2889
2890
2891
Fizz
2893
2894
2895
2896
2897
Fizz
2899
2900
2901
2902
2903
Fizz
2905
2906
2907
2908
2909
Fizz
2911
2912
2913
2914
2915
Fizz
2917
2918
2919
2920
2921
Fizz
Buzz
2924
2925
2926
2927
Fizz
2929
2930
2931
2932
2933
Fizz
2935
2936
2937
2938
2939
Fizz
2941
2942
2943
2944
2945
Fizz
2947
2948
2949
2950
2951
Fizz
2953
2954
2955
2956
2957
Fizz
2959
2960
2961
2962
2963
Fizz
2965
2966
2967
2968
2969
Fizz
2971
2972
2973
2974
2975
Fizz
2977
2978
2979
2980
2981
Fizz
2983
2984
2985
2986
2987
Fizz
2989
2990
2991
2992
2993
Fizz
2995
2996
2997
2998
2999
Fizz
3001
Buzz
3003
3004
3005
Fizz
3007
3008
3009
3010
3011
Fizz
3013
3014
3015
3016
3017
Fizz
3019
3020
3021
3022
3023
Fizz
3025
3026
3027
3028
3029
Fizz
3031
3032
3033
3034
3035
Fizz
3037
3038
3039
3040
3041
Fizz
3043
3044
3045
3046
3047
Fizz
3049
3050
3051
3052
3053
Fizz
3055
3056
3057
3058
3059
Fizz
3061
3062
3063
3064
3065
Fizz
3067
3068
3069
3070
3071
Fizz
3073
3074
3075
3076
3077
Fizz
3079
3080
Buzz
3082
3083
Fizz
3085
3086
3087
3088
3089
Fizz
3091
3092
3093
3094
3095
Fizz
3097
3098
3099
3100
3101
Fizz
3103
3104
3105
3106
3107
Fizz
3109
3110
3111
3112
3113
Fizz
3115
3116
3117
3118
3119
Fizz
3121
3122
3123
3124
3125
Fizz
3127
3128
3129
3130
3131
Fizz
3133
3134
3135
3136
3137
Fizz
3139
3140
3141
3142
3143
Fizz
3145
3146
3147
3148
3149
Fizz
3151
3152
3153
3154
3155
Fizz
3157
3158
3159
Buzz
3161
Fizz
3163
3164
3165
3166
3167
Fizz
3169
3170
3171
3172
3173
Fizz
3175
3176
3177
3178
3179
Fizz
3181
3182
3183
3184
3185
Fizz
3187
3188
3189
3190
3191
Fizz
3193
3194
3195
3196
3197
Fizz
3199
3200
3201
3202
3203
Fizz
3205
3206
3207
3208
3209
Fizz
3211
3212
3213
3214
3215
Fizz
3217
3218
3219
3220
3221
Fizz
3223
3224
3225
3226
3227
Fizz
3229
3230
3231
3232
3233
Fizz
3235
3236
3237
3238
Buzz
Fizz
3241
3242
3243
3244
3245
Fizz
3247
3248
3249
3250
3251
Fizz
3253
3254
3255
3256
3257
Fizz
3259
3260
3261
3262
3263
Fizz
3265
3266
3267
3268
3269
Fizz
3271
3272
3273
3274
3275
Fizz
3277
3278
3279
3280
3281
Fizz
3283
3284
3285
3286
3287
Fizz
3289
3290
3291
3292
3293
Fizz
3295
3296
3297
3298
3299
Fizz
3301
3302
3303
3304
3305
Fizz
3307
3308
3309
3310
3311
Fizz
3313
3314
3315
3316
3317
FizzBuzz
3319
3320
3321
3322
3323
Fizz
3325
3326
3327
3328
3329
Fizz
3331
3332
3333
3334
3335
Fizz
3337
3338
3339
3340
3341
Fizz
3343
3344
3345
3346
3347
Fizz
3349
3350
3351
3352
3353
Fizz
3355
3356
3357
3358
3359
Fizz
3361
3362
3363
3364
3365
Fizz
3367
3368
3369
3370
3371
Fizz
3373
3374
3375
3376
3377
Fizz
3379
3380
3381
3382
3383
Fizz
3385
3386
3387
3388
3389
Fizz
3391
3392
3393
3394
3395
Fizz
Buzz
3398
3399
3400
3401
Fizz
3403
3404
3405
3406
3407
Fizz
3409
3410
3411
3412
3413
Fizz
3415
3416
3417
3418
3419
Fizz
3421
3422
3423
3424
3425
Fizz
3427
3428
3429
3430
3431
Fizz
3433
3434
3435
3436
3437
Fizz
3439
3440
3441
3442
3443
Fizz
3445
3446
3447
3448
3449
Fizz
3451
3452
3453
3454
3455
Fizz
3457
3458
3459
3460
3461
Fizz
3463
3464
3465
3466
3467
Fizz
3469
3470
3471
3472
3473
Fizz
3475
Buzz
3477
3478
3479
Fizz
3481
3482
3483
3484
3485
Fizz
3487
3488
3489
3490
3491
Fizz
3493
3494
3495
3496
3497
Fizz
3499
3500
3501
3502
3503
Fizz
3505
3506
3507
3508
3509
Fizz
3511
3512
3513
3514
3515
Fizz
3517
3518
3519
3520
3521
Fizz
3523
3524
3525
3526
3527
Fizz
3529
3530
3531
3532
3533
Fizz
3535
3536
3537
3538
3539
Fizz
3541
3542
3543
3544
3545
Fizz
3547
3548
3549
3550
3551
Fizz
3553
3554
Buzz
3556
3557
Fizz
3559
3560
3561
3562
3563
Fizz
3565
3566
3567
3568
3569
Fizz
3571
3572
3573
3574
3575
Fizz
