0
0
1
2
4
5
6
8
8
10
14
19
23
24
28
32
33
36
41
44
46
50
51
51
52
55
62
63
63
67
68
71
71
72
73
76
76
79
81
81
82
88
89
91
97
104
104
105
109
110
114
116
116
117
117
122
132
134
136
137
148
150
151
158
159
161
161
161
161
170
172
174
174
177
178
181
184
186
187
193
206
206
208
210
210
211
212
212
220
221
223
227
228
229
231
236
239
242
242
247
251
253
264
265
268
274
277
288
289
295
296
298
299
301
302
303
306
308
309
309
309
318
321
325
326
327
333
334
334
336
337
337
345
346
351
352
355
356
360
361
363
366
367
367
367
368
368
369
369
370
371
373
375
375
378
380
387
388
396
397
399
400
401
402
403
403
405
408
411
414
415
416
417
420
424
425
427
428
429
431
437
441
446
451
451
451
453
458
460
461
464
464
466
466
472
473
479
479
479
481
485
486
487
490
493
493
495
497
497
502
502
506
506
507
510
514
518
518
523
527
529
534
538
540
542
542
543
543
546
550
550
551
554
555
555
556
556
560
561
562
564
565
568
568
574
583
585
596
597
600
600
601
603
604
604
605
607
608
612
613
614
621
622
625
630
631
632
633
635
641
646
647
652
655
655
657
657
662
662
663
669
674
678
679
681
687
687
690
690
693
695
695
695
697
697
699
707
708
710
712
713
719
720
723
725
725
729
729
737
739
741
743
749
749
751
751
753
755
759
759
761
763
772
774
776
777
781
781
781
783
785
794
799
799
801
802
802
804
805
806
807
808
811
814
819
820
821
822
824
827
834
835
838
844
845
849
851
854
854
856
857
859
860
860
864
865
868
870
870
873
876
878
881
882
884
886
888
889
892
894
894
894
896
899
910
915
919
921
921
923
923
924
930
932
934
934
936
936
937
937
938
942
942
947
953
953
958
960
962
962
962
963
964
964
964
967
981
982
986
989
989
992
995
997
1007
1009
1011
1012
1013
1017
1017
1024
1024
1034
1036
1037
1038
1041
1041
1045
1046
1048
1050
1055
1056
1057
1062
1062
1063
1063
1064
1067
1068
1069
1069
1074
1087
1088
1088
1089
1091
1091
1094
1098
1101
1103
1104
1106
1118
1118
1121
1125
1128
1128
1132
1132
1139
1141
1143
1144
1144
1144
1145
1149
1150
1150
1156
1158
1159
1159
1167
1167
1168
1169
1170
1172
1174
1174
1180
1180
1181
1181
1181
1182
1183
1184
1186
1187
1197
1198
1204
1209
1212
1214
1215
1215
1217
1220
1224
1224
1227
1229
1232
1233
1235
1235
1237
1241
1242
1242
1243
1246
1247
1247
1248
1250
1252
1254
1258
1258
1264
1271
1272
1273
1275
1277
1285
1285
1287
1288
1295
1298
1298
1302
1303
1304
1304
1306
1307
1308
1308
1309
1312
1312
1316
1316
1317
1321
1321
1321
1325
1328
1329
1329
1331
1331
1332
1333
1334
1339
1340
1342
1347
1352
1353
1356
1356
1357
1357
1360
1362
1365
1365
1365
1369
1370
1373
1373
1377
1380
1384
1385
1388
1392
1403
1404
1406
1412
1415
1415
1416
1417
1418
1420
1422
1426
1427
1433
1434
1437
1440
1442
1442
1443
1444
1447
1447
1449
1450
1453
1453
1464
1465
1465
1468
1469
1470
1471
1471
1474
1479
1482
1484
1490
1492
1495
1495
1499
1503
1503
1505
1507
1508
1510
1512
1512
1516
1517
1524
1530
1531
1537
1540
1542
1547
1548
1549
1550
1550
1552
1553
1554
1556
1557
1557
1558
1559
1560
1568
1570
1574
1575
1582
1584
1584
1584
1590
1595
1596
1597
1602
1610
1610
1611
1617
1619
1623
1624
1629
1630
1631
1640
1643
1643
1646
1648
1650
1654
1655
1666
1667
1669
1669
1676
1681
1686
1689
1692
1694
1700
1702
1705
1706
1708
1709
1710
1710
1711
1712
1713
1721
1721
1723
1724
1728
1728
1728
1731
1732
1734
1734
1738
1739
1741
1741
1742
1742
1746
1748
1751
1751
1752
1753
1758
1758
1760
1760
1763
1765
1767
1767
1767
1771
1773
1773
1775
1776
1778
1779
1782
1783
1785
1785
1786
1787
1788
1789
1796
1797
1797
1798
1799
1803
1805
1807
1808
1810
1810
1811
1812
1815
1819
1821
1824
1824
1824
1832
1837
1837
1838
1838
1838
1839
1840
1842
1845
1846
1848
1850
1852
1853
1854
1854
1855
1858
1860
1862
1864
1866
1869
1875
1875
1879
1881
1882
1888
1890
1890
1890
1893
1894
1895
1897
1897
1897
1900
1903
1910
1912
1913
1915
1918
1923
1926
1927
1928
1928
1930
1939
1941
1943
1945
1946
1948
1949
1950
1950
1950
1956
1960
1963
1963
1966
1970
1970
1971
1972
1973
1974
1975
1978
1981
1984
1987
1991
1994
1995
2003
2005
2005
2007
2007
2010
2010
2014
2015
2020
2020
2022
2022
2026
2029
2029
2031
2035
2035
2036
2039
2041
2042
2046
2048
2052
2055
2058
2060
2065
2072
2073
2076
2077
2078
2080
2082
2085
2089
2090
2091
2093
2094
2095
2097
2098
2100
2103
2104
2104
2107
2109
2112
2113
2116
2116
2116
2121
2125
2125
2125
2131
2140
2141
2142
2150
2150
2155
2157
2159
2167
2170
2170
2175
2176
2177
2178
2179
2181
2182
2183
2187
2189
2200
2202
2206
2206
2207
2214
2215
2215
2215
2216
2216
2218
2220
2221
2221
2227
2230
2230
2232
2233
2235
2236
2236
2237
2238
2241
2244
2246
2247
2248
2250
2252
2254
2254
2255
2258
2262
2262
2263
2263
2265
2267
2270
2271
2272
2272
2273
2275
2276
2279
2287
2291
2294
2295
2296
2296
2300
2304
2305
2308
2308
2311
2312
2319
2328
2330
2330
2330
2331
2334
2337
2338
2346
2348
2354
2359
2364
2369
2369
2370
2371
2371
2371
2374
2377
2381
2382
2384
2395
2395
2397
2402
2402
2402
2402
2403
2403
2404
2404
2410
2413
2414
2416
2419
2421
2421
2422
2423
2424
2424
2428
2429
2430
2433
2437
2450
2451
2456
2456
2459
2459
2459
2461
2462
2463
2467
2468
2469
2469
2473
2476
2478
2479
2479
2480
2484
2486
2486
2487
2489
2492
2493
2493
2497
2499
2499
2501
2504
2510
2510
2510
2514
2521
2525
2527
2527
2528
2531
2534
2535
2537
2538
2538
2539
2541
2543
2546
2551
2553
2555
2556
2557
2557
2558
2559
2562
2565
2570
2572
2572
2576
2577
2582
2584
2592
2592
2597
2601
2602
2602
2602
2603
2605
2608
2608
2615
2617
2618
2619
2620
2620
2620
2623
2624
2633
2634
2635
2637
2637
2637
2637
2638
2640
2642
2642
2644
2648
2649
2654
2655
2655
2655
2655
2659
2661
2662
2663
2665
2666
2669
2670
2676
2680
2682
2683
2684
2687
2689
2693
2694
2695
2695
2696
2697
2700
2700
2704
2705
2711
2728
2730
2734
2736
2737
2738
2740
2744
2745
2746
2749
2752
2753
2756
2757
2758
2761
2762
2764
2767
2768
2769
2776
2783
2785
2788
2789
2790
2790
2792
2797
2797
2798
2800
2805
2806
2807
2808
2810
2814
2814
2817
2818
2820
2820
2820
2821
2825
2827
2828
2830
2832
2833
2834
2837
2838
2842
2844
2846
2847
2850
2855
2856
2859
2860
2865
2871
2873
2876
2878
2881
2881
2884
2884
2885
2890
2894
2895
2898
2898
2902
2904
2907
2908
2909
2911
2915
2917
2919
2921
2921
2931
2931
2933
2933
2934
2939
2940
2942
2943
2947
2948
2954
2961
2961
2963
2963
2965
2966
2966
2969
2972
2972
2973
2973
2980
2980
2983
2984
2993
2995
2995
2996
2996
3000
3001
3003
3005
3006
3007
3010
3010
3013
3013
3015
3016
3018
3022
3025
3026
3027
3030
3030
3032
3038
3042
3042
3048
3048
3052
3055
3063
3067
3077
3081
3084
3092
3092
3094
3098
3101
3103
3103
3108
3109
3114
3115
3115
3119
3122
3125
3129
3132
3134
3134
3135
3135
3137
3141
3148
3156
3158
3166
3170
3176
3176
3182
3183
3184
3184
3185
3185
3186
3186
3186
3189
3193
3194
3196
3197
3197
3200
3201
3204
3211
3213
3218
3219
3219
3228
3230
3232
3233
3235
3240
3247
3251
3251
3253
3263
3270
3275
3275
3276
3277
3279
3279
3279
3280
3284
3287
3292
3296
3297
3299
3304
3306
3309
3310
3313
3313
3315
3317
3319
3331
3331
3335
3337
3337
3338
3340
3340
3341
3342
3343
3344
3350
3353
3354
3355
3356
3357
3361
3362
3363
3363
3366
3366
3366
3368
3369
3369
3371
3374
3375
3376
3379
3381
3382
3382
3385
3389
3394
3406
3411
3414
3414
3416
3417
3419
3419
3419
3422
3422
3423
3424
3425
3427
3429
3432
3433
3433
3435
3439
3439
3441
3441
3442
3445
3446
3446
3451
3452
3465
3466
3469
3473
3475
3477
3482
3484
3485
3485
3486
3487
3488
3491
3493
3494
3495
3495
3499
3499
3501
3502
3504
3505
3505
3506
3506
3506
3508
3510
3516
3516
3517
3520
3523
3526
3527
3530
3533
3533
3536
3540
3540
3541
3541
3549
3554
3556
3556
3557
3558
3559
3564
3564
3565
3567
3570
3571
3576
3576
3578
3578
3579
3580
3582
3584
3587
3595
3597
3601
3601
3606
3611
3611
3611
3612
3617
3619
3620
3622
3630
3631
3634
3635
3637
3637
3638
3639
3640
3640
3642
3646
3646
3647
3648
3649
3651
3657
3657
3663
3669
3670
3671
3673
3673
3681
3683
3686
3690
3695
3697
3697
3699
3701
3704
3706
3707
3708
3710
3711
3717
3717
3727
3728
3729
3729
3730
3732
3734
3735
3737
3740
3741
3741
3744
3745
3746
3749
3751
3756
3756
3762
3763
3765
3768
3770
3770
3770
3771
3773
3779
3780
3787
3789
3789
3791
3793
3793
3794
3795
3795
3797
3804
3805
3806
3809
3814
3817
3819
3823
3824
3826
3829
3829
3831
3833
3834
3836
3838
3839
3839
3839
3846
3849
3850
3850
3852
3854
3858
3860
3860
3860
3865
3865
3868
3877
3878
3879
3884
3886
3886
3890
3891
3892
3895
3895
3895
3896
3897
3898
3898
3899
3904
3904
3907
3908
3911
3911
3912
3918
3922
3923
3924
3925
3930
3931
3933
3934
3934
3936
3943
3944
3949
3949
3958
3960
3963
3964
3966
3966
3968
3970
3972
3981
3981
3982
3985
3986
3987
3987
3988
3989
3990
3992
3993
3996
3998
4002
4002
4004
4005
4005
4006
4010
4014
4016
4016
4018
4020
4021
4030
4031
4034
4037
4039
4041
4044
4044
4044
4044
4054
4055
4056
4058
4060
4063
4064
4064
4068
4070
4070
4071
4073
4076
4083
4084
4087
4096
4096
4097
4100
4104
4107
4109
4114
4119
4120
4122
4125
4127
4128
4128
4129
4131
4134
4143
4145
4147
4149
4149
4154
4158
4159
4163
4164
4168
4170
4172
4175
4178
4183
4187
4190
4192
4194
4197
4201
4203
4203
4205
4217
4218
4219
4220
4228
4229
4229
4230
4233
4235
4238
4243
4245
4248
4253
4254
4255
4259
4267
4267
4268
4275
4282
4283
4286
4288
4288
4289
4290
4294
4294
4297
4300
4303
4305
4305
4311
4311
4313
4317
4318
4325
4327
4328
4330
4332
4333
4335
4340
4341
4343
4343
4345
4349
4357
4359
4363
4368
4369
4374
4374
4374
4377
4389
4390
4394
4399
4399
4401
4402
4403
4403
4405
4409
4410
4411
4411
4415
4415
4416
4420
4421
4424
4425
4427
4429
4433
4436
4446
4453
4457
4459
4459
4460
4460
4464
4468
4471
4471
4472
4476
4477
4479
4483
4485
4487
4492
4494
4494
4499
4500
4500
4502
4504
4506
4506
4507
4509
4511
4512
4512
4514
4514
4516
4518
4531
4532
4534
4535
4536
4536
4542
4547
4548
4550
4550
4550
4550
4550
4551
4553
4557
4558
4564
4566
4566
4567
4568
4570
4574
4575
4575
4577
4580
4580
4585
4587
4589
4592
4597
4597
4601
4603
4603
4605
4606
4608
4610
4612
4612
4613
4615
4615
4617
4626
4627
4628
4629
4631
4633
4634
4634
4635
4635
4636
4637
4644
4649
4650
4655
4664
4666
4666
4667
4668
4672
4672
4673
4674
4676
4679
4689
4689
4694
4699
4703
4705
4709
4709
4710
4710
4710
4711
4711
4712
4712
4713
4715
4717
4717
4717
4719
4723
4726
4730
4735
4736
4737
4742
4748
4752
4752
4754
4756
4758
4758
4759
4764
4765
4767
4769
4770
4777
4778
4780
4782
4783
4788
4801
4801
4802
4803
4804
4805
4806
4807
4807
4807
4808
4809
4817
4820
4820
4823
4823
4827
4831
4834
4836
4836
4837
4837
4839
4847
4852
4852
4855
4855
4858
4861
4861
4868
4869
4870
4873
4876
4877
4881
4883
4887
4889
4892
4893
4893
4899
4899
4907
4908
4909
4921
4924
4927
4928
4931
4936
4940
4944
4949
4952
4952
4953
4954
4954
4956
4956
4957
4958
4959
4966
4971
4973
4973
4976
4978
4984
4989
4991
4992
4994
4995
4997
5000
5006
5006
5008
5012
5013
5015
5016
5016
5021
5022
5023
5024
5025
5032
5036
5038
5046
5048
5048
5050
5050
5056
5057
5064
5073
5076
5082
5083
5085
5087
5091
5095
5099
5101
5103
5104
5105
5107
5109
5109
5113
5115
5115
5117
5117
5120
5123
5124
5126
5138
5138
5139
5140
5140
5141
5142
5149
5150
5153
5154
5158
5159
5163
5163
5164
5165
5166
5166
5167
5170
5173
5176
5178
5181
5181
5188
5189
5191
5192
5195
5197
5197
5205
5206
5208
5208
5215
5216
5217
5218
5219
5220
5224
5226
5234
5235
5236
5241
5243
5244
5247
5248
5249
5250
5253
5257
5258
5259
5259
5263
5274
5277
5278
5280
5281
5291
5293
5293
5293
5297
5302
5302
5305
5306
5307
5309
5310
5311
5314
5316
5319
5319
5322
5325
5327
5328
5329
5338
5339
5339
5342
5345
5349
5349
5354
5356
5359
5360
5376
5378
5382
5383
5384
5386
5391
5392
5394
5400
5402
5403
5404
5406
5406
5407
5408
5414
5415
5415
5416
5417
5423
5424
5426
5427
5428
5435
5436
5436
5437
5439
5441
5441
5445
5446
5447
5450
5453
5457
5459
5462
5469
5472
5479
5481
5482
5485
5488
5488
5490
5492
5498
5503
5506
5507
5512
5517
5519
5520
5520
5521
5522
5522
5523
5524
5532
5536
5537
5538
5544
5545
5554
5555
5556
5561
5561
5562
5565
5566
5568
5570
5579
5582
5583
5587
5591
5594
5595
5596
5599
5600
5600
5602
5604
5604
5605
5607
5609
5613
5618
5620
5621
5623
5625
5626
5626
5627
5628
5628
5628
5633
5634
5635
5635
5636
5638
5640
5643
5648
5652
5655
5657
5659
5659
5663
5663
5668
5670
5674
5676
5676
5692
5697
5700
5703
5704
5705
5707
5707
5715
5720
5727
5727
5729
5730
5731
5733
5739
5739
5741
5751
5753
5753
5759
5761
5761
5763
5764
5766
5766
5767
5767
5770
5771
5772
5773
5776
5778
5787
5788
5789
5790
5791
5793
5794
5794
5800
5803
5803
5805
5806
5806
5813
5821
5823
5824
5826
5831
5832
5838
5838
5846
5847
5848
5848
5849
5850
5852
5860
5862
5863
5867
5869
5876
5877
5881
5881
5885
5889
5890
5892
5900
5903
5905
5910
5912
5912
5914
5920
5921
5923
5924
5925
5928
5929
5930
5931
5932
5935
5936
5936
5937
5938
5940
5942
5942
5943
5945
5946
5947
5956
5959
5960
5962
5963
5966
5969
5970
5975
5975
5982
5984
5989
5991
5993
5997
5998
6000
6002
6004
6005
6012
6013
6015
6021
6023
6025
6028
6036
6040
6040
6040
6040
6041
6042
6046
6048
6049
6049
6049
6056
6058
6058
6059
6060
6060
6069
6071
6075
6075
6079
6080
6081
6084
6087
6092
6093
6100
6100
6101
6102
6104
6105
6106
6107
6112
6112
6113
6113
6116
6122
6127
6129
6132
6143
6144
6145
6151
6161
6165
6165
6167
6167
6170
6170
6171
6174
6177
6177
6177
6178
6181
6182
6184
6188
6188
6190
6193
6195
6195
6206
6206
6207
6209
6213
6215
6218
6221
6222
6224
6224
6225
6226
6235
6236
6238
6240
6241
6241
6242
6247
6249
6253
6256
6257
6257
6257
6259
6260
6263
6263
6265
6268
6278
6279
6281
6282
6284
6288
6289
6295
6299
6302
6306
6308
6310
6313
6313
6319
6319
6319
6320
6321
6321
6322
6324
6324
6324
6324
6325
6334
6336
6336
6337
6342
6343
6344
6346
6347
6347
6349
6355
6357
6359
6361
6363
6363
6366
6369
6371
6375
6377
6377
6381
6382
6384
6387
6391
6394
6397
6400
6401
6401
6404
6417
6418
6418
6421
6426
6430
6434
6435
6435
6449
6449
6453
6455
6456
6457
6461
6462
6463
6467
6468
6470
6471
6473
6476
6480
6481
6496
6498
6498
6499
6501
6503
6506
6508
6509
6511
6514
6514
6515
6516
6518
6521
6527
6529
6530
6530
6535
6535
6535
6541
6549
6551
6552
6555
6560
6560
6561
6562
6564
6565
6568
6569
6572
6577
6580
6580
6581
6584
6584
6587
6589
6589
6590
6592
6595
6596
6597
6597
6598
6601
6604
6605
6608
6611
6611
6614
6614
6616
6624
6626
6627
6640
6641
6647
6650
6653
6654
6656
6657
6657
6658
6662
6670
6670
6672
6675
6676
6678
6680
6681
6687
6687
6691
6691
6693
6697
6698
6698
6699
6701
6703
6704
6705
6708
6710
6712
6714
6717
6717
6718
6719
6721
6722
6723
6724
6726
6729
6732
6733
6735
6737
6737
6739
6740
6744
6746
6749
6765
6767
6774
6780
6782
6783
6787
6791
6793
6793
6800
6800
6801
6805
6811
6813
6815
6816
6816
6819
6822
6822
6823
6825
6827
6828
6829
6829
6829
6830
6831
6832
6838
6840
6842
6844
6846
6852
6852
6855
6864
6868
6868
6869
6873
6876
6876
6876
6877
6879
6880
6880
6886
6891
6892
6892
6892
6893
6895
6897
6897
6898
6898
6899
6900
6901
6903
6905
6906
6906
6906
6910
6910
6915
6919
6920
6921
6922
6922
6923
6924
6931
6933
6934
6935
6937
6944
6945
6946
6946
6947
6947
6951
6953
6954
6956
6956
6964
6965
6965
6968
6968
6971
6972
6973
6976
6979
6980
6982
6983
6985
6988
6989
6993
6994
6997
6998
6999
7000
7002
7002
7004
7006
7007
7008
7009
7010
7019
7019
7019
7022
7025
7026
7027
7034
7035
7036
7036
7036
7039
7040
7042
7045
7048
7054
7054
7061
7062
7064
7065
7068
7073
7075
7076
7076
7078
7080
7083
7083
7089
7093
7094
7102
7104
7108
7111
7112
7113
7115
7115
7118
7120
7121
7122
7125
7125
7130
7134
7134
7137
7140
7143
7145
7148
7148
7150
7150
7153
7153
7165
7174
7175
7176
7179
7181
7182
7184
7184
7188
7190
7191
7192
7192
7193
7196
7199
7201
7201
7202
7206
7209
7210
7211
7213
7215
7215
7219
7223
7223
7226
7228
7229
7230
7232
7233
7234
7235
7236
7236
7239
7245
7248
7255
7256
7264
7267
7270
7273
7274
7276
7276
7280
7284
7298
7298
7303
7306
7309
7312
7313
7313
7317
7320
7320
7320
7325
7326
7327
7331
7335
7337
7340
7342
7342
7346
7346
7346
7349
7352
7357
7358
7362
7367
7368
7370
7370
7373
7374
7376
7377
7378
7379
7385
7385
7387
7388
7388
7389
7390
7391
7397
7403
7404
7406
7411
7412
7412
7414
7414
7418
7420
7420
7423
7426
7436
7437
7440
7440
7442
7445
7447
7451
7452
7453
7459
7460
7461
7461
7463
7465
7467
7474
7478
7479
7479
7480
7481
7484
7489
7499
7501
7501
7502
7511
7514
7515
7516
7520
7522
7524
7524
7526
7530
7533
7535
7538
7540
7546
7547
7548
7549
7549
7549
7550
7553
7556
7565
7567
7568
7574
7576
7577
7585
7586
7588
7589
7590
7594
7594
7598
7601
7603
7604
7605
7606
7608
7610
7613
7617
7617
7624
7634
7635
7637
7637
7639
7639
7642
7644
7647
7659
7664
7665
7666
7668
7669
7669
7671
7674
7676
7678
7678
7680
7681
7682
7684
7686
7693
7694
7696
7697
7703
7714
7715
7715
7716
7720
7721
7725
7726
7730
7732
7735
7743
7743
7744
7745
7747
7749
7754
7754
7754
7758
7761
7763
7764
7774
7776
7779
7782
7786
7787
7789
7794
7802
7806
7812
7812
7814
7816
7816
7816
7822
7835
7838
7838
7839
7845
7845
7855
7856
7857
7858
7861
7862
7862
7864
7865
7868
7880
7880
7881
7884
7891
7894
7897
7898
7900
7901
7901
7903
7903
7903
7903
7904
7907
7908
7911
7911
7914
7920
7921
7924
7927
7930
7930
7930
7932
7935
7936
7937
7938
7940
7948
7948
7950
7959
7960
7961
7964
7965
7967
7975
7980
7983
7984
7986
7987
7988
7990
7991
7995
7997
7997
8001
8002
8003
8008
8009
8012
8014
8015
8016
8016
8017
8018
8024
8031
8031
8037
8044
8049
8051
8053
8054
8054
8056
8057
8058
8058
8065
8065
8067
8070
8072
8074
8076
8077
8084
8088
8089
8089
8097
8098
8100
8105
8108
8109
8109
8114
8115
8116
8117
8120
8125
8125
8125
8126
8127
8132
8136
8140
8145
8147
8147
8147
8150
8151
8153
8153
8160
8161
8163
8165
8168
8172
8173
8178
8178
8181
8183
8184
8186
8186
8187
8196
8198
8199
8199
8199
8204
8207
8213
8219
8224
8227
8229
8230
8230
8232
8232
8241
8244
8247
8249
8250
8254
8256
8260
8261
8263
8265
8265
8267
8269
8270
8270
8277
8277
8282
8282
8289
8291
8295
8295
8296
8296
8301
8304
8314
8330
8334
8342
8344
8346
8347
8347
8348
8356
8357
8360
8362
8362
8367
8367
8370
8371
8376
8378
8378
8382
8383
8383
8383
8388
8388
8390
8391
8392
8393
8404
8405
8406
8408
8408
8409
8410
8411
8411
8416
8417
8418
8418
8422
8423
8424
8424
8425
8426
8428
8430
8430
8435
8436
8437
8438
8438
8440
8441
8448
8449
8449
8450
8453
8454
8455
8455
8456
8461
8462
8466
8468
8470
8476
8476
8478
8482
8485
8490
8491
8496
8500
8502
8509
8512
8518
8521
8522
8523
8531
8531
8533
8535
8540
8543
8543
8545
8547
8548
8553
8553
8555
8556
8560
8561
8568
8569
8572
8572
8573
8574
8576
8578
8581
8584
8588
8589
8590
8594
8595
8598
8598
8599
8601
8606
8609
8610
8611
8616
8617
8617
8619
8620
8625
8625
8632
8633
8638
8639
8641
8641
8645
8646
8651
8663
8663
8664
8664
8666
8670
8675
8678
8682
8683
8685
8687
8691
8691
8694
8696
8698
8702
8702
8709
8715
8716
8717
8720
8723
8723
8731
8737
8738
8749
8750
8755
8758
8760
8760
8761
8764
8765
8766
8767
8772
8774
8776
8776
8780
8780
8781
8782
8786
8787
8791
8792
8794
8796
8800
8800
8808
8809
8814
8817
8818
8821
8824
8825
8826
8827
8834
8838
8845
8847
8849
8852
8853
8859
8864
8864
8865
8865
8866
8867
8870
8870
8870
8871
8871
8871
8874
8874
8874
8876
8877
8877
8883
8883
8884
8886
8886
8888
8889
8891
8891
8895
8902
8903
8903
8903
8911
8912
8913
8914
8915
8915
8918
8921
8922
8922
8923
8926
8929
8932
8932
8933
8936
8950
8950
8950
8962
8963
8966
8968
8969
8970
8974
8982
8984
8986
8986
8988
8989
8989
8989
8991
8992
8993
8998
8999
9000
9001
9002
9003
9003
9004
9004
9005
9008
9012
9017
9018
9020
9020
9025
9027
9028
9029
9029
9032
9034
9034
9036
9037
9037
9037
9040
9046
9047
9048
9050
9051
9057
9058
9059
9061
9061
9062
9067
9072
9073
9074
9077
9084
9088
9090
9091
9098
9103
9104
9105
9106
9109
9111
9120
9122
9123
9125
9126
9128
9129
9132
9135
9139
9139
9142
9142
9145
9146
9151
9152
9156
9163
9171
9173
9177
9177
9182
9187
9192
9193
9194
9196
9197
9199
9207
9208
9209
9209
9210
9210
9213
9220
9221
9226
9227
9233
9233
9240
9242
9247
9248
9248
9249
9251
9255
9256
9262
9264
9266
9276
9278
9282
9283
9285
9287
9290
9290
9290
9290
9292
9298
9300
9302
9303
9304
9307
9312
9317
9317
9317
9323
9328
9334
9334
9335
9335
9336
9340
9343
9344
9344
9346
9348
9349
9351
9363
9365
9366
9366
9367
9367
9375
9376
9379
9380
9381
9383
9385
9387
9388
9393
9394
9395
9395
9396
9397
9400
9401
9401
9405
9407
9409
9413
9414
9419
9420
9424
9429
9430
9431
9431
9432
9436
9438
9440
9440
9444
9449
9452
9455
9459
9473
9473
9478
9480
9482
9482
9490
9495
9497
9499
9502
9503
9507
9509
9509
9512
9513
9515
9518
9523
9535
9536
9538
9539
9539
9541
9542
9543
9549
9550
9552
9552
9555
9557
9558
9558
9561
9562
9562
9565
9568
9574
9575
9576
9576
9577
9588
9591
9592
9594
9597
9608
9610
9616
9622
9626
9627
9627
9628
9630
9632
9634
9638
9638
9640
9642
9642
9649
9649
9655
9664
9665
9670
9673
9674
9679
9682
9682
9685
9685
9687
9688
9688
9693
9695
9696
9698
9701
9703
9704
9711
9712
9712
9719
9719
9725
9727
9728
9731
9739
9739
9741
9747
9752
9759
9760
9762
9764
9770
9770
9773
9780
9781
9785
9786
9796
9798
9798
9799
9802
9802
9805
9805
9812
9816
9822
9822
9826
9831
9832
9834
9834
9835
9836
9838
9839
9843
9844
9846
9847
9851
9852
9852
9854
9854
9858
9860
9860
9862
9865
9866
9868
9870
9878
9879
9879
9883
9886
9886
9888
9889
9889
9892
9897
9897
9900
9908
9913
9919
9920
9920
9920
9921
9922
9923
9926
9929
9929
9931
9932
9940
9940
9944
9944
9947
9948
9953
9953
9958
9958
9960
9963
9964
9966
9969
9970
9972
9972
9973
9974
9977
9981
9983
9986
9986
9987
9988
9988
9989
9992
9995
