1
1
3
3
6
7
7
8
8
10
11
13
16
16
16
17
17
19
19
20
21
21
22
23
23
24
26
27
27
27
28
29
30
31
32
32
33
33
35
35
36
37
37
38
39
40
40
41
42
43
44
46
47
48
49
50
51
51
54
55
56
56
59
61
61
61
62
67
68
68
69
69
73
73
78
78
80
80
82
83
85
86
87
87
87
87
88
89
89
90
90
91
92
92
92
93
94
95
95
96
96
98
99
101
101
102
105
105
105
105
107
107
107
109
109
109
109
110
114
116
118
118
120
120
122
125
126
129
129
130
134
135
135
135
136
136
136
136
137
137
137
139
141
142
143
143
143
143
143
145
146
146
148
150
150
151
153
154
155
155
156
156
157
157
159
161
164
164
165
165
167
169
170
170
172
175
179
179
181
184
188
191
191
192
192
193
194
194
195
195
195
196
197
197
198
198
199
201
206
207
209
213
215
215
216
216
217
223
223
227
227
227
227
228
232
233
235
236
236
238
238
238
241
244
245
245
246
246
248
251
251
253
254
255
255
255
256
257
259
260
261
261
261
261
265
267
270
272
272
273
273
274
275
275
275
276
276
276
277
279
280
282
282
283
286
287
287
287
289
291
295
296
296
297
298
301
302
302
304
304
305
305
306
306
307
311
311
312
312
312
312
313
313
314
315
316
316
317
317
325
326
326
328
329
329
331
336
338
339
340
340
340
341
342
342
343
343
344
344
346
348
349
350
352
354
356
357
357
358
361
362
363
363
363
363
364
367
367
368
372
381
382
382
383
384
384
384
385
385
387
388
389
390
393
394
395
395
396
398
398
398
400
401
401
402
403
404
406
406
408
408
409
413
414
415
417
418
419
420
422
424
426
428
430
433
434
434
435
436
436
436
436
438
439
441
441
445
446
447
448
448
449
449
451
452
453
453
454
454
455
457
458
459
460
463
464
466
466
466
467
467
467
468
469
469
469
472
473
474
476
477
482
484
486
486
487
489
489
492
493
496
498
501
502
502
503
503
508
511
513
514
515
515
515
515
517
517
518
519
519
520
528
528
528
529
530
533
534
536
537
538
539
541
541
543
545
546
547
547
548
550
551
554
554
554
554
555
555
555
556
557
557
558
560
561
563
563
564
564
564
564
565
565
568
568
569
570
571
571
571
572
572
574
575
576
577
578
578
578
579
581
581
582
583
584
586
586
586
589
592
595
595
596
597
602
602
603
606
607
607
607
608
609
610
610
610
611
611
611
612
613
613
614
615
616
617
620
621
622
625
628
631
633
635
638
639
639
640
641
641
641
642
642
643
644
645
645
646
646
647
647
648
649
649
651
653
653
655
656
657
659
660
661
661
661
663
664
664
665
666
668
668
668
669
669
670
671
671
673
673
675
677
678
678
679
682
683
684
685
686
687
688
689
689
690
691
691
691
691
694
696
698
700
700
700
701
701
702
702
703
703
704
705
706
707
708
708
708
708
712
713
715
716
719
721
722
722
722
723
723
724
725
728
731
732
733
737
737
739
740
740
740
741
743
745
747
748
748
753
755
757
757
758
760
762
762
762
763
763
763
764
765
767
768
769
770
771
773
774
775
778
779
782
784
787
787
789
790
791
792
793
798
799
802
804
804
805
805
805
806
806
810
810
812
816
818
818
820
820
820
821
821
823
824
824
824
825
826
827
827
831
831
831
832
834
836
836
840
841
841
842
843
844
845
845
845
846
846
847
849
851
853
854
857
858
858
859
860
860
861
862
862
863
863
863
863
865
865
865
867
869
869
871
872
874
875
877
878
879
879
879
880
883
883
885
890
890
891
895
895
896
896
899
899
899
900
902
903
904
904
904
904
904
905
905
906
906
906
907
907
908
908
909
909
909
910
912
912
912
913
914
914
915
915
916
918
918
918
919
921
922
923
924
924
925
926
926
928
929
930
930
931
931
931
932
932
933
935
935
936
936
937
938
940
941
943
943
948
949
952
953
953
953
956
957
957
957
958
960
961
962
962
962
963
964
967
969
970
973
973
973
975
976
978
979
979
981
983
984
985
987
987
987
988
989
990
990
990
991
992
993
993
994
994
995
997
998
999
999
1000
1000
1002
1003
1003
1003
1005
1007
1008
1008
1009
1010
1011
1012
1013
1015
1016
1016
1017
1017
1019
1021
1022
1022
1023
1027
1028
1028
1029
1029
1030
1031
1033
1033
1034
1034
1035
1035
1036
1037
1038
1038
1041
1042
1042
1043
1044
1044
1044
1046
1046
1046
1046
1047
1047
1048
1049
1052
1052
1052
1053
1053
1054
1054
1056
1057
1057
1059
1060
1060
1061
1062
1062
1062
1063
1063
1067
1068
1069
1070
1071
1073
1073
1073
1074
1075
1075
1076
1079
1081
1082
1087
1087
1087
1088
1089
1090
1091
1091
1092
1093
1095
1098
1100
1102
1103
1103
1104
1105
1105
1106
1106
1106
1106
1107
1108
1108
1108
1109
1110
1111
1112
1113
1114
1114
1115
1115
1116
1116
1118
1118
1120
1120
1121
1121
1121
1124
1125
1127
1129
1129
1130
1131
1132
1137
1137
1138
1139
1139
1139
1142
1144
1145
1146
1146
1146
1147
1147
1148
1149
1151
1151
1153
1154
1155
1155
1157
1159
1162
1164
1166
1169
1170
1170
1170
1172
1174
1176
1177
1177
1179
1180
1181
1182
1183
1183
1183
1186
1186
1188
1188
1190
1191
1193
1193
1193
1193
1195
1196
1198
1199
1199
1199
1202
1202
1205
1205
1207
1209
1209
1209
1210
1210
1211
1213
1213
1213
1215
1215
1216
1216
1216
1216
1216
1218
1218
1219
1219
1219
1220
1220
1221
1222
1224
1224
1224
1226
1227
1228
1229
1229
1229
1232
1232
1232
1233
1234
1235
1236
1237
1237
1238
1239
1240
1241
1248
1248
1249
1250
1252
1253
1253
1254
1254
1256
1258
1259
1259
1260
1260
1261
1261
1261
1264
1267
1267
1268
1269
1270
1270
1270
1271
1272
1272
1273
1274
1277
1278
1279
1280
1280
1280
1280
1280
1282
1284
1285
1286
1286
1287
1287
1287
1287
1289
1289
1291
1291
1291
1292
1292
1292
1292
1294
1295
1298
1299
1300
1301
1302
1303
1303
1303
1304
1307
1307
1310
1312
1312
1313
1313
1314
1314
1316
1318
1318
1320
1320
1320
1323
1323
1323
1324
1324
1325
1326
1329
1332
1332
1334
1334
1335
1336
1337
1338
1338
1340
1341
1342
1344
1345
1345
1345
1349
1350
1350
1353
1353
1355
1355
1355
1356
1356
1357
1359
1361
1363
1363
1365
1365
1365
1365
1365
1368
1370
1370
1371
1371
1371
1373
1374
1375
1376
1376
1377
1378
1379
1380
1382
1383
1383
1384
1384
1386
1387
1388
1388
1388
1389
1390
1391
1391
1391
1395
1395
1397
1399
1406
1407
1410
1410
1411
1411
1415
1416
1416
1417
1417
1418
1418
1418
1419
1420
1420
1422
1426
1428
1432
1433
1434
1435
1436
1436
1437
1439
1439
1440
1440
1441
1441
1441
1442
1442
1443
1443
1444
1448
1448
1450
1453
1453
1454
1455
1455
1455
1456
1459
1461
1462
1464
1464
1466
1466
1466
1466
1467
1468
1470
1472
1473
1473
1473
1474
1475
1476
1476
1476
1477
1478
1479
1480
1482
1482
1482
1482
1483
1485
1486
1486
1488
1489
1489
1489
1489
1489
1490
1491
1491
1492
1493
1493
1494
1494
1494
1495
1498
1500
1506
1506
1507
1507
1509
1511
1513
1514
1516
1516
1520
1521
1522
1522
1524
1525
1526
1529
1530
1531
1538
1538
1539
1539
1539
1540
1541
1542
1543
1544
1547
1549
1550
1551
1551
1552
1552
1553
1553
1556
1556
1557
1558
1559
1560
1562
1563
1564
1568
1568
1570
1570
1574
1578
1580
1581
1583
1586
1587
1588
1588
1589
1590
1590
1591
1592
1597
1598
1598
1599
1601
1601
1602
1602
1603
1604
1604
1605
1605
1607
1607
1610
1612
1613
1613
1615
1615
1616
1618
1619
1619
1624
1627
1630
1631
1633
1633
1634
1634
1635
1636
1637
1639
1639
1640
1644
1646
1648
1648
1648
1650
1653
1654
1656
1657
1657
1659
1662
1665
1666
1669
1671
1672
1672
1674
1675
1679
1679
1679
1680
1681
1681
1682
1684
1685
1685
1686
1686
1687
1688
1688
1688
1689
1689
1691
1691
1691
1692
1694
1694
1695
1695
1696
1696
1696
1696
1697
1698
1699
1700
1700
1700
1701
1703
1703
1704
1705
1705
1706
1706
1706
1709
1710
1711
1711
1713
1716
1717
1718
1718
1719
1720
1721
1722
1723
1724
1725
1726
1726
1727
1729
1730
1734
1734
1735
1736
1739
1739
1740
1741
1741
1742
1742
1745
1745
1746
1746
1747
1747
1747
1748
1750
1750
1751
1752
1752
1752
1752
1753
1754
1756
1757
1758
1758
1759
1761
1762
1762
1763
1763
1763
1763
1764
1764
1765
1768
1771
1771
1772
1773
1773
1775
1776
1776
1778
1779
1781
1782
1783
1786
1786
1786
1787
1787
1787
1789
1791
1792
1792
1793
1793
1793
1793
1794
1794
1795
1797
1797
1798
1798
1801
1801
1801
1802
1807
1808
1811
1811
1815
1817
1818
1818
1819
1819
1820
1823
1825
1826
1827
1827
1827
1830
1834
1834
1834
1835
1835
1836
1837
1844
1845
1846
1847
1851
1852
1852
1852
1852
1854
1854
1855
1856
1859
1859
1859
1862
1862
1863
1864
1867
1867
1869
1870
1870
1872
1875
1876
1877
1879
1881
1881
1883
1883
1884
1885
1886
1886
1886
1887
1888
1888
1889
1892
1893
1893
1895
1897
1897
1899
1900
1901
1901
1903
1903
1905
1906
1906
1906
1907
1908
1912
1919
1919
1919
1921
1922
1922
1924
1927
1929
1929
1931
1931
1931
1932
1933
1934
1938
1938
1938
1939
1940
1940
1940
1940
1941
1942
1942
1945
1945
1947
1947
1949
1951
1952
1952
1953
1953
1954
1955
1955
1958
1959
1959
1960
1960
1961
1962
1963
1963
1965
1965
1965
1966
1967
1967
1969
1969
1970
1972
1972
1972
1972
1973
1974
1974
1974
1974
1975
1976
1976
1976
1977
1977
1977
1977
1978
1978
1978
1979
1979
1980
1981
1981
1984
1985
1986
1987
1988
1988
1989
1992
1992
1993
1994
1998
1999
2000
2000
2000
2000
2007
2009
2009
2009
2009
2011
2012
2012
2013
2014
2015
2016
2017
2018
2020
2020
2023
2025
2026
2028
2028
2030
2031
2032
2032
2032
2033
2033
2033
2036
2037
2038
2039
2040
2043
2043
2043
2045
2046
2046
2048
2051
2051
2052
2052
2053
2055
2056
2058
2058
2059
2062
2063
2063
2063
2064
2065
2065
2065
2067
2068
2068
2068
2069
2071
2071
2072
2073
2073
2075
2075
2075
2076
2077
2078
2078
2078
2079
2079
2080
2081
2081
2082
2082
2087
2088
2089
2089
2090
2092
2093
2094
2094
2095
2096
2098
2098
2099
2100
2107
2108
2110
2111
2112
2113
2113
2114
2115
2117
2118
2119
2121
2122
2122
2124
2124
2125
2128
2129
2130
2132
2132
2133
2135
2136
2136
2137
2138
2139
2139
2140
2141
2141
2143
2143
2144
2144
2144
2146
2147
2149
2149
2151
2152
2152
2153
2153
2153
2154
2154
2156
2157
2158
2158
2159
2159
2159
2161
2161
2162
2163
2163
2163
2164
2165
2166
2168
2169
2169
2171
2171
2172
2173
2174
2174
2175
2175
2176
2176
2177
2178
2180
2181
2181
2182
2182
2183
2183
2185
2185
2189
2190
2192
2193
2196
2196
2197
2198
2198
2198
2199
2200
2200
2200
2202
2202
2203
2204
2204
2204
2206
2208
2208
2209
2210
2210
2210
2210
2210
2211
2213
2213
2214
2214
2216
2218
2219
2220
2220
2221
2222
2222
2223
2224
2225
2225
2225
2227
2228
2228
2228
2231
2232
2233
2233
2234
2235
2235
2236
2236
2236
2237
2238
2238
2239
2239
2239
2240
2243
2243
2244
2245
2247
2248
2251
2251
2252
2252
2252
2254
2256
2257
2260
2261
2261
2262
2262
2262
2265
2266
2267
2267
2268
2268
2268
2269
2269
2269
2269
2270
2270
2272
2273
2273
2275
2278
2279
2280
2280
2280
2281
2282
2284
2285
2286
2286
2288
2289
2289
2290
2291
2292
2293
2293
2294
2294
2294
2295
2295
2300
2300
2301
2301
2305
2305
2306
2307
2308
2308
2311
2311
2312
2313
2313
2314
2314
2316
2317
2317
2318
2318
2319
2319
2319
2321
2321
2322
2324
2325
2325
2325
2326
2328
2330
2331
2334
2336
2337
2338
2338
2338
2339
2340
2341
2341
2342
2343
2343
2343
2344
2345
2345
2348
2349
2349
2349
2350
2353
2353
2355
2355
2358
2359
2364
2366
2367
2367
2367
2367
2370
2370
2370
2372
2372
2373
2373
2374
2375
2375
2378
2379
2379
2380
2382
2383
2385
2387
2388
2392
2393
2394
2394
2396
2397
2397
2399
2399
2399
2399
2402
2404
2404
2405
2406
2407
2407
2409
2409
2413
2413
2414
2415
2418
2419
2419
2420
2421
2422
2424
2425
2427
2429
2432
2434
2435
2435
2435
2437
2437
2437
2440
2441
2442
2442
2443
2443
2445
2445
2446
2447
2448
2450
2451
2451
2452
2454
2456
2458
2460
2461
2462
2464
2465
2465
2466
2467
2468
2469
2469
2470
2470
2471
2472
2474
2475
2475
2478
2478
2479
2479
2479
2480
2482
2482
2485
2486
2487
2488
2488
2489
2489
2489
2489
2490
2490
2490
2492
2493
2494
2496
2498
2498
2498
2501
2504
2504
2504
2509
2510
2510
2511
2513
2513
2514
2515
2516
2518
2518
2519
2520
2521
2524
2528
2528
2528
2530
2530
2532
2533
2533
2533
2534
2534
2535
2535
2536
2536
2536
2539
2540
2542
2543
2545
2545
2550
2551
2553
2554
2557
2559
2560
2560
2561
2563
2563
2565
2565
2567
2567
2567
2567
2567
2568
2569
2569
2571
2576
2576
2577
2578
2578
2579
2580
2582
2583
2583
2586
2586
2588
2588
2589
2589
2590
2592
2592
2592
2593
2595
2595
2595
2595
2600
2602
2602
2603
2604
2605
2606
2606
2608
2609
2609
2609
2610
2612
2612
2614
2614
2615
2615
2616
2619
2619
2620
2622
2622
2624
2627
2628
2631
2634
2634
2636
2636
2638
2638
2639
2639
2640
2640
2640
2642
2643
2645
2654
2655
2656
2656
2656
2657
2659
2659
2659
2659
2661
2663
2664
2665
2665
2666
2670
2672
2673
2674
2674
2676
2677
2677
2677
2678
2678
2681
2682
2684
2684
2685
2685
2686
2687
2687
2688
2689
2690
2691
2691
2691
2692
2692
2693
2693
2695
2695
2695
2697
2698
2700
2701
2702
2702
2705
2708
2709
2709
2711
2712
2712
2713
2714
2715
2716
2716
2717
2717
2719
2723
2726
2726
2731
2732
2735
2738
2738
2742
2744
2745
2746
2746
2746
2746
2748
2753
2754
2754
2755
2757
2757
2761
2762
2765
2765
2766
2767
2768
2768
2770
2770
2770
2771
2771
2771
2772
2773
2775
2776
2776
2778
2779
2780
2782
2782
2783
2783
2785
2785
2786
2786
2787
2788
2788
2789
2790
2791
2791
2791
2793
2793
2796
2796
2797
2798
2799
2801
2802
2802
2802
2803
2803
2803
2803
2804
2804
2805
2806
2806
2807
2808
2809
2809
2810
2811
2812
2813
2815
2815
2822
2824
2824
2825
2825
2827
2829
2830
2832
2832
2832
2833
2834
2836
2838
2838
2839
2840
2846
2846
2847
2848
2850
2850
2851
2851
2851
2853
2854
2854
2854
2860
2861
2862
2862
2863
2865
2867
2867
2868
2869
2869
2874
2875
2879
2882
2883
2884
2884
2886
2887
2887
2889
2889
2890
2891
2891
2892
2892
2893
2895
2895
2896
2896
2896
2899
2899
2900
2903
2903
2903
2903
2904
2908
2908
2909
2909
2911
2912
2912
2919
2920
2921
2921
2921
2922
2923
2926
2926
2927
2927
2928
2930
2931
2932
2932
2933
2933
2934
2936
2937
2940
2941
2941
2944
2944
2946
2951
2956
2957
2957
2957
2958
2959
2959
2960
2961
2961
2964
2965
2965
2966
2967
2969
2970
2972
2973
2974
2976
2976
2976
2976
2979
2981
2982
2983
2984
2984
2984
2984
2986
2988
2989
2989
2991
2992
2992
2992
2992
2992
2993
2993
2993
2993
2995
2996
2996
2998
3002
3004
3007
3009
3009
3009
3010
3011
3015
3016
3017
3020
3020
3021
3022
3026
3027
3027
3027
3030
3031
3032
3033
3033
3034
3035
3035
3036
3036
3037
3037
3040
3040
3041
3041
3042
3043
3044
3045
3045
3045
3045
3046
3046
3047
3051
3053
3055
3059
3060
3063
3063
3063
3070
3071
3072
3074
3074
3074
3075
3077
3078
3079
3079
3079
3080
3082
3083
3084
3084
3085
3085
3086
3087
3089
3090
3090
3091
3094
3097
3098
3098
3100
3100
3102
3103
3106
3106
3112
3113
3114
3114
3115
3119
3119
3119
3121
3121
3123
3124
3126
3130
3131
3133
3133
3133
3134
3138
3138
3140
3141
3144
3144
3145
3145
3148
3148
3149
3149
3151
3151
3151
3153
3155
3156
3156
3157
3158
3159
3160
3160
3160
3161
3162
3162
3163
3164
3165
3165
3165
3166
3168
3168
3169
3169
3170
3170
3170
3171
3173
3173
3173
3174
3175
3177
3177
3178
3178
3179
3179
3179
3180
3180
3182
3186
3187
3188
3190
3193
3195
3195
3196
3197
3199
3199
3201
3202
3204
3205
3206
3209
3209
3211
3211
3212
3212
3213
3214
3214
3214
3214
3214
3215
3216
3217
3217
3219
3219
3224
3224
3224
3224
3226
3229
3232
3233
3233
3233
3234
3235
3236
3236
3237
3238
3240
3240
3244
3245
3245
3246
3246
3249
3250
3251
3252
3253
3254
3258
3259
3259
3262
3267
3268
3268
3269
3270
3272
3274
3276
3276
3277
3278
3278
3280
3282
3283
3283
3284
3285
3285
3285
3291
3291
3293
3293
3293
3294
3295
3296
3297
3298
3300
3300
3302
3304
3304
3304
3308
3311
3311
3311
3312
3312
3314
3314
3314
3317
3321
3321
3322
3323
3323
3326
3328
3329
3329
3330
3330
3330
3333
3337
3337
3339
3340
3340
3340
3342
3343
3345
3346
3346
3347
3349
3352
3352
3353
3354
3355
3357
3360
3362
3364
3364
3364
3365
3366
3367
3368
3368
3368
3369
3369
3370
3370
3375
3378
3379
3379
3379
3380
3380
3380
3383
3385
3386
3387
3387
3387
3389
3389
3390
3390
3391
3392
3392
3392
3393
3393
3393
3396
3397
3397
3397
3403
3405
3407
3408
3408
3409
3409
3410
3410
3413
3414
3415
3417
3419
3419
3421
3421
3425
3425
3425
3431
3431
3432
3432
3434
3434
3437
3437
3440
3440
3440
3442
3442
3445
3446
3446
3448
3448
3449
3450
3451
3451
3452
3456
3457
3458
3459
3459
3460
3461
3462
3462
3464
3465
3465
3467
3468
3469
3469
3469
3470
3472
3475
3475
3476
3477
3479
3480
3481
3481
3483
3484
3485
3485
3486
3489
3489
3489
3491
3492
3493
3494
3497
3497
3498
3499
3499
3500
3502
3502
3503
3503
3503
3503
3505
3506
3507
3507
3508
3508
3509
3509
3509
3512
3516
3517
3519
3519
3522
3526
3526
3528
3532
3533
3536
3536
3538
3538
3540
3540
3542
3542
3543
3545
3546
3548
3548
3550
3551
3551
3553
3553
3553
3554
3555
3556
3558
3560
3562
3564
3565
3566
3566
3568
3568
3569
3570
3572
3573
3574
3574
3576
3577
3578
3578
3578
3578
3579
3580
3580
3581
3582
3582
3585
3586
3586
3586
3588
3589
3590
3590
3591
3592
3592
3595
3596
3597
3599
3599
3600
3601
3602
3605
3605
3607
3609
3610
3610
3611
3612
3612
3613
3614
3614
3616
3617
3617
3618
3618
3619
3619
3622
3622
3623
3623
3625
3626
3627
3627
3627
3630
3630
3630
3630
3631
3632
3633
3633
3634
3634
3635
3635
3635
3638
3639
3640
3640
3640
3642
3642
3642
3643
3643
3644
3644
3645
3645
3646
3647
3648
3649
3649
3650
3651
3651
3656
3656
3657
3657
3658
3658
3658
3659
3660
3662
3668
3669
3669
3672
3673
3674
3678
3678
3678
3679
3679
3679
3679
3680
3681
3682
3682
3682
3683
3684
3685
3688
3690
3692
3692
3693
3695
3696
3696
3697
3697
3697
3699
3699
3699
3700
3703
3704
3705
3706
3706
3707
3709
3710
3711
3711
3713
3713
3713
3714
3714
3715
3715
3715
3716
3716
3719
3720
3722
3723
3724
3727
3729
3730
3731
3732
3733
3734
3734
3735
3736
3737
3739
3742
3747
3747
3748
3749
3749
3750
3751
3752
3755
3756
3756
3757
3760
3761
3762
3763
3763
3763
3766
3767
3767
3767
3770
3771
3771
3774
3775
3775
3777
3777
3777
3778
3779
3779
3780
3780
3782
3782
3783
3783
3783
3784
3785
3789
3789
3789
3790
3791
3791
3794
3795
3796
3797
3798
3798
3798
3798
3799
3800
3800
3802
3805
3805
3807
3807
3808
3808
3809
3809
3811
3812
3813
3814
3814
3816
3816
3816
3816
3816
3817
3818
3819
3820
3821
3823
3824
3825
3827
3828
3830
3831
3834
3834
3836
3838
3839
3839
3839
3840
3840
3840
3842
3842
3843
3843
3844
3845
3845
3848
3848
3850
3851
3853
3853
3854
3856
3856
3856
3857
3861
3861
3862
3863
3863
3864
3864
3865
3865
3865
3866
3866
3868
3869
3870
3872
3873
3873
3874
3874
3875
3876
3877
3878
3878
3880
3880
3880
3880
3882
3884
3884
3884
3885
3887
3887
3889
3890
3892
3894
3895
3895
3896
3896
3897
3897
3898
3899
3901
3903
3904
3906
3908
3909
3910
3910
3911
3912
3913
3913
3913
3916
3916
3917
3917
3918
3918
3918
3920
3920
3920
3922
3925
3925
3927
3929
3930
3930
3932
3934
3934
3934
3935
3937
3937
3939
3941
3941
3942
3943
3944
3945
3945
3946
3948
3949
3949
3949
3952
3953
3953
3954
3954
3955
3960
3961
3964
3964
3965
3966
3971
3971
3971
3971
3973
3973
3974
3975
3976
3978
3982
3982
3982
3983
3984
3984
3985
3985
3986
3987
3990
3991
3996
3997
3997
3998
3999
3999
4002
4003
4005
4005
4006
4008
4008
4009
4010
4013
4013
4013
4017
4019
4020
4021
4021
4023
4025
4026
4027
4030
4031
4032
4032
4033
4037
4039
4039
4039
4040
4040
4042
4044
4045
4045
4046
4048
4050
4052
4052
4052
4054
4054
4054
4055
4055
4056
4057
4057
4060
4060
4064
4066
4066
4067
4068
4069
4069
4071
4072
4072
4073
4073
4076
4077
4080
4080
4081
4081
4082
4082
4082
4085
4085
4085
4086
4086
4086
4088
4088
4088
4091
4094
4096
4096
4099
4099
4099
4101
4101
4101
4105
4105
4107
4107
4108
4109
4110
4111
4112
4114
4114
4115
4115
4116
4117
4117
4117
4118
4119
4120
4120
4121
4124
4124
4125
4126
4127
4127
4127
4128
4129
4130
4130
4134
4134
4137
4138
4139
4140
4141
4142
4144
4147
4148
4148
4149
4150
4152
4153
4153
4154
4154
4158
4158
4159
4160
4161
4161
4162
4162
4162
4162
4162
4162
4162
4163
4163
4166
4167
4168
4170
4171
4172
4174
4174
4175
4178
4178
4179
4181
4186
4186
4188
4190
4196
4197
4198
4198
4199
4199
4199
4199
4200
4200
4202
4204
4206
4207
4207
4209
4209
4210
4211
4211
4211
4214
4215
4217
4218
4219
4220
4221
4223
4225
4225
4225
4226
4227
4228
4229
4229
4229
4230
4231
4232
4234
4234
4235
4237
4240
4240
4241
4243
4243
4243
4244
4246
4249
4250
4251
4251
4251
4253
4253
4254
4255
4255
4255
4257
4257
4258
4259
4260
4260
4264
4268
4268
4268
4269
4271
4271
4272
4272
4273
4275
4275
4275
4279
4279
4280
4281
4281
4281
4285
4285
4286
4287
4287
4288
4289
4290
4292
4294
4294
4294
4295
4295
4295
4296
4296
4301
4305
4306
4308
4308
4308
4309
4309
4310
4313
4314
4314
4314
4314
4317
4323
4323
4323
4325
4326
4327
4330
4331
4331
4332
4332
4333
4334
4334
4337
4337
4337
4339
4339
4342
4342
4346
4346
4347
4348
4348
4348
4351
4353
4355
4355
4357
4358
4358
4361
4362
4363
4363
4363
4366
4366
4368
4368
4370
4370
4373
4373
4374
4375
4378
4378
4379
4380
4381
4381
4382
4389
4390
4390
4391
4392
4392
4392
4394
4394
4396
4398
4399
4400
4403
4403
4403
4404
4405
4405
4406
4407
4408
4412
4412
4412
4412
4413
4413
4415
4415
4415
4415
4416
4416
4417
4417
4418
4418
4420
4421
4422
4423
4424
4425
4425
4426
4426
4427
4429
4429
4430
4430
4432
4432
4434
4434
4436
4436
4438
4438
4438
4439
4440
4440
4441
4442
4443
4444
4446
4447
4447
4448
4448
4450
4451
4453
4454
4454
4454
4454
4456
4456
4457
4458
4458
4458
4458
4460
4460
4463
4464
4465
4466
4467
4469
4469
4470
4472
4473
4474
4474
4478
4481
4481
4483
4483
4485
4486
4487
4489
4491
4491
4492
4493
4493
4494
4495
4497
4499
4500
4500
4500
4501
4502
4502
4502
4503
4505
4505
4506
4506
4506
4510
4514
4515
4518
4519
4519
4519
4519
4520
4522
4522
4524
4526
4529
4530
4531
4531
4532
4532
4534
4535
4535
4536
4536
4539
4541
4542
4544
4544
4545
4546
4547
4547
4550
4551
4553
4553
4554
4554
4554
4554
4555
4555
4555
4557
4559
4560
4561
4561
4561
4561
4561
4564
4564
4564
4566
4570
4570
4570
4572
4573
4573
4577
4578
4583
4584
4586
4588
4589
4589
4590
4593
4593
4596
4596
4597
4597
4599
4601
4602
4603
4604
4607
4607
4613
4613
4614
4614
4614
4614
4615
4617
4620
4620
4620
4622
4622
4625
4626
4627
4628
4628
4631
4631
4632
4633
4633
4634
4636
4636
4636
4637
4639
4641
4643
4644
4645
4647
4647
4648
4648
4648
4649
4650
4652
4652
4653
4653
4654
4655
4655
4655
4656
4656
4656
4657
4657
4658
4662
4662
4664
4664
4665
4665
4665
4666
4666
4668
4668
4669
4671
4671
4672
4672
4672
4673
4674
4675
4678
4679
4679
4679
4682
4682
4683
4683
4683
4683
4684
4685
4686
4686
4687
4688
4688
4689
4689
4689
4691
4692
4693
4694
4695
4695
4695
4696
4698
4699
4699
4701
4701
4702
4702
4704
4705
4705
4705
4705
4706
4706
4707
4708
4709
4709
4710
4710
4710
4711
4713
4714
4715
4715
4715
4720
4720
4720
4721
4722
4724
4726
4726
4727
4728
4731
4733
4733
4734
4735
4736
4736
4737
4737
4738
4739
4741
4741
4742
4744
4744
4745
4745
4746
4747
4748
4749
4750
4750
4751
4754
4754
4754
4754
4755
4755
4755
4756
4757
4757
4759
4759
4759
4759
4760
4760
4763
4763
4763
4764
4764
4766
4767
4768
4769
4772
4772
4773
4776
4776
4777
4778
4778
4779
4780
4780
4782
4783
4786
4788
4790
4791
4793
4794
4795
4796
4799
4799
4799
4800
4800
4800
4802
4802
4803
4804
4806
4807
4807
4810
4810
4811
4812
4812
4812
4812
4815
4815
4819
4820
4820
4822
4823
4827
4827
4828
4828
4828
4829
4831
4833
4833
4834
4835
4836
4836
4838
4839
4840
4843
4846
4846
4846
4847
4847
4848
4849
4849
4851
4851
4852
4852
4853
4854
4855
4856
4857
4858
4858
4859
4859
4860
4860
4862
4866
4866
4866
4869
4870
4870
4873
4875
4875
4876
4877
4878
4881
4882
4882
4883
4885
4886
4886
4886
4886
4887
4888
4889
4890
4894
4895
4896
4896
4897
4900
4900
4900
4901
4903
4903
4905
4907
4909
4910
4910
4911
4912
4912
4913
4913
4915
4915
4916
4916
4916
4917
4918
4918
4921
4922
4923
4924
4925
4928
4930
4930
4931
4931
4931
4931
4933
4934
4935
4935
4938
4938
4942
4943
4944
4945
4948
4950
4953
4954
4955
4955
4956
4958
4959
4959
4963
4964
4965
4965
4966
4966
4967
4968
4970
4971
4972
4973
4974
4974
4975
4975
4980
4980
4982
4984
4984
4985
4986
4986
4988
4988
4988
4989
4989
4991
4991
4991
4995
4995
4995
4996
4997
4997
4998
4999
5002
5002
5003
5005
5006
5006
5007
5008
5012
5012
5013
5013
5014
5015
5016
5016
5017
5018
5019
5021
5022
5022
5022
5024
5025
5026
5028
5031
5031
5031
5032
5032
5033
5033
5033
5033
5034
5034
5036
5036
5036
5038
5039
5040
5040
5042
5043
5043
5044
5047
5050
5050
5051
5052
5052
5052
5053
5053
5054
5056
5057
5057
5057
5059
5059
5061
5064
5064
5064
5065
5065
5068
5069
5069
5070
5071
5071
5075
5075
5077
5078
5079
5080
5081
5086
5086
5086
5088
5090
5094
5094
5095
5097
5098
5098
5101
5101
5102
5102
5102
5103
5107
5110
5110
5110
5114
5115
5115
5115
5116
5116
5116
5117
5118
5119
5119
5120
5120
5121
5122
5122
5122
5124
5124
5126
5127
5127
5129
5132
5133
5133
5136
5136
5136
5139
5140
5141
5142
5143
5143
5146
5148
5151
5152
5152
5153
5155
5155
5158
5159
5160
5164
5164
5167
5170
5171
5171
5171
5173
5173
5178
5180
5180
5182
5183
5184
5185
5186
5187
5188
5189
5191
5192
5193
5194
5197
5198
5198
5198
5198
5200
5200
5201
5202
5203
5204
5207
5208
5210
5211
5212
5214
5214
5214
5214
5214
5215
5216
5216
5222
5223
5223
5224
5227
5228
5228
5228
5229
5229
5232
5234
5234
5235
5236
5236
5236
5236
5238
5239
5239
5240
5240
5241
5241
5247
5248
5250
5251
5252
5253
5254
5257
5258
5258
5258
5259
5260
5260
5262
5263
5264
5264
5265
5266
5268
5268
5270
5270
5271
5271
5272
5278
5279
5279
5280
5281
5281
5282
5284
5284
5285
5286
5288
5289
5293
5293
5294
5294
5297
5297
5298
5300
5300
5301
5302
5304
5305
5305
5305
5305
5305
5308
5308
5309
5309
5310
5311
5311
5313
5313
5313
5315
5316
5318
5319
5319
5320
5322
5322
5322
5325
5330
5331
5332
5332
5333
5333
5334
5336
5336
5339
5339
5344
5344
5347
5347
5348
5350
5353
5354
5356
5357
5358
5358
5358
5361
5361
5361
5362
5362
5363
5363
5366
5367
5368
5370
5371
5374
5376
5377
5378
5381
5381
5383
5384
5386
5389
5390
5391
5392
5394
5395
5395
5396
5397
5398
5398
5398
5401
5401
5402
5402
5403
5404
5404
5405
5405
5410
5412
5412
5412
5413
5413
5413
5413
5415
5415
5415
5415
5417
5417
5417
5419
5419
5421
5427
5427
5427
5428
5429
5429
5430
5431
5432
5432
5432
5433
5433
5434
5435
5436
5437
5437
5438
5440
5441
5442
5443
5444
5446
5448
5449
5451
5451
5452
5454
5455
5455
5455
5457
5458
5460
5460
5461
5464
5466
5466
5468
5469
5469
5472
5472
5472
5472
5473
5473
5474
5474
5476
5477
5477
5478
5479
5480
5480
5481
5481
5484
5484
5485
5485
5485
5485
5486
5491
5492
5493
5493
5493
5496
5496
5497
5498
5498
5500
5501
5503
5504
5504
5505
5506
5507
5509
5509
5509
5509
5511
5512
5512
5513
5515
5520
5520
5521
5522
5525
5525
5525
5526
5526
5526
5527
5527
5528
5529
5529
5530
5530
5530
5531
5535
5537
5537
5538
5543
5544
5545
5545
5545
5546
5546
5550
5551
5552
5553
5556
5557
5557
5558
5559
5560
5560
5560
5563
5565
5565
5565
5567
5569
5569
5570
5570
5571
5573
5574
5575
5575
5577
5577
5581
5581
5583
5584
5585
5586
5588
5588
5588
5592
5593
5593
5594
5595
5596
5597
5597
5598
5598
5599
5600
5600
5601
5601
5601
5602
5603
5604
5605
5605
5605
5605
5606
5607
5608
5610
5611
5612
5613
5614
5615
5615
5616
5618
5619
5622
5623
5623
5625
5626
5626
5627
5628
5629
5629
5631
5634
5635
5635
5635
5636
5636
5636
5636
5637
5638
5642
5642
5642
5645
5645
5647
5650
5651
5652
5653
5653
5656
5656
5659
5659
5661
5662
5662
5662
5663
5663
5663
5664
5665
5666
5667
5668
5668
5668
5669
5670
5670
5672
5674
5676
5676
5677
5678
5679
5680
5683
5683
5683
5684
5684
5685
5686
5687
5688
5688
5688
5690
5690
5692
5692
5693
5693
5693
5694
5695
5696
5697
5697
5698
5699
5700
5700
5701
5702
5702
5702
5705
5706
5706
5707
5708
5710
5710
5710
5711
5712
5712
5714
5718
5721
5723
5725
5726
5729
5732
5734
5735
5736
5739
5739
5740
5740
5740
5740
5741
5741
5742
5744
5745
5747
5749
5750
5751
5751
5753
5753
5753
5753
5754
5754
5755
5755
5755
5757
5758
5758
5758
5759
5760
5761
5761
5761
5763
5764
5765
5766
5771
5771
5772
5773
5774
5775
5775
5776
5778
5778
5780
5782
5783
5784
5785
5786
5786
5788
5790
5792
5792
5793
5793
5794
5797
5797
5798
5800
5801
5802
5802
5802
5803
5807
5808
5808
5810
5812
5813
5813
5814
5814
5814
5816
5817
5818
5819
5823
5823
5825
5825
5826
5828
5830
5830
5831
5832
5834
5834
5834
5836
5837
5837
5840
5841
5842
5843
5844
5845
5846
5847
5847
5848
5849
5850
5850
5850
5851
5852
5853
5853
5854
5859
5860
5862
5863
5863
5864
5864
5866
5867
5873
5874
5876
5876
5878
5880
5881
5881
5882
5884
5885
5886
5886
5887
5887
5890
5894
5895
5896
5896
5897
5897
5900
5900
5900
5901
5903
5907
5908
5909
5909
5911
5914
5916
5917
5918
5919
5920
5927
5927
5929
5929
5929
5929
5930
5931
5931
5932
5935
5935
5936
5938
5939
5940
5941
5941
5944
5945
5945
5946
5947
5948
5949
5949
5949
5952
5952
5954
5954
5956
5956
5958
5958
5959
5960
5961
5963
5965
5967
5967
5969
5973
5973
5974
5975
5975
5976
5977
5979
5981
5982
5983
5985
5988
5989
5990
5991
5992
5992
5992
5992
5994
5995
5996
5998
5999
6000
6001
6003
6004
6004
6007
6008
6010
6012
6015
6015
6018
6022
6022
6023
6023
6023
6023
6024
6024
6024
6026
6026
6029
6029
6032
6032
6032
6033
6033
6033
6035
6035
6036
6036
6037
6037
6038
6038
6039
6040
6042
6042
6043
6044
6044
6047
6048
6050
6051
6052
6052
6054
6054
6058
6058
6059
6062
6063
6063
6063
6066
6066
6068
6068
6068
6071
6072
6072
6073
6074
6074
6076
6079
6079
6080
6081
6082
6082
6082
6082
6083
6085
6085
6085
6087
6087
6088
6088
6088
6089
6089
6090
6091
6092
6092
6094
6095
6095
6095
6096
6097
6097
6098
6098
6101
6101
6103
6105
6106
6106
6108
6109
6110
6110
6111
6112
6113
6114
6114
6114
6114
6116
6117
6117
6118
6118
6119
6120
6121
6121
6125
6129
6130
6131
6137
6137
6138
6138
6139
6139
6140
6146
6149
6149
6150
6150
6151
6154
6154
6156
6159
6160
6160
6161
6162
6163
6164
6165
6165
6167
6168
6170
6170
6171
6173
6174
6177
6179
6181
6183
6184
6185
6190
6191
6191
6193
6194
6196
6197
6199
6199
6199
6202
6204
6204
6207
6208
6209
6209
6209
6210
6210
6211
6211
6213
6214
6216
6217
6218
6218
6222
6222
6223
6224
6226
6226
6229
6229
6230
6231
6232
6233
6235
6235
6236
6238
6239
6239
6240
6241
6244
6244
6244
6247
6247
6249
6251
6254
6254
6256
6256
6258
6259
6259
6261
6261
6262
6263
6264
6265
6265
6266
6267
6268
6268
6270
6272
6272
6272
6273
6274
6275
6276
6277
6280
6280
6282
6285
6285
6287
6288
6289
6289
6290
6291
6292
6293
6294
6294
6295
6298
6300
6301
6303
6303
6304
6304
6307
6307
6309
6310
6310
6310
6311
6311
6314
6315
6315
6317
6317
6318
6320
6321
6323
6323
6324
6325
6327
6328
6329
6330
6330
6331
6331
6331
6333
6333
6334
6334
6336
6337
6338
6338
6338
6338
6340
6342
6344
6346
6349
6349
6353
6355
6357
6357
6359
6360
6360
6361
6361
6361
6362
6363
6363
6363
6364
6364
6369
6370
6370
6371
6374
6380
6381
6381
6384
6384
6384
6385
6386
6387
6388
6388
6390
6390
6393
6394
6395
6396
6398
6398
6399
6401
6402
6402
6403
6403
6406
6407
6407
6409
6409
6412
6414
6414
6415
6416
6418
6420
6422
6423
6423
6423
6425
6425
6427
6427
6428
6429
6429
6429
6429
6429
6430
6430
6431
6431
6432
6435
6437
6437
6438
6438
6440
6440
6441
6444
6444
6446
6446
6449
6452
6452
6455
6456
6456
6457
6457
6457
6458
6458
6460
6460
6464
6466
6467
6468
6468
6469
6470
6471
6472
6473
6474
6474
6476
6476
6477
6477
6477
6477
6479
6479
6481
6481
6481
6481
6482
6482
6483
6485
6487
6489
6490
6490
6493
6494
6495
6498
6499
6499
6500
6501
6502
6503
6503
6504
6507
6509
6509
6510
6512
6512
6513
6516
6516
6519
6519
6523
6523
6524
6526
6527
6527
6527
6527
6528
6528
6529
6533
6533
6535
6535
6536
6537
6539
6541
6543
6545
6545
6546
6551
6558
6561
6562
6562
6564
6564
6566
6567
6568
6570
6572
6572
6573
6573
6574
6574
6577
6578
6579
6580
6580
6582
6584
6586
6586
6586
6587
6587
6588
6589
6589
6591
6592
6592
6592
6593
6593
6595
6595
6598
6598
6598
6599
6602
6602
6603
6604
6604
6608
6612
6612
6613
6613
6615
6616
6617
6617
6617
6619
6619
6620
6620
6621
6626
6628
6628
6628
6630
6632
6633
6636
6637
6638
6639
6641
6643
6643
6644
6644
6647
6647
6648
6648
6652
6653
6654
6655
6657
6657
6659
6661
6661
6661
6664
6664
6665
6667
6667
6668
6670
6671
6672
6672
6672
6673
6674
6674
6677
6677
6677
6679
6680
6684
6684
6686
6686
6687
6687
6688
6689
6689
6689
6689
6693
6694
6695
6695
6696
6697
6698
6699
6699
6700
6700
6702
6702
6703
6705
6706
6707
6708
6709
6709
6710
6714
6721
6722
6722
6723
6725
6726
6726
6729
6731
6733
6734
6734
6734
6735
6735
6736
6736
6739
6739
6739
6740
6740
6742
6748
6749
6751
6751
6752
6753
6755
6755
6756
6756
6757
6760
6761
6761
6762
6762
6762
6763
6767
6767
6769
6769
6770
6770
6770
6772
6773
6774
6774
6776
6776
6779
6781
6782
6783
6784
6785
6786
6789
6791
6791
6792
6792
6794
6794
6795
6796
6797
6798
6798
6799
6801
6801
6801
6802
6803
6804
6804
6805
6805
6808
6808
6809
6809
6809
6810
6810
6811
6812
6814
6815
6816
6818
6819
6821
6825
6826
6826
6827
6828
6829
6831
6834
6834
6835
6836
6836
6838
6839
6840
6841
6842
6842
6843
6849
6852
6853
6853
6854
6855
6855
6856
6856
6858
6859
6860
6862
6866
6868
6869
6869
6871
6872
6873
6873
6874
6874
6876
6878
6880
6881
6881
6881
6883
6886
6891
6891
6892
6896
6897
6898
6898
6900
6900
6901
6901
6902
6902
6904
6905
6907
6909
6910
6913
6913
6914
6916
6921
6923
6923
6923
6924
6924
6925
6926
6926
6930
6931
6935
6935
6936
6938
6939
6939
6940
6941
6943
6945
6946
6947
6949
6950
6950
6951
6951
6952
6953
6954
6955
6956
6958
6958
6959
6959
6960
6960
6963
6963
6964
6964
6964
6965
6965
6966
6967
6968
6968
6971
6973
6975
6976
6977
6977
6980
6980
6981
6983
6983
6984
6985
6985
6987
6988
6989
6989
6991
6991
6992
6992
6993
6994
6995
6996
6999
7000
7000
7000
7002
7002
7003
7004
7006
7006
7009
7011
7011
7014
7015
7016
7018
7019
7020
7020
7022
7022
7023
7025
7026
7026
7027
7027
7028
7030
7030
7030
7031
7031
7032
7033
7034
7035
7035
7036
7038
7040
7042
7042
7043
7043
7044
7044
7046
7048
7048
7051
7053
7054
7055
7059
7059
7059
7060
7061
7062
7065
7067
7068
7069
7071
7072
7073
7074
7076
7078
7080
7080
7082
7084
7084
7085
7087
7087
7088
7089
7092
7093
7093
7094
7094
7097
7098
7099
7099
7102
7102
7103
7105
7107
7107
7108
7108
7109
7110
7110
7112
7114
7119
7120
7120
7122
7125
7126
7126
7128
7135
7135
7136
7137
7137
7139
7139
7141
7142
7142
7143
7143
7144
7144
7144
7144
7146
7147
7147
7147
7147
7148
7148
7149
7150
7151
7153
7153
7153
7153
7154
7156
7158
7158
7160
7160
7162
7165
7167
7167
7167
7167
7170
7172
7173
7175
7175
7177
7177
7178
7178
7179
7179
7179
7182
7183
7183
7186
7190
7190
7190
7192
7194
7195
7197
7199
7199
7201
7202
7203
7203
7206
7208
7209
7212
7214
7214
7215
7215
7216
7217
7217
7217
7217
7219
7221
7221
7221
7222
7222
7223
7224
7225
7226
7229
7230
7230
7231
7231
7231
7233
7233
7235
7236
7236
7239
7239
7240
7242
7244
7245
7249
7252
7252
7254
7255
7258
7258
7262
7262
7262
7265
7268
7271
7271
7271
7273
7273
7274
7274
7275
7276
7278
7280
7281
7282
7283
7284
7286
7287
7287
7287
7290
7291
7292
7293
7297
7298
7299
7300
7301
7301
7304
7305
7305
7306
7306
7308
7309
7310
7312
7312
7313
7313
7314
7316
7316
7317
7318
7318
7319
7319
7320
7322
7325
7327
7330
7332
7333
7333
7334
7335
7336
7336
7339
7339
7341
7343
7344
7344
7345
7345
7346
7347
7348
7350
7350
7350
7351
7352
7352
7353
7354
7354
7357
7358
7358
7359
7360
7361
7362
7364
7364
7366
7366
7368
7369
7369
7371
7372
7372
7373
7374
7377
7378
7381
7382
7382
7382
7383
7383
7385
7385
7386
7386
7387
7387
7389
7389
7390
7390
7390
7390
7391
7393
7393
7394
7394
7395
7397
7398
7398
7399
7399
7402
7403
7403
7403
7405
7405
7405
7407
7408
7411
7413
7415
7416
7419
7425
7425
7427
7427
7428
7428
7429
7430
7431
7432
7432
7432
7433
7436
7442
7442
7442
7443
7445
7447
7449
7450
7450
7451
7453
7453
7454
7454
7455
7455
7457
7458
7458
7459
7460
7461
7461
7462
7462
7463
7464
7466
7466
7468
7469
7469
7469
7470
7470
7471
7472
7472
7474
7475
7475
7477
7477
7478
7478
7478
7479
7480
7480
7480
7480
7481
7481
7481
7482
7483
7485
7485
7485
7486
7488
7490
7490
7491
7492
7493
7495
7500
7500
7501
7502
7502
7502
7503
7504
7504
7504
7505
7505
7506
7506
7508
7508
7511
7513
7513
7516
7517
7518
7520
7522
7524
7524
7524
7524
7525
7525
7527
7528
7531
7531
7533
7533
7534
7535
7535
7535
7536
7537
7538
7539
7539
7540
7542
7543
7543
7545
7545
7547
7548
7548
7548
7550
7550
7551
7554
7554
7554
7556
7557
7558
7559
7560
7561
7561
7563
7564
7565
7565
7567
7568
7569
7569
7572
7573
7575
7576
7576
7576
7576
7576
7580
7581
7583
7583
7584
7588
7589
7593
7593
7594
7595
7596
7596
7598
7598
7599
7599
7600
7601
7601
7602
7603
7605
7605
7606
7607
7607
7608
7608
7609
7611
7611
7613
7614
7614
7615
7617
7617
7617
7618
7620
7621
7621
7622
7622
7622
7623
7624
7626
7626
7626
7626
7628
7629
7630
7632
7632
7632
7633
7634
7634
7635
7637
7637
7638
7638
7640
7640
7640
7641
7643
7644
7645
7645
7646
7647
7647
7647
7647
7648
7649
7651
7651
7652
7652
7652
7653
7655
7657
7657
7659
7660
7661
7662
7665
7665
7668
7669
7669
7669
7670
7670
7672
7673
7679
7681
7681
7682
7683
7684
7686
7688
7693
7694
7694
7694
7696
7697
7698
7698
7700
7701
7702
7704
7707
7708
7709
7710
7711
7713
7713
7714
7715
7716
7717
7719
7720
7720
7720
7721
7721
7722
7725
7726
7726
7727
7727
7727
7728
7730
7731
7732
7732
7732
7734
7735
7735
7737
7737
7738
7739
7739
7741
7741
7741
7743
7746
7746
7747
7748
7748
7750
7750
7755
7756
7757
7758
7758
7759
7760
7760
7760
7761
7762
7763
7764
7764
7764
7764
7765
7765
7766
7767
7769
7771
7772
7775
7776
7777
7777
7778
7778
7779
7780
7780
7780
7780
7782
7783
7784
7784
7787
7787
7789
7789
7790
7791
7792
7793
7794
7795
7795
7797
7798
7798
7799
7800
7801
7801
7803
7803
7804
7804
7804
7804
7806
7807
7807
7809
7811
7811
7812
7812
7813
7813
7815
7817
7817
7818
7819
7819
7820
7823
7824
7825
7826
7826
7826
7827
7827
7828
7829
7830
7830
7831
7832
7835
7838
7840
7841
7841
7841
7842
7842
7844
7845
7847
7848
7850
7850
7851
7851
7851
7851
7852
7854
7855
7855
7855
7856
7857
7857
7858
7858
7861
7862
7863
7865
7867
7867
7868
7871
7871
7872
7874
7875
7879
7880
7881
7881
7881
7881
7884
7885
7885
7889
7889
7890
7892
7892
7892
7893
7894
7896
7896
7897
7898
7898
7898
7899
7901
7904
7906
7906
7907
7907
7908
7912
7913
7914
7914
7916
7917
7919
7921
7921
7921
7922
7926
7927
7927
7929
7931
7931
7931
7932
7932
7934
7935
7935
7936
7940
7941
7942
7944
7944
7945
7952
7953
7955
7956
7957
7958
7959
7960
7960
7961
7962
7963
7963
7964
7965
7965
7967
7968
7968
7969
7969
7969
7969
7970
7970
7970
7970
7970
7973
7974
7974
7976
7977
7978
7982
7983
7984
7985
7985
7986
7987
7989
7989
7990
7990
7993
7993
7993
7994
7994
7997
7997
7998
8001
8001
8001
8001
8002
8002
8002
8004
8004
8010
8014
8015
8015
8016
8018
8018
8018
8018
8018
8018
8019
8019
8019
8021
8021
8021
8022
8022
8024
8026
8029
8030
8031
8032
8032
8033
8035
8036
8036
8037
8038
8039
8039
8040
8041
8042
8042
8042
8044
8045
8045
8047
8047
8050
8050
8051
8051
8055
8055
8057
8057
8060
8061
8064
8064
8065
8065
8066
8067
8069
8070
8070
8071
8073
8073
8073
8073
8074
8078
8079
8080
8081
8082
8082
8086
8088
8089
8090
8092
8092
8096
8096
8097
8098
8102
8103
8105
8106
8108
8109
8109
8112
8113
8115
8116
8116
8117
8117
8118
8120
8122
8122
8124
8126
8127
8128
8128
8128
8130
8130
8132
8132
8132
8136
8141
8141
8141
8142
8145
8145
8146
8148
8148
8149
8150
8151
8151
8152
8152
8152
8153
8154
8157
8158
8158
8159
8159
8159
8163
8163
8165
8166
8167
8168
8169
8169
8170
8170
8171
8173
8174
8175
8178
8179
8180
8182
8182
8184
8184
8185
8185
8187
8187
8187
8189
8193
8194
8194
8198
8200
8201
8201
8202
8203
8206
8206
8212
8213
8213
8214
8215
8215
8216
8221
8221
8223
8226
8226
8229
8230
8230
8231
8232
8234
8235
8235
8236
8236
8236
8237
8237
8239
8242
8243
8244
8244
8244
8245
8245
8246
8248
8249
8249
8249
8250
8254
8254
8255
8258
8260
8260
8260
8262
8262
8262
8262
8262
8262
8264
8264
8265
8265
8266
8267
8269
8270
8270
8273
8273
8274
8275
8277
8277
8278
8278
8278
8279
8279
8280
8280
8281
8281
8282
8285
8286
8287
8287
8288
8288
8288
8290
8291
8291
8291
8293
8294
8294
8295
8298
8299
8300
8300
8303
8303
8303
8305
8306
8306
8306
8307
8307
8307
8309
8310
8310
8311
8312
8312
8313
8314
8314
8315
8315
8318
8318
8319
8320
8320
8320
8321
8321
8321
8323
8324
8326
8327
8329
8332
8335
8335
8336
8338
8339
8341
8342
8342
8343
8343
8345
8346
8347
8351
8351
8355
8356
8358
8358
8359
8359
8360
8360
8361
8361
8364
8366
8366
8366
8368
8368
8368
8370
8371
8371
8372
8373
8374
8374
8375
8376
8378
8379
8379
8380
8380
8380
8381
8384
8387
8388
8388
8389
8389
8390
8390
8393
8394
8394
8394
8394
8395
8395
8395
8395
8398
8401
8401
8403
8404
8405
8406
8406
8406
8407
8407
8410
8412
8412
8412
8413
8414
8416
8417
8420
8421
8422
8422
8422
8423
8424
8424
8425
8429
8431
8432
8433
8433
8433
8436
8438
8439
8440
8442
8442
8443
8443
8444
8448
8448
8450
8450
8451
8454
8454
8454
8455
8455
8456
8456
8457
8458
8461
8462
8465
8466
8467
8468
8468
8468
8468
8469
8470
8472
8474
8476
8477
8480
8480
8481
8481
8482
8484
8484
8486
8487
8487
8487
8490
8490
8493
8493
8493
8494
8495
8497
8497
8499
8503
8503
8504
8505
8506
8508
8510
8512
8512
8512
8513
8514
8514
8514
8516
8516
8516
8516
8517
8517
8517
8518
8519
8520
8521
8523
8524
8525
8526
8526
8527
8527
8528
8529
8530
8531
8533
8534
8537
8542
8543
8544
8545
8547
8547
8548
8549
8550
8551
8553
8555
8556
8560
8561
8563
8564
8565
8565
8565
8566
8570
8570
8571
8573
8573
8574
8577
8581
8581
8583
8583
8584
8586
8587
8588
8589
8589
8589
8590
8590
8592
8593
8595
8597
8597
8597
8597
8598
8599
8600
8601
8603
8606
8607
8608
8608
8612
8612
8613
8613
8614
8615
8615
8616
8620
8620
8621
8622
8622
8623
8624
8625
8626
8627
8628
8629
8629
8630
8631
8632
8633
8636
8636
8637
8637
8638
8639
8640
8642
8642
8643
8643
8644
8648
8648
8651
8651
8652
8652
8653
8653
8654
8655
8655
8658
8659
8659
8663
8668
8669
8671
8672
8672
8673
8673
8674
8674
8676
8679
8680
8684
8685
8685
8687
8687
8687
8689
8689
8689
8690
8690
8693
8694
8697
8697
8698
8698
8698
8701
8701
8702
8703
8703
8703
8705
8706
8706
8706
8707
8709
8710
8711
8713
8714
8714
8715
8716
8718
8720
8720
8720
8721
8722
8722
8723
8724
8724
8725
8726
8728
8728
8729
8730
8731
8731
8733
8734
8734
8734
8735
8735
8736
8737
8739
8740
8741
8743
8743
8743
8746
8747
8747
8748
8749
8750
8750
8752
8752
8753
8753
8755
8756
8759
8760
8760
8760
8761
8762
8766
8769
8769
8770
8770
8770
8771
8771
8773
8773
8773
8774
8775
8775
8775
8776
8776
8777
8777
8778
8780
8780
8781
8781
8782
8783
8784
8787
8787
8789
8791
8792
8792
8793
8797
8798
8798
8800
8800
8800
8800
8804
8805
8810
8810
8811
8811
8812
8812
8816
8817
8817
8821
8822
8822
8828
8828
8828
8830
8830
8830
8830
8831
8831
8834
8834
8834
8836
8837
8837
8838
8838
8839
8840
8841
8841
8844
8845
8847
8849
8852
8853
8853
8855
8855
8855
8856
8857
8857
8859
8859
8861
8861
8862
8862
8868
8869
8870
8870
8871
8871
8872
8872
8872
8872
8873
8875
8875
8875
8877
8880
8881
8882
8882
8883
8883
8884
8885
8885
8887
8887
8887
8892
8893
8895
8896
8896
8897
8897
8898
8898
8899
8899
8899
8902
8903
8904
8905
8906
8906
8907
8909
8909
8909
8911
8912
8912
8913
8916
8916
8918
8919
8920
8922
8923
8924
8924
8925
8932
8932
8933
8934
8936
8937
8937
8937
8937
8938
8939
8940
8940
8942
8943
8944
8944
8945
8946
8947
8948
8949
8950
8950
8951
8953
8954
8956
8957
8957
8957
8957
8958
8958
8958
8961
8961
8962
8965
8965
8965
8965
8965
8967
8969
8969
8970
8972
8972
8973
8974
8974
8974
8974
8977
8979
8980
8981
8982
8982
8982
8983
8984
8984
8985
8988
8989
8990
8990
8992
8993
8993
8994
8995
8996
8996
8999
9002
9002
9003
9003
9007
9008
9009
9009
9009
9009
9011
9013
9013
9014
9015
9016
9016
9017
9017
9018
9018
9018
9019
9019
9020
9021
9022
9022
9022
9023
9023
9024
9025
9026
9026
9027
9028
9032
9032
9033
9033
9034
9035
9036
9036
9038
9038
9040
9040
9040
9041
9041
9042
9043
9043
9043
9044
9045
9046
9047
9048
9049
9050
9050
9053
9054
9055
9055
9058
9058
9060
9060
9062
9063
9064
9066
9069
9070
9071
9071
9072
9073
9074
9075
9077
9078
9080
9082
9082
9083
9084
9086
9087
9087
9087
9088
9088
9091
9091
9092
9092
9094
9096
9096
9096
9097
9097
9097
9097
9097
9100
9100
9105
9105
9106
9108
9110
9110
9112
9112
9116
9116
9117
9117
9118
9118
9118
9122
9122
9123
9124
9126
9127
9128
9129
9130
9131
9134
9135
9137
9138
9139
9140
9142
9143
9143
9144
9145
9145
9145
9145
9146
9146
9151
9152
9154
9157
9157
9159
9159
9162
9162
9162
9165
9165
9166
9166
9170
9171
9172
9175
9176
9177
9179
9179
9180
9180
9180
9181
9181
9182
9183
9183
9184
9184
9184
9187
9188
9189
9190
9190
9191
9192
9192
9192
9192
9193
9194
9195
9196
9196
9197
9198
9198
9200
9201
9201
9201
9201
9201
9202
9204
9205
9205
9205
9206
9207
9208
9209
9211
9213
9214
9214
9216
9216
9216
9216
9217
9219
9219
9219
9220
9220
9221
9221
9228
9228
9231
9231
9232
9233
9233
9233
9236
9237
9239
9240
9240
9241
9241
9241
9241
9243
9245
9245
9246
9246
9249
9250
9250
9252
9252
9253
9254
9254
9254
9255
9255
9256
9257
9257
9258
9261
9263
9263
9263
9269
9270
9271
9274
9275
9277
9278
9280
9282
9282
9282
9284
9284
9284
9284
9285
9286
9286
9288
9290
9292
9292
9293
9293
9294
9295
9295
9296
9296
9298
9299
9299
9300
9300
9302
9302
9304
9306
9306
9306
9307
9307
9308
9308
9309
9309
9311
9311
9312
9312
9313
9314
9314
9315
9316
9319
9319
9319
9320
9321
9322
9322
9322
9324
9325
9325
9328
9329
9329
9330
9332
9332
9334
9336
9337
9341
9341
9342
9342
9343
9343
9345
9345
9346
9348
9349
9350
9351
9352
9353
9354
9354
9356
9356
9359
9360
9360
9360
9361
9361
9361
9361
9363
9365
9368
9369
9370
9371
9371
9371
9372
9372
9373
9378
9378
9379
9380
9382
9382
9383
9386
9386
9386
9387
9388
9391
9391
9393
9395
9396
9396
9396
9396
9397
9399
9399
9400
9402
9402
9402
9403
9405
9406
9407
9410
9410
9410
9410
9411
9412
9415
9417
9417
9418
9419
9421
9421
9424
9425
9426
9427
9428
9429
9429
9430
9430
9430
9432
9434
9434
9436
9437
9438
9438
9441
9441
9443
9443
9444
9445
9446
9447
9448
9448
9450
9450
9451
9452
9452
9453
9454
9456
9456
9457
9460
9461
9462
9463
9466
9466
9467
9468
9468
9469
9470
9471
9471
9472
9472
9472
9475
9476
9476
9477
9478
9478
9481
9481
9483
9483
9484
9486
9487
9488
9488
9489
9489
9489
9491
9492
9493
9493
9493
9493
9496
9497
9497
9499
9500
9500
9501
9502
9503
9504
9505
9506
9506
9506
9506
9506
9507
9507
9512
9512
9513
9513
9514
9515
9516
9516
9517
9518
9518
9519
9520
9522
9523
9523
9525
9527
9527
9528
9528
9530
9531
9532
9532
9533
9533
9533
9534
9541
9542
9543
9545
9546
9547
9548
9550
9551
9551
9553
9553
9553
9555
9556
9557
9560
9561
9561
9570
9570
9571
9571
9573
9573
9574
9574
9575
9575
9576
9576
9577
9577
9581
9582
9585
9586
9586
9587
9587
9588
9589
9591
9593
9594
9597
9600
9601
9603
9603
9607
9607
9608
9608
9608
9610
9610
9610
9612
9612
9612
9613
9613
9615
9615
9617
9618
9619
9620
9621
9621
9622
9623
9623
9625
9625
9627
9629
9629
9630
9630
9633
9634
9635
9635
9635
9640
9643
9643
9646
9646
9646
9647
9648
9649
9650
9651
9652
9653
9655
9656
9660
9661
9661
9661
9662
9662
9662
9664
9665
9665
9668
9669
9669
9669
9671
9672
9673
9674
9674
9676
9676
9680
9680
9682
9684
9684
9684
9686
9687
9687
9688
9688
9689
9690
9691
9692
9692
9693
9693
9694
9695
9695
9696
9697
9703
9703
9703
9704
9706
9706
9707
9708
9710
9711
9711
9712
9712
9713
9713
9714
9715
9719
9720
9720
9720
9723
9725
9727
9729
9729
9730
9732
9732
9732
9734
9737
9737
9737
9739
9742
9744
9744
9745
9745
9745
9746
9747
9747
9747
9749
9749
9750
9751
9751
9755
9758
9760
9760
9760
9760
9762
9764
9765
9766
9768
9771
9771
9771
9776
9780
9781
9781
9782
9784
9784
9784
9784
9787
9788
9788
9789
9791
9791
9791
9792
9792
9792
9795
9796
9796
9797
9798
9798
9799
9799
9800
9801
9802
9803
9806
9807
9807
9809
9810
9812
9812
9812
9812
9813
9814
9815
9815
9815
9816
9816
9817
9817
9817
9817
9820
9821
9822
9823
9824
9827
9829
9830
9832
9832
9832
9833
9834
9835
9836
9837
9838
9840
9840
9841
9841
9842
9843
9847
9848
9849
9850
9851
9852
9856
9856
9857
9859
9859
9860
9861
9862
9862
9862
9862
9863
9866
9868
9869
9871
9871
9871
9872
9872
9872
9872
9873
9873
9874
9875
9875
9877
9878
9879
9880
9882
9885
9887
9887
9887
9888
9889
9889
9891
9896
9897
9898
9904
9905
9906
9909
9910
9912
9913
9914
9915
9915
9915
9916
9917
9918
9918
9919
9922
9925
9925
9926
9926
9926
9927
9927
9929
9929
9931
9931
9934
9934
9936
9936
9938
9938
9942
9943
9944
9945
9945
9946
9946
9947
9947
9948
9948
9950
9951
9951
9952
9952
9953
9953
9954
9955
9956
9956
9956
9956
9957
9957
9957
9959
9959
9962
9963
9963
9965
9965
9966
9967
9969
9970
9970
9974
9974
9976
9977
9977
9977
9979
9980
9982
9983
9985
9986
9987
9987
9987
9988
9988
9989
9989
9990
9990
9991
9991
9992
9992
9993
9993
9996
9997
9998
9998
9998
