0
0
0
1
2
3
3
4
8
10
13
13
14
17
19
20
23
24
24
25
26
27
28
28
28
30
31
31
34
35
35
37
38
45
46
47
48
50
52
54
56
57
61
61
62
62
62
63
65
65
67
67
71
72
73
73
73
73
73
74
75
76
76
76
78
79
80
82
84
85
86
87
87
87
88
88
89
91
92
92
92
93
97
99
101
102
103
106
109
110
111
111
111
111
111
115
116
117
118
118
119
119
119
121
121
124
124
125
131
133
134
135
136
138
139
142
143
143
144
146
147
148
152
152
152
152
152
159
159
161
161
163
163
165
165
166
167
168
168
173
173
177
178
178
179
179
179
179
180
181
182
182
187
188
190
191
194
194
197
198
200
200
200
203
205
206
207
208
209
209
213
215
216
217
218
218
220
220
220
225
227
231
232
234
235
237
238
238
242
242
245
247
247
248
249
250
251
252
252
253
257
257
258
258
259
261
261
263
263
265
267
271
272
273
274
276
277
279
280
280
280
284
285
286
287
287
287
289
290
291
293
294
295
297
300
302
305
305
306
307
307
310
310
311
312
312
314
315
316
317
318
320
320
322
323
329
329
331
331
332
332
333
334
336
336
337
337
338
339
340
341
343
344
346
346
349
349
350
350
352
352
355
356
356
357
359
359
359
361
363
364
365
372
372
376
376
377
379
380
383
384
387
390
391
391
394
396
397
398
398
399
401
402
404
405
412
414
415
420
424
425
425
427
427
428
428
428
429
434
435
438
438
440
444
445
446
446
447
448
449
450
451
451
451
452
454
454
456
457
458
462
464
466
467
470
471
472
473
477
477
479
482
484
484
484
484
487
488
489
490
492
492
492
492
493
495
495
502
504
507
508
512
512
512
516
519
521
523
523
523
524
524
527
529
529
530
532
533
536
536
538
538
541
542
542
543
543
544
544
546
548
548
550
551
552
552
555
555
555
558
559
559
562
564
564
564
565
565
565
566
567
568
568
568
569
569
570
572
572
572
572
573
574
574
575
579
581
581
583
583
584
584
584
585
588
590
591
592
596
596
598
599
602
602
605
605
607
608
609
611
613
613
618
619
620
621
625
626
626
626
627
628
631
632
632
636
639
639
640
643
645
647
647
648
648
649
650
651
651
651
652
656
658
659
659
661
663
665
665
669
670
671
674
675
677
681
686
686
688
688
691
693
693
695
695
700
701
704
704
705
705
707
709
709
709
712
714
716
719
721
721
721
722
723
726
728
731
733
734
734
741
741
742
743
744
745
745
747
748
748
748
748
750
752
754
754
754
758
762
762
763
763
764
766
771
772
772
772
774
774
775
775
777
778
779
781
787
787
789
789
793
795
799
799
802
803
803
806
808
809
812
812
814
814
815
816
817
817
820
824
826
829
829
834
835
835
839
840
840
841
841
841
842
844
844
846
846
848
849
850
852
853
854
854
854
855
856
857
860
860
862
864
868
868
871
871
873
873
873
874
876
878
878
878
881
882
882
882
886
887
892
892
894
901
904
905
907
908
910
916
917
918
919
926
928
928
930
930
931
931
932
932
936
939
940
941
941
947
947
948
948
950
953
956
957
958
959
960
962
965
965
966
968
969
970
970
970
971
973
973
975
975
978
978
978
978
981
984
985
985
986
990
991
992
995
996
996
996
997
998
998
1002
1006
1008
1009
1010
1011
1013
1014
1014
1015
1015
1016
1023
1024
1025
1025
1027
1027
1028
1030
1031
1035
1037
1038
1041
1041
1042
1042
1046
1046
1046
1047
1053
1054
1055
1056
1057
1058
1059
1059
1060
1061
1062
1063
1064
1067
1068
1068
1069
1069
1070
1073
1074
1075
1076
1077
1077
1078
1081
1082
1082
1084
1085
1086
1089
1093
1097
1100
1102
1104
1106
1109
1109
1109
1110
1111
1114
1116
1116
1116
1118
1118
1120
1123
1124
1125
1127
1129
1130
1130
1131
1132
1132
1135
1135
1137
1139
1140
1143
1145
1146
1152
1153
1153
1155
1158
1159
1159
1162
1162
1163
1164
1165
1165
1168
1170
1172
1173
1176
1177
1178
1180
1180
1181
1182
1186
1189
1190
1190
1191
1191
1191
1193
1195
1195
1195
1195
1199
1199
1199
1201
1203
1203
1209
1211
1212
1212
1213
1215
1215
1220
1221
1222
1222
1224
1224
1227
1229
1233
1236
1239
1240
1242
1242
1243
1244
1247
1248
1248
1249
1250
1251
1251
1254
1255
1255
1256
1258
1260
1261
1264
1264
1265
1266
1267
1270
1272
1272
1274
1275
1276
1278
1278
1282
1283
1283
1283
1283
1286
1287
1292
1293
1293
1294
1295
1300
1301
1302
1302
1305
1305
1306
1309
1310
1312
1313
1315
1317
1319
1325
1325
1329
1330
1330
1333
1333
1334
1336
1338
1339
1340
1340
1340
1341
1341
1342
1343
1345
1345
1346
1346
1346
1351
1352
1355
1356
1356
1359
1361
1361
1361
1364
1364
1365
1365
1367
1367
1367
1368
1372
1372
1373
1373
1374
1375
1383
1385
1386
1387
1388
1391
1391
1394
1395
1395
1397
1398
1399
1399
1399
1400
1401
1404
1406
1407
1408
1411
1412
1414
1414
1414
1417
1418
1419
1421
1428
1429
1430
1431
1438
1439
1439
1445
1447
1448
1449
1449
1451
1452
1452
1453
1455
1457
1459
1459
1463
1463
1464
1464
1465
1467
1467
1468
1473
1473
1473
1478
1478
1478
1483
1485
1486
1486
1487
1490
1491
1492
1492
1493
1493
1493
1494
1495
1499
1502
1502
1504
1506
1507
1508
1509
1509
1509
1509
1510
1511
1512
1514
1515
1515
1516
1518
1519
1525
1526
1527
1530
1530
1531
1531
1533
1534
1536
1540
1540
1540
1540
1542
1543
1545
1546
1546
1547
1548
1548
1548
1549
1551
1551
1552
1552
1553
1553
1554
1554
1559
1559
1560
1560
1563
1564
1566
1567
1568
1569
1569
1569
1569
1570
1571
1573
1575
1576
1576
1579
1580
1581
1581
1582
1584
1584
1585
1585
1587
1587
1589
1589
1591
1593
1595
1597
1599
1600
1601
1604
1607
1609
1610
1611
1612
1613
1617
1620
1620
1620
1621
1621
1623
1623
1623
1624
1626
1628
1628
1630
1633
1635
1635
1637
1637
1638
1639
1639
1640
1640
1640
1641
1641
1641
1642
1642
1643
1644
1645
1648
1651
1651
1653
1653
1653
1654
1657
1662
1669
1672
1672
1678
1679
1680
1680
1684
1685
1688
1689
1690
1691
1691
1691
1693
1693
1694
1695
1695
1697
1697
1698
1698
1699
1699
1700
1702
1704
1705
1707
1707
1707
1709
1714
1714
1714
1716
1716
1718
1719
1719
1719
1721
1723
1724
1724
1725
1726
1727
1729
1732
1743
1745
1749
1750
1751
1752
1753
1754
1755
1758
1758
1760
1762
1763
1769
1769
1771
1771
1772
1775
1778
1778
1778
1779
1781
1782
1783
1787
1787
1788
1791
1791
1795
1797
1803
1804
1806
1807
1809
1809
1810
1810
1812
1813
1815
1815
1816
1816
1816
1816
1818
1819
1820
1823
1823
1824
1824
1825
1828
1829
1831
1832
1832
1834
1834
1834
1835
1837
1839
1843
1844
1844
1847
1847
1848
1850
1852
1852
1852
1853
1854
1855
1858
1859
1860
1860
1861
1863
1863
1863
1864
1864
1867
1868
1870
1873
1877
1878
1881
1882
1883
1884
1884
1885
1889
1891
1895
1898
1898
1900
1902
1904
1904
1906
1908
1909
1910
1911
1913
1915
1917
1919
1921
1922
1922
1924
1925
1926
1926
1927
1929
1929
1932
1936
1938
1940
1940
1943
1944
1945
1946
1948
1949
1950
1950
1951
1953
1954
1955
1956
1956
1957
1957
1957
1960
1960
1961
1962
1965
1966
1968
1970
1974
1974
1976
1976
1977
1978
1978
1979
1980
1986
1986
1987
1990
1990
1991
1991
1995
1996
1998
1999
2000
2000
2003
2003
2004
2005
2006
2009
2010
2012
2012
2014
2015
2016
2022
2023
2023
2024
2024
2026
2027
2029
2030
2033
2035
2036
2036
2037
2037
2037
2039
2040
2043
2043
2045
2045
2049
2049
2053
2055
2056
2057
2058
2059
2060
2060
2062
2064
2065
2065
2065
2069
2070
2071
2072
2075
2076
2076
2077
2082
2083
2085
2085
2086
2087
2087
2092
2094
2094
2095
2095
2096
2096
2100
2101
2101
2101
2102
2104
2104
2106
2106
2110
2112
2112
2112
2112
2112
2113
2114
2115
2115
2115
2116
2116
2118
2118
2120
2121
2121
2123
2128
2128
2129
2129
2131
2131
2133
2136
2138
2140
2142
2142
2142
2145
2146
2146
2149
2152
2153
2154
2155
2155
2156
2157
2161
2162
2162
2162
2163
2166
2166
2170
2170
2170
2173
2173
2181
2181
2182
2182
2182
2183
2184
2184
2185
2186
2188
2188
2194
2194
2194
2195
2198
2198
2199
2199
2201
2202
2204
2210
2210
2211
2211
2212
2214
2215
2215
2216
2217
2218
2220
2220
2221
2225
2227
2228
2230
2232
2236
2237
2238
2239
2241
2242
2243
2246
2249
2249
2251
2251
2251
2252
2253
2254
2256
2258
2258
2261
2267
2268
2270
2274
2274
2275
2277
2278
2278
2279
2284
2285
2285
2287
2290
2292
2292
2293
2297
2300
2306
2308
2308
2309
2309
2310
2311
2311
2312
2313
2315
2316
2318
2319
2321
2321
2324
2325
2326
2326
2328
2329
2329
2331
2332
2332
2333
2335
2335
2338
2341
2349
2350
2351
2354
2359
2359
2361
2361
2362
2363
2364
2364
2365
2372
2372
2375
2375
2376
2380
2381
2382
2387
2389
2390
2393
2400
2401
2403
2406
2408
2409
2411
2414
2415
2415
2417
2419
2419
2419
2419
2420
2424
2424
2426
2429
2431
2433
2433
2434
2435
2435
2436
2436
2437
2438
2439
2439
2441
2443
2445
2448
2451
2451
2452
2453
2453
2458
2459
2459
2461
2464
2465
2465
2467
2470
2470
2471
2473
2473
2475
2476
2477
2477
2478
2479
2479
2481
2481
2481
2482
2483
2484
2485
2486
2487
2490
2491
2491
2492
2495
2497
2498
2500
2502
2503
2503
2504
2506
2508
2510
2510
2511
2512
2513
2514
2515
2516
2517
2517
2519
2520
2523
2524
2525
2526
2530
2532
2536
2537
2537
2538
2539
2541
2541
2541
2543
2543
2545
2545
2545
2547
2548
2551
2553
2554
2557
2559
2560
2562
2562
2562
2562
2564
2566
2567
2568
2569
2570
2570
2571
2571
2572
2578
2579
2579
2580
2582
2583
2585
2587
2587
2588
2589
2591
2592
2593
2594
2597
2599
2600
2602
2605
2609
2611
2612
2612
2613
2614
2621
2621
2625
2626
2626
2628
2628
2630
2630
2630
2631
2631
2631
2633
2636
2637
2638
2639
2639
2640
2641
2641
2641
2642
2644
2645
2646
2646
2647
2648
2648
2649
2650
2651
2652
2652
2653
2653
2655
2655
2656
2656
2659
2661
2661
2663
2664
2664
2665
2667
2668
2672
2672
2673
2674
2676
2677
2679
2681
2682
2682
2686
2686
2686
2686
2687
2688
2690
2690
2691
2692
2693
2693
2698
2700
2700
2706
2706
2708
2709
2713
2715
2716
2717
2717
2719
2720
2721
2721
2724
2725
2725
2725
2726
2727
2730
2737
2740
2742
2747
2747
2748
2748
2753
2754
2761
2762
2764
2765
2767
2768
2770
2771
2771
2772
2772
2773
2773
2774
2774
2775
2778
2780
2780
2782
2785
2785
2785
2787
2788
2794
2794
2794
2796
2796
2798
2799
2802
2802
2806
2806
2808
2808
2808
2809
2809
2810
2812
2815
2817
2817
2819
2824
2825
2827
2829
2829
2830
2831
2831
2833
2835
2836
2837
2839
2840
2843
2845
2846
2846
2846
2849
2852
2852
2852
2852
2853
2858
2861
2862
2862
2863
2863
2870
2871
2873
2873
2877
2882
2885
2886
2886
2886
2889
2889
2890
2892
2895
2895
2895
2898
2898
2902
2905
2907
2909
2910
2910
2910
2913
2913
2914
2915
2917
2917
2922
2924
2925
2928
2930
2931
2932
2934
2937
2941
2941
2941
2942
2942
2943
2946
2946
2946
2947
2947
2947
2948
2949
2949
2949
2951
2953
2953
2953
2960
2962
2964
2966
2967
2967
2972
2974
2979
2982
2983
2984
2988
2988
2990
2991
2994
2994
2995
3002
3003
3004
3008
3009
3010
3010
3010
3013
3013
3015
3018
3019
3019
3022
3025
3026
3027
3028
3028
3029
3030
3031
3033
3036
3036
3036
3037
3037
3039
3039
3041
3043
3044
3045
3046
3048
3049
3049
3051
3053
3053
3054
3054
3055
3055
3056
3056
3056
3057
3057
3058
3059
3059
3060
3060
3060
3062
3064
3066
3067
3067
3067
3068
3069
3070
3070
3072
3072
3072
3075
3075
3077
3078
3083
3083
3084
3084
3085
3085
3085
3086
3086
3086
3086
3087
3087
3091
3095
3096
3097
3100
3101
3106
3107
3107
3108
3110
3111
3112
3113
3113
3115
3116
3116
3118
3118
3121
3121
3121
3122
3124
3125
3127
3127
3129
3130
3130
3133
3133
3134
3134
3136
3136
3138
3138
3140
3141
3143
3146
3146
3148
3149
3150
3150
3152
3152
3153
3154
3156
3157
3162
3162
3164
3165
3166
3168
3168
3169
3172
3175
3175
3175
3175
3176
3180
3180
3183
3185
3186
3187
3188
3189
3191
3195
3195
3198
3199
3200
3201
3202
3204
3204
3205
3205
3205
3205
3207
3210
3212
3213
3213
3214
3218
3218
3219
3219
3220
3220
3221
3222
3222
3222
3222
3223
3226
3228
3231
3232
3235
3235
3237
3240
3240
3241
3242
3243
3244
3244
3247
3248
3248
3252
3252
3253
3254
3256
3257
3258
3259
3260
3262
3262
3264
3264
3266
3267
3267
3268
3268
3272
3272
3276
3277
3278
3279
3280
3280
3283
3283
3284
3289
3291
3293
3293
3294
3294
3295
3297
3297
3297
3301
3307
3309
3314
3314
3315
3316
3317
3318
3318
3318
3323
3323
3324
3327
3327
3329
3330
3330
3331
3334
3335
3335
3341
3342
3342
3343
3343
3343
3345
3345
3346
3346
3346
3347
3348
3348
3349
3354
3354
3354
3355
3357
3358
3358
3361
3361
3362
3362
3362
3362
3363
3363
3363
3364
3369
3370
3372
3373
3377
3377
3378
3378
3382
3383
3385
3386
3386
3387
3388
3388
3388
3389
3390
3390
3392
3393
3393
3394
3397
3397
3399
3400
3403
3405
3405
3406
3406
3406
3408
3409
3409
3409
3409
3410
3410
3411
3412
3414
3415
3415
3419
3421
3428
3428
3429
3429
3430
3434
3434
3434
3434
3435
3437
3438
3439
3440
3443
3444
3446
3446
3449
3450
3450
3451
3452
3453
3453
3453
3453
3454
3457
3457
3458
3458
3459
3462
3464
3464
3465
3466
3467
3467
3468
3469
3469
3470
3470
3471
3474
3474
3475
3477
3478
3479
3480
3480
3481
3482
3486
3486
3488
3490
3491
3492
3492
3497
3497
3498
3499
3500
3500
3501
3503
3504
3509
3512
3514
3519
3520
3521
3522
3524
3526
3527
3527
3529
3533
3533
3534
3534
3535
3535
3535
3539
3539
3539
3542
3542
3543
3547
3549
3551
3552
3554
3555
3556
3561
3563
3565
3567
3568
3570
3572
3573
3573
3574
3574
3575
3575
3575
3578
3580
3580
3580
3584
3589
3591
3592
3592
3593
3593
3595
3595
3596
3599
3599
3599
3599
3600
3602
3605
3607
3608
3608
3609
3611
3613
3613
3614
3617
3618
3618
3621
3623
3623
3624
3629
3631
3631
3632
3633
3635
3638
3639
3639
3642
3645
3646
3646
3647
3649
3650
3652
3653
3653
3653
3654
3655
3658
3659
3659
3662
3668
3670
3673
3674
3676
3676
3678
3679
3682
3684
3685
3686
3688
3690
3691
3691
3693
3695
3696
3696
3697
3699
3699
3702
3703
3704
3705
3707
3710
3712
3714
3714
3715
3715
3717
3717
3718
3719
3719
3721
3726
3727
3728
3728
3729
3734
3735
3735
3739
3740
3744
3744
3746
3746
3752
3752
3752
3753
3755
3758
3761
3764
3766
3766
3767
3768
3770
3770
3772
3775
3777
3779
3779
3781
3781
3782
3782
3783
3783
3783
3786
3787
3790
3790
3791
3793
3793
3793
3795
3796
3796
3797
3798
3799
3801
3805
3806
3806
3807
3810
3810
3811
3811
3812
3816
3816
3817
3818
3821
3821
3825
3826
3827
3828
3829
3829
3834
3836
3836
3838
3839
3840
3841
3841
3843
3843
3844
3844
3846
3847
3847
3847
3856
3858
3859
3859
3861
3862
3863
3863
3864
3864
3866
3870
3871
3874
3874
3877
3878
3884
3884
3885
3889
3891
3891
3891
3894
3896
3899
3899
3900
3900
3900
3900
3909
3909
3910
3912
3915
3915
3915
3916
3916
3919
3920
3922
3923
3925
3926
3926
3926
3927
3930
3930
3932
3936
3945
3948
3950
3950
3953
3955
3959
3960
3960
3962
3962
3963
3963
3970
3971
3973
3973
3975
3976
3978
3979
3983
3985
3986
3989
3990
3993
3993
3994
3995
3997
3998
4004
4005
4006
4009
4009
4010
4012
4014
4017
4017
4019
4020
4021
4022
4023
4023
4024
4024
4027
4027
4028
4033
4037
4038
4042
4043
4044
4048
4048
4050
4053
4053
4054
4055
4056
4056
4058
4060
4061
4061
4062
4064
4065
4068
4068
4068
4071
4072
4075
4076
4078
4078
4079
4081
4082
4082
4083
4084
4086
4087
4089
4089
4089
4089
4090
4093
4093
4093
4093
4095
4097
4098
4100
4102
4106
4107
4108
4108
4109
4110
4110
4112
4113
4113
4116
4116
4118
4120
4121
4121
4121
4122
4122
4123
4127
4130
4131
4133
4133
4134
4136
4137
4139
4141
4142
4144
4145
4150
4154
4155
4157
4159
4160
4160
4160
4164
4165
4165
4166
4168
4168
4170
4171
4173
4173
4177
4178
4178
4182
4182
4182
4184
4185
4187
4190
4191
4191
4193
4199
4199
4200
4201
4201
4201
4201
4204
4206
4207
4207
4208
4209
4210
4211
4212
4212
4212
4214
4216
4216
4216
4218
4218
4218
4219
4222
4227
4229
4232
4233
4233
4233
4234
4238
4238
4239
4243
4245
4245
4248
4248
4249
4249
4250
4252
4259
4262
4265
4266
4266
4267
4267
4267
4268
4270
4270
4271
4271
4271
4272
4273
4274
4275
4276
4276
4280
4282
4286
4291
4291
4291
4293
4295
4295
4300
4301
4301
4302
4305
4305
4305
4306
4307
4307
4307
4310
4311
4313
4315
4315
4316
4317
4318
4319
4319
4320
4321
4322
4322
4323
4324
4325
4326
4326
4328
4331
4331
4331
4332
4332
4334
4335
4336
4336
4337
4338
4341
4343
4343
4346
4346
4347
4349
4351
4353
4353
4353
4360
4360
4361
4361
4362
4363
4364
4367
4369
4370
4370
4373
4373
4375
4375
4377
4378
4378
4380
4382
4383
4383
4384
4384
4384
4385
4385
4385
4387
4388
4388
4390
4392
4394
4394
4394
4396
4399
4401
4401
4403
4406
4407
4407
4409
4410
4411
4413
4413
4415
4415
4416
4419
4420
4420
4423
4424
4428
4428
4430
4435
4436
4436
4437
4440
4444
4445
4446
4448
4448
4449
4450
4452
4453
4453
4455
4455
4456
4457
4457
4457
4458
4460
4460
4460
4461
4461
4461
4461
4462
4463
4463
4464
4464
4466
4467
4468
4471
4471
4471
4473
4475
4476
4478
4479
4481
4481
4483
4486
4492
4494
4494
4497
4500
4501
4501
4504
4504
4505
4506
4507
4507
4507
4508
4509
4512
4513
4518
4519
4519
4520
4521
4522
4525
4528
4531
4532
4537
4538
4540
4542
4542
4543
4545
4545
4546
4549
4551
4555
4557
4560
4560
4562
4562
4565
4565
4565
4565
4566
4567
4569
4569
4569
4569
4570
4571
4572
4573
4574
4575
4575
4576
4576
4578
4580
4581
4581
4582
4582
4582
4585
4587
4588
4588
4588
4590
4591
4596
4596
4597
4597
4597
4600
4601
4603
4605
4605
4607
4607
4611
4612
4613
4613
4616
4616
4618
4618
4619
4619
4619
4620
4620
4620
4622
4623
4625
4626
4629
4630
4630
4631
4632
4634
4636
4638
4639
4644
4645
4646
4646
4647
4650
4651
4651
4651
4652
4653
4654
4655
4655
4655
4660
4661
4662
4663
4664
4665
4665
4669
4669
4674
4678
4681
4681
4682
4683
4684
4687
4688
4690
4692
4693
4693
4695
4696
4697
4699
4701
4701
4702
4703
4703
4703
4704
4706
4708
4708
4709
4709
4710
4712
4713
4714
4717
4719
4720
4720
4722
4722
4724
4726
4726
4727
4727
4731
4733
4739
4740
4743
4744
4744
4746
4746
4748
4748
4750
4754
4754
4756
4757
4758
4759
4760
4761
4762
4762
4763
4765
4767
4771
4773
4778
4779
4779
4784
4786
4786
4786
4787
4789
4790
4791
4793
4798
4799
4800
4800
4800
4801
4801
4802
4804
4805
4809
4810
4810
4810
4811
4814
4819
4820
4820
4821
4822
4822
4825
4826
4826
4827
4829
4831
4833
4834
4837
4837
4838
4838
4840
4840
4842
4842
4842
4846
4848
4848
4850
4850
4851
4853
4853
4855
4856
4856
4858
4858
4859
4859
4863
4864
4868
4869
4871
4874
4874
4875
4876
4876
4878
4881
4882
4885
4887
4888
4889
4890
4892
4894
4895
4895
4896
4896
4899
4901
4902
4902
4904
4904
4906
4907
4908
4908
4911
4912
4916
4917
4918
4919
4920
4921
4922
4923
4928
4930
4931
4931
4932
4932
4933
4936
4936
4938
4939
4940
4941
4942
4942
4942
4944
4944
4944
4946
4947
4947
4949
4950
4951
4954
4955
4957
4959
4962
4964
4964
4965
4967
4974
4980
4981
4981
4982
4983
4983
4984
4985
4987
4987
4987
4993
4994
4996
4998
5000
5001
5003
5006
5006
5006
5007
5008
5010
5010
5010
5010
5014
5014
5014
5015
5016
5017
5020
5021
5024
5024
5028
5029
5030
5030
5032
5032
5033
5034
5037
5039
5041
5042
5042
5043
5045
5045
5045
5045
5046
5046
5046
5047
5047
5048
5049
5052
5053
5054
5055
5056
5056
5057
5059
5061
5061
5062
5062
5063
5064
5064
5065
5065
5067
5068
5068
5068
5069
5071
5072
5073
5074
5074
5074
5074
5075
5075
5077
5078
5079
5079
5081
5083
5085
5085
5087
5088
5088
5090
5092
5094
5094
5097
5097
5099
5099
5099
5100
5103
5103
5104
5104
5104
5105
5106
5109
5109
5110
5110
5110
5111
5114
5115
5116
5117
5118
5118
5119
5129
5130
5131
5132
5134
5135
5136
5136
5137
5138
5140
5142
5144
5144
5145
5145
5149
5152
5155
5155
5155
5155
5158
5158
5159
5160
5163
5166
5169
5170
5171
5171
5175
5177
5177
5179
5181
5181
5185
5185
5187
5189
5189
5190
5192
5192
5193
5194
5194
5198
5201
5204
5204
5208
5209
5210
5210
5211
5212
5212
5213
5213
5214
5215
5215
5215
5216
5217
5221
5222
5224
5225
5225
5225
5228
5229
5231
5232
5232
5233
5233
5238
5238
5239
5242
5242
5242
5242
5243
5243
5244
5244
5245
5246
5247
5248
5254
5255
5257
5257
5257
5260
5263
5267
5268
5269
5269
5271
5271
5271
5272
5281
5281
5282
5284
5288
5288
5290
5293
5298
5299
5301
5302
5305
5305
5306
5310
5311
5311
5313
5314
5317
5319
5319
5325
5325
5325
5325
5327
5327
5328
5333
5333
5335
5336
5339
5340
5341
5343
5343
5343
5346
5346
5346
5346
5348
5349
5350
5351
5351
5355
5360
5361
5361
5362
5364
5367
5368
5372
5373
5373
5374
5383
5383
5387
5389
5390
5391
5391
5392
5392
5395
5395
5397
5397
5398
5399
5399
5400
5401
5401
5401
5403
5405
5405
5407
5407
5409
5410
5411
5411
5413
5414
5414
5416
5420
5428
5430
5430
5431
5432
5435
5435
5437
5439
5440
5440
5444
5448
5449
5449
5451
5454
5454
5458
5458
5459
5460
5460
5461
5461
5463
5463
5465
5466
5467
5469
5470
5472
5472
5473
5478
5479
5479
5481
5482
5488
5488
5488
5489
5490
5492
5493
5493
5494
5495
5495
5497
5501
5502
5504
5504
5505
5506
5507
5507
5507
5510
5510
5511
5511
5523
5523
5526
5528
5529
5529
5530
5532
5534
5535
5535
5535
5538
5538
5539
5540
5541
5543
5544
5545
5547
5551
5552
5555
5557
5558
5559
5561
5563
5566
5567
5567
5568
5570
5570
5571
5573
5575
5575
5575
5576
5576
5579
5579
5581
5582
5584
5589
5591
5597
5598
5599
5601
5602
5603
5604
5604
5605
5607
5607
5607
5609
5609
5610
5611
5613
5614
5614
5615
5615
5622
5623
5625
5625
5627
5627
5634
5636
5636
5636
5636
5637
5637
5637
5638
5639
5641
5643
5643
5651
5654
5654
5654
5655
5656
5656
5657
5657
5658
5662
5664
5668
5673
5674
5675
5675
5676
5677
5679
5680
5683
5683
5685
5685
5686
5690
5693
5695
5695
5697
5699
5700
5701
5704
5707
5708
5709
5710
5711
5712
5712
5712
5712
5719
5719
5719
5720
5722
5724
5726
5726
5727
5728
5730
5731
5732
5734
5736
5737
5741
5743
5744
5744
5745
5745
5750
5753
5754
5755
5755
5755
5756
5757
5759
5759
5761
5761
5762
5764
5765
5766
5767
5769
5771
5772
5779
5779
5780
5780
5781
5781
5787
5788
5789
5789
5789
5789
5790
5792
5793
5795
5796
5798
5802
5803
5803
5804
5805
5805
5809
5809
5810
5810
5812
5813
5813
5814
5818
5822
5823
5823
5824
5828
5830
5832
5833
5834
5835
5836
5838
5839
5841
5842
5842
5845
5845
5845
5847
5848
5849
5849
5852
5853
5854
5857
5860
5862
5862
5863
5865
5865
5865
5865
5867
5867
5869
5873
5874
5875
5877
5878
5879
5880
5881
5881
5881
5888
5890
5892
5893
5893
5894
5902
5904
5904
5905
5905
5905
5906
5906
5909
5909
5909
5912
5912
5913
5913
5914
5915
5917
5919
5920
5920
5922
5922
5927
5929
5930
5930
5932
5932
5933
5933
5934
5934
5937
5939
5941
5941
5950
5957
5957
5959
5961
5963
5964
5966
5972
5973
5978
5981
5986
5987
5993
5994
5996
6002
6004
6005
6007
6014
6015
6015
6017
6018
6019
6021
6023
6024
6024
6024
6024
6026
6026
6026
6028
6029
6029
6032
6035
6035
6037
6038
6038
6042
6043
6045
6045
6046
6047
6052
6054
6054
6055
6060
6060
6061
6061
6062
6062
6065
6067
6070
6071
6071
6072
6073
6074
6074
6074
6077
6077
6077
6078
6078
6084
6087
6089
6091
6091
6094
6099
6099
6100
6102
6102
6104
6106
6106
6110
6111
6111
6112
6113
6113
6120
6120
6121
6123
6124
6124
6125
6126
6130
6132
6133
6134
6135
6135
6139
6140
6141
6142
6142
6145
6146
6147
6148
6150
6153
6154
6155
6155
6158
6159
6161
6164
6167
6168
6169
6172
6174
6176
6177
6177
6177
6179
6180
6180
6182
6183
6185
6186
6187
6187
6187
6187
6189
6190
6191
6193
6194
6194
6196
6198
6200
6200
6202
6207
6210
6210
6211
6214
6215
6216
6219
6223
6224
6224
6226
6227
6228
6229
6229
6229
6230
6231
6231
6234
6235
6236
6236
6237
6238
6239
6241
6244
6245
6248
6249
6251
6254
6254
6260
6260
6261
6264
6266
6269
6269
6274
6274
6279
6280
6281
6283
6284
6285
6288
6290
6291
6291
6291
6293
6300
6304
6304
6305
6308
6311
6314
6314
6315
6316
6316
6316
6318
6320
6321
6321
6322
6323
6328
6329
6330
6330
6331
6332
6333
6333
6334
6339
6339
6344
6346
6349
6349
6349
6351
6353
6354
6354
6359
6360
6361
6362
6362
6365
6371
6372
6374
6374
6375
6377
6380
6381
6383
6388
6391
6392
6393
6394
6395
6395
6401
6401
6403
6407
6409
6409
6411
6412
6416
6417
6420
6423
6423
6424
6425
6426
6427
6428
6429
6432
6433
6436
6436
6436
6437
6437
6440
6440
6444
6445
6446
6446
6448
6452
6452
6453
6454
6454
6459
6459
6461
6463
6464
6464
6464
6466
6468
6468
6468
6472
6473
6473
6474
6477
6477
6477
6478
6478
6483
6484
6486
6486
6486
6489
6490
6496
6498
6499
6504
6505
6505
6507
6508
6511
6511
6517
6517
6519
6523
6524
6525
6526
6527
6529
6529
6530
6531
6531
6535
6540
6540
6540
6540
6541
6541
6542
6543
6546
6549
6551
6552
6553
6556
6556
6557
6557
6558
6560
6561
6562
6565
6565
6566
6567
6567
6568
6570
6572
6574
6580
6580
6580
6580
6582
6584
6585
6585
6587
6588
6590
6592
6594
6597
6597
6600
6600
6600
6601
6602
6603
6603
6603
6605
6606
6607
6607
6607
6607
6608
6609
6611
6614
6621
6624
6624
6625
6626
6627
6628
6630
6630
6635
6635
6636
6638
6639
6640
6641
6641
6642
6642
6643
6645
6649
6649
6651
6651
6654
6654
6655
6656
6657
6657
6657
6657
6658
6659
6660
6661
6661
6661
6663
6663
6664
6664
6670
6670
6671
6671
6676
6681
6681
6682
6685
6687
6689
6689
6690
6692
6694
6695
6695
6696
6698
6698
6698
6698
6700
6701
6702
6704
6708
6712
6712
6714
6716
6719
6719
6719
6719
6720
6722
6723
6723
6725
6726
6727
6733
6733
6734
6735
6739
6741
6741
6742
6745
6746
6748
6750
6754
6756
6757
6760
6761
6762
6762
6763
6764
6769
6771
6773
6775
6777
6779
6779
6781
6781
6782
6785
6785
6785
6786
6787
6788
6789
6791
6791
6793
6794
6795
6796
6797
6797
6798
6799
6800
6805
6805
6805
6806
6806
6808
6808
6810
6813
6813
6815
6815
6818
6819
6821
6821
6822
6824
6828
6829
6831
6836
6836
6836
6838
6842
6845
6845
6846
6846
6849
6849
6853
6856
6856
6858
6859
6859
6859
6859
6860
6864
6864
6866
6868
6868
6869
6870
6870
6871
6873
6873
6875
6876
6878
6878
6880
6880
6881
6881
6882
6883
6884
6885
6885
6886
6887
6888
6888
6889
6890
6890
6890
6891
6892
6892
6895
6896
6897
6900
6900
6902
6902
6904
6905
6907
6908
6908
6910
6911
6912
6914
6915
6916
6916
6917
6920
6921
6922
6927
6928
6933
6935
6935
6936
6936
6937
6940
6941
6943
6946
6947
6947
6948
6949
6951
6951
6951
6952
6954
6954
6955
6958
6958
6961
6962
6962
6964
6964
6965
6965
6971
6973
6973
6974
6975
6975
6975
6975
6979
6981
6982
6983
6983
6985
6987
6989
6991
6993
6993
6998
6999
7000
7005
7006
7008
7009
7010
7016
7018
7019
7019
7019
7020
7021
7022
7023
7025
7025
7025
7028
7029
7030
7030
7031
7031
7031
7032
7032
7033
7034
7034
7039
7040
7042
7042
7045
7047
7049
7053
7054
7055
7055
7056
7056
7058
7061
7062
7064
7067
7068
7068
7068
7070
7070
7071
7073
7074
7074
7076
7078
7082
7086
7087
7087
7088
7089
7090
7090
7091
7091
7091
7092
7092
7093
7094
7095
7096
7097
7098
7099
7099
7100
7100
7100
7101
7101
7108
7109
7109
7109
7109
7110
7110
7112
7113
7114
7115
7115
7116
7118
7118
7118
7119
7121
7123
7126
7127
7129
7131
7133
7133
7134
7136
7140
7141
7141
7142
7142
7143
7143
7147
7148
7149
7150
7150
7151
7151
7157
7157
7157
7160
7165
7166
7167
7169
7170
7172
7174
7175
7176
7179
7181
7181
7182
7184
7184
7185
7186
7188
7189
7190
7192
7194
7197
7199
7201
7206
7207
7207
7208
7212
7215
7216
7218
7218
7218
7223
7223
7224
7225
7226
7227
7227
7230
7233
7234
7239
7243
7243
7244
7246
7246
7246
7247
7247
7248
7248
7249
7252
7253
7254
7254
7255
7257
7259
7259
7261
7261
7262
7264
7264
7267
7267
7268
7268
7269
7274
7277
7279
7280
7281
7285
7286
7286
7287
7287
7287
7288
7290
7291
7292
7292
7294
7296
7297
7297
7300
7300
7301
7305
7309
7311
7311
7316
7316
7317
7317
7317
7319
7321
7322
7325
7325
7327
7327
7328
7330
7333
7334
7334
7334
7336
7336
7336
7336
7337
7338
7341
7343
7343
7345
7346
7349
7349
7350
7351
7352
7353
7355
7355
7356
7357
7358
7360
7362
7368
7369
7371
7371
7373
7374
7376
7376
7378
7380
7381
7381
7381
7384
7385
7385
7386
7386
7390
7391
7391
7394
7394
7396
7398
7399
7404
7406
7407
7407
7408
7410
7410
7411
7411
7411
7414
7418
7419
7420
7420
7425
7429
7429
7429
7430
7430
7430
7431
7431
7432
7432
7433
7434
7435
7437
7438
7439
7439
7441
7441
7443
7445
7445
7446
7448
7450
7452
7453
7455
7459
7460
7460
7460
7461
7462
7463
7463
7464
7466
7467
7470
7471
7474
7477
7479
7480
7480
7480
7487
7488
7489
7489
7491
7491
7492
7493
7502
7503
7503
7505
7505
7506
7507
7513
7516
7516
7516
7518
7518
7520
7520
7521
7523
7528
7528
7529
7529
7530
7532
7532
7535
7535
7542
7543
7545
7548
7549
7549
7552
7553
7555
7557
7558
7559
7563
7564
7565
7566
7568
7569
7570
7570
7572
7574
7575
7584
7586
7587
7588
7589
7590
7591
7592
7593
7595
7596
7596
7597
7597
7598
7598
7600
7604
7605
7610
7611
7615
7615
7616
7616
7616
7618
7619
7623
7623
7623
7624
7626
7626
7627
7628
7630
7631
7631
7631
7632
7637
7639
7639
7641
7643
7645
7648
7649
7651
7651
7653
7655
7657
7658
7659
7663
7663
7663
7666
7666
7669
7670
7671
7675
7679
7679
7681
7685
7687
7687
7691
7693
7694
7694
7695
7698
7699
7699
7700
7702
7703
7703
7705
7705
7706
7707
7708
7709
7710
7710
7712
7713
7714
7714
7716
7716
7717
7718
7719
7720
7720
7720
7722
7722
7722
7727
7729
7731
7733
7733
7733
7735
7736
7737
7739
7740
7742
7743
7748
7748
7750
7750
7751
7752
7752
7755
7757
7758
7759
7759
7761
7763
7764
7766
7767
7767
7772
7772
7773
7774
7775
7776
7777
7778
7779
7779
7781
7781
7781
7784
7784
7785
7787
7789
7790
7790
7792
7796
7796
7802
7803
7804
7805
7805
7806
7807
7808
7809
7812
7813
7813
7814
7814
7819
7819
7820
7824
7825
7827
7829
7831
7831
7832
7834
7842
7844
7846
7849
7850
7851
7859
7862
7863
7863
7866
7867
7869
7870
7870
7872
7872
7872
7873
7874
7874
7874
7875
7876
7876
7876
7877
7880
7881
7881
7884
7884
7885
7885
7887
7888
7890
7892
7892
7892
7893
7893
7895
7895
7896
7898
7899
7900
7901
7901
7904
7905
7906
7906
7907
7910
7911
7915
7916
7917
7919
7920
7920
7923
7925
7925
7925
7925
7934
7935
7940
7940
7942
7943
7943
7946
7947
7947
7948
7949
7949
7950
7950
7953
7956
7957
7960
7961
7963
7965
7968
7969
7969
7971
7971
7972
7973
7974
7974
7975
7976
7976
7977
7981
7982
7983
7983
7984
7984
7985
7987
7989
7991
7996
7997
7998
7998
8000
8002
8003
8005
8006
8007
8015
8020
8020
8021
8023
8025
8030
8031
8034
8039
8040
8040
8040
8041
8041
8042
8042
8045
8045
8045
8046
8047
8048
8053
8054
8059
8063
8064
8064
8066
8069
8070
8070
8071
8072
8074
8074
8075
8075
8075
8075
8078
8079
8079
8081
8082
8085
8085
8086
8088
8092
8094
8095
8097
8099
8101
8103
8105
8106
8106
8107
8109
8110
8111
8113
8113
8117
8120
8122
8123
8123
8126
8127
8128
8129
8129
8132
8132
8134
8136
8136
8137
8138
8142
8142
8143
8146
8149
8150
8150
8154
8156
8157
8158
8158
8160
8160
8164
8164
8165
8165
8165
8166
8167
8170
8170
8170
8171
8171
8172
8172
8175
8175
8175
8177
8178
8179
8180
8181
8184
8184
8186
8190
8190
8191
8193
8193
8195
8195
8195
8198
8198
8200
8201
8202
8203
8204
8207
8209
8209
8212
8212
8216
8219
8225
8225
8226
8226
8226
8226
8227
8228
8231
8232
8235
8235
8235
8237
8239
8245
8245
8246
8247
8247
8247
8249
8249
8250
8251
8251
8252
8252
8253
8254
8255
8256
8256
8257
8257
8259
8259
8259
8261
8262
8262
8262
8266
8266
8269
8270
8271
8273
8275
8275
8278
8280
8280
8281
8281
8283
8283
8285
8286
8288
8288
8290
8291
8294
8298
8301
8302
8302
8302
8302
8303
8304
8305
8305
8306
8306
8306
8308
8308
8309
8312
8315
8315
8316
8316
8319
8319
8321
8321
8322
8323
8326
8327
8327
8333
8334
8335
8336
8337
8337
8337
8338
8340
8340
8342
8344
8344
8345
8345
8345
8346
8346
8351
8352
8353
8354
8354
8355
8356
8361
8361
8362
8363
8363
8364
8365
8367
8373
8376
8379
8379
8379
8381
8383
8387
8387
8389
8389
8391
8393
8394
8394
8394
8396
8396
8397
8397
8398
8398
8398
8398
8399
8400
8401
8403
8403
8405
8409
8409
8412
8412
8416
8416
8417
8417
8418
8420
8420
8421
8422
8422
8423
8424
8424
8425
8425
8426
8427
8427
8429
8429
8431
8432
8433
8434
8436
8441
8441
8443
8444
8445
8449
8450
8452
8454
8455
8457
8458
8461
8463
8463
8464
8465
8468
8468
8471
8473
8474
8475
8477
8477
8479
8479
8479
8480
8484
8486
8488
8489
8489
8491
8491
8492
8492
8495
8495
8497
8502
8506
8507
8508
8508
8508
8509
8510
8513
8513
8515
8517
8519
8522
8525
8526
8527
8529
8529
8534
8535
8538
8540
8542
8545
8545
8548
8548
8552
8553
8558
8558
8559
8559
8559
8562
8564
8564
8565
8566
8567
8568
8570
8573
8573
8573
8574
8577
8578
8581
8581
8582
8582
8584
8585
8588
8590
8591
8596
8597
8599
8600
8602
8602
8603
8605
8606
8607
8611
8612
8612
8613
8615
8616
8617
8618
8618
8619
8620
8625
8627
8629
8630
8630
8630
8630
8636
8636
8636
8637
8637
8639
8643
8643
8646
8648
8649
8649
8654
8654
8657
8657
8659
8662
8665
8666
8667
8667
8667
8668
8669
8669
8670
8672
8673
8674
8678
8678
8681
8682
8687
8689
8690
8691
8692
8693
8694
8695
8696
8696
8696
8697
8697
8699
8701
8704
8705
8705
8705
8709
8710
8710
8711
8713
8714
8718
8719
8719
8720
8721
8722
8722
8723
8727
8727
8729
8731
8731
8731
8732
8732
8733
8735
8736
8740
8740
8742
8743
8747
8747
8747
8748
8749
8749
8750
8750
8752
8753
8755
8756
8760
8761
8763
8766
8766
8766
8770
8771
8772
8773
8773
8775
8775
8777
8777
8780
8780
8781
8781
8782
8783
8783
8784
8784
8784
8785
8785
8787
8787
8788
8792
8793
8794
8794
8794
8796
8797
8798
8803
8804
8804
8805
8805
8807
8808
8808
8809
8810
8812
8812
8813
8814
8816
8817
8821
8822
8823
8823
8823
8824
8824
8825
8826
8828
8829
8829
8830
8830
8831
8834
8837
8837
8838
8838
8839
8841
8841
8844
8844
8846
8849
8853
8854
8855
8856
8858
8859
8860
8861
8861
8863
8863
8865
8866
8866
8866
8867
8867
8868
8868
8869
8870
8871
8874
8874
8874
8876
8877
8881
8885
8886
8888
8888
8891
8894
8896
8897
8897
8897
8900
8901
8906
8908
8908
8911
8912
8913
8913
8914
8914
8916
8918
8919
8921
8921
8923
8923
8924
8925
8928
8928
8930
8932
8932
8933
8933
8935
8943
8944
8944
8945
8946
8947
8948
8949
8950
8951
8951
8951
8953
8954
8956
8957
8959
8959
8962
8966
8967
8968
8969
8969
8970
8970
8971
8972
8974
8974
8975
8975
8976
8977
8978
8979
8979
8980
8981
8983
8983
8984
8986
8986
8988
8989
8990
8991
8991
8991
8992
8994
8996
8997
8999
8999
8999
9000
9003
9007
9010
9012
9013
9016
9017
9021
9022
9023
9024
9024
9024
9026
9028
9029
9034
9035
9037
9038
9041
9042
9042
9043
9044
9047
9047
9048
9049
9049
9050
9052
9052
9058
9060
9060
9061
9063
9064
9069
9073
9073
9074
9076
9077
9079
9079
9080
9080
9081
9083
9085
9086
9086
9088
9090
9094
9096
9097
9098
9100
9110
9110
9112
9113
9115
9115
9116
9117
9117
9119
9121
9124
9127
9127
9127
9128
9129
9133
9134
9135
9135
9140
9141
9143
9146
9146
9147
9149
9149
9151
9152
9155
9156
9157
9160
9160
9168
9168
9168
9169
9170
9173
9174
9175
9179
9180
9180
9180
9181
9185
9186
9186
9186
9187
9187
9188
9190
9190
9193
9197
9201
9207
9209
9210
9211
9211
9213
9213
9213
9215
9215
9218
9219
9222
9224
9225
9226
9226
9226
9227
9229
9229
9232
9232
9234
9236
9237
9238
9239
9241
9242
9246
9247
9247
9248
9248
9249
9250
9253
9255
9258
9260
9261
9267
9269
9270
9270
9270
9270
9271
9272
9275
9275
9275
9276
9276
9281
9285
9286
9286
9287
9287
9289
9289
9290
9293
9294
9296
9297
9297
9298
9298
9298
9303
9303
9305
9305
9306
9306
9306
9307
9308
9310
9311
9312
9314
9316
9318
9319
9319
9320
9321
9322
9322
9324
9325
9326
9326
9326
9327
9327
9328
9330
9330
9331
9333
9334
9336
9336
9336
9339
9339
9341
9341
9343
9344
9345
9346
9348
9349
9350
9352
9353
9356
9356
9356
9356
9359
9359
9359
9360
9361
9362
9366
9366
9366
9367
9367
9373
9376
9376
9379
9379
9382
9383
9388
9393
9394
9394
9396
9396
9396
9398
9402
9403
9404
9405
9406
9406
9407
9408
9409
9410
9411
9412
9412
9413
9415
9415
9417
9418
9418
9418
9419
9419
9422
9424
9425
9425
9428
9428
9428
9429
9430
9432
9433
9433
9436
9436
9438
9446
9447
9448
9449
9449
9451
9452
9454
9456
9457
9458
9460
9460
9464
9466
9466
9466
9474
9478
9478
9482
9482
9483
9483
9483
9484
9485
9485
9486
9488
9488
9490
9492
9492
9492
9492
9494
9496
9496
9496
9497
9497
9500
9501
9502
9502
9503
9503
9507
9508
9510
9511
9517
9520
9521
9521
9525
9525
9527
9528
9530
9531
9533
9534
9536
9537
9538
9540
9540
9542
9542
9543
9545
9545
9546
9547
9548
9548
9555
9555
9559
9559
9561
9561
9563
9566
9566
9567
9569
9571
9573
9574
9574
9576
9576
9576
9578
9579
9580
9581
9583
9583
9583
9584
9585
9589
9590
9590
9591
9594
9597
9598
9599
9600
9600
9601
9602
9603
9605
9605
9607
9607
9608
9609
9611
9611
9612
9614
9617
9620
9620
9621
9622
9622
9624
9628
9631
9632
9632
9633
9635
9635
9637
9642
9644
9644
9646
9646
9647
9650
9651
9652
9653
9653
9653
9654
9654
9655
9659
9662
9664
9665
9669
9672
9672
9673
9676
9677
9685
9685
9686
9687
9688
9692
9692
9695
9700
9704
9706
9706
9706
9710
9710
9710
9712
9713
9713
9713
9714
9715
9715
9718
9722
9722
9724
9726
9728
9730
9731
9732
9733
9735
9736
9737
9738
9739
9739
9743
9744
9747
9749
9750
9750
9752
9753
9754
9754
9758
9758
9763
9763
9764
9766
9767
9768
9768
9769
9770
9772
9773
9773
9774
9774
9777
9777
9779
9780
9784
9788
9788
9788
9788
9790
9791
9792
9793
9794
9794
9795
9795
9795
9797
9799
9800
9806
9806
9810
9812
9815
9817
9817
9819
9825
9826
9828
9830
9833
9833
9834
9835
9836
9837
9839
9843
9845
9845
9846
9846
9847
9847
9848
9848
9851
9851
9851
9854
9856
9858
9862
9863
9864
9865
9866
9867
9872
9879
9883
9883
9884
9885
9886
9890
9891
9893
9894
9894
9894
9897
9898
9898
9899
9899
9900
9900
9902
9902
9902
9903
9905
9907
9907
9911
9912
9912
9913
9914
9915
9917
9918
9919
9919
9919
9920
9922
9922
9922
9924
9924
9925
9926
9926
9928
9928
9933
9933
9933
9933
9934
9938
9938
9939
9940
9942
9943
9943
9945
9949
9949
9949
9950
9950
9952
9957
9958
9959
9963
9965
9965
9966
9968
9969
9970
9971
9972
9972
9973
9973
9975
9977
9977
9977
9977
9978
9984
9985
9991
9992
9992
9994
9994
9996
9998
9999
9999
9999
