2
3
4
5
7
7
12
13
13
14
17
18
19
19
24
24
26
30
31
31
34
34
37
38
41
42
44
45
46
47
52
53
55
56
57
58
63
63
63
64
65
66
67
67
70
79
79
80
80
84
88
93
94
94
94
95
98
101
101
105
105
105
109
111
112
113
114
115
118
118
118
121
121
123
123
124
125
126
128
130
132
135
135
137
137
140
145
147
148
149
149
153
155
156
161
161
162
165
167
169
169
171
175
176
179
179
180
182
183
184
186
186
187
188
188
189
189
192
193
193
195
196
196
197
200
202
202
203
204
212
214
215
216
216
219
219
221
221
223
223
224
228
229
230
232
233
236
237
238
240
240
240
244
246
249
253
255
256
256
257
261
263
263
264
264
267
268
271
273
274
276
276
276
278
279
279
286
286
288
288
289
289
291
295
296
296
296
297
297
298
299
302
302
303
303
303
304
305
305
306
307
310
310
311
315
315
315
315
316
317
319
319
323
324
327
328
330
332
336
337
338
339
345
346
350
352
356
356
359
361
364
364
366
369
370
373
376
377
379
381
384
386
386
389
391
395
396
399
400
406
406
407
408
411
411
413
418
419
419
420
420
424
429
430
432
433
433
436
436
437
440
444
447
448
450
452
452
458
459
459
459
460
461
461
462
463
464
466
467
467
468
470
471
472
473
474
475
478
478
481
483
487
488
488
490
490
490
490
497
498
498
500
501
503
505
507
507
508
509
510
510
511
515
517
517
518
521
522
523
525
526
528
530
532
533
534
537
538
541
542
542
545
548
554
559
564
570
570
570
571
571
571
572
573
577
578
579
579
582
586
589
590
590
595
596
597
598
600
601
603
604
608
609
609
611
613
614
616
620
621
622
622
623
625
626
630
631
631
632
632
633
634
634
635
636
636
636
639
641
641
641
643
643
644
644
644
644
645
646
646
646
647
648
650
650
652
656
656
656
656
657
658
658
658
663
666
667
667
667
670
672
674
676
679
681
681
684
686
686
686
688
689
696
696
698
699
702
703
705
705
707
710
713
713
714
714
714
715
715
718
718
719
719
719
719
721
721
722
722
723
723
725
728
728
730
731
731
734
736
738
743
753
755
755
755
758
760
763
763
768
771
774
776
778
778
779
780
780
781
781
782
784
785
786
786
786
790
790
792
796
797
798
801
803
803
804
805
809
814
814
817
821
822
825
826
829
829
832
837
839
842
844
846
849
851
851
851
852
852
855
856
858
861
863
864
865
866
868
870
872
876
877
878
879
879
880
882
883
885
886
886
888
890
891
896
898
899
899
903
903
904
905
907
909
915
916
918
919
920
923
923
923
924
925
925
926
927
930
932
932
935
935
935
936
936
938
945
949
953
954
959
961
961
964
964
968
968
970
970
973
975
979
980
983
983
984
985
985
986
986
988
991
993
994
994
994
995
996
999
999
999
1000
1001
1003
1005
1005
1005
1005
1006
1008
1008
1009
1009
1010
1011
1012
1012
1012
1013
1015
1016
1017
1018
1022
1025
1027
1028
1028
1028
1029
1030
1031
1035
1037
1037
1038
1039
1041
1050
1052
1053
1053
1056
1058
1059
1059
1062
1063
1064
1067
1068
1073
1075
1080
1083
1083
1084
1085
1087
1087
1087
1092
1102
1105
1106
1112
1112
1114
1117
1118
1118
1118
1119
1120
1122
1124
1124
1125
1126
1126
1129
1129
1131
1134
1136
1139
1141
1141
1141
1144
1144
1145
1147
1148
1151
1151
1152
1157
1157
1160
1160
1162
1162
1164
1164
1166
1167
1167
1172
1172
1175
1176
1177
1180
1181
1181
1184
1184
1184
1186
1186
1187
1189
1193
1193
1194
1196
1198
1198
1198
1200
1201
1203
1206
1208
1210
1211
1212
1214
1216
1217
1217
1222
1223
1223
1224
1226
1226
1226
1227
1228
1228
1229
1232
1234
1234
1234
1240
1241
1244
1245
1246
1248
1249
1249
1250
1251
1252
1252
1253
1254
1255
1257
1257
1259
1260
1262
1262
1262
1263
1264
1265
1268
1269
1269
1271
1272
1274
1274
1274
1275
1275
1277
1277
1277
1281
1282
1284
1286
1291
1292
1294
1298
1298
1299
1299
1300
1302
1302
1303
1303
1304
1305
1305
1307
1307
1309
1309
1311
1312
1312
1312
1316
1323
1326
1329
1331
1331
1331
1332
1333
1334
1336
1338
1341
1342
1344
1346
1346
1347
1347
1349
1349
1352
1355
1356
1360
1363
1363
1364
1364
1366
1367
1368
1368
1368
1371
1372
1373
1373
1376
1378
1379
1382
1382
1384
1385
1386
1386
1388
1388
1389
1391
1396
1400
1401
1403
1405
1409
1414
1415
1417
1417
1417
1418
1418
1419
1419
1419
1420
1430
1432
1433
1433
1434
1434
1435
1436
1438
1439
1440
1440
1443
1447
1448
1449
1452
1455
1455
1456
1456
1456
1457
1460
1461
1462
1466
1466
1467
1468
1468
1471
1471
1471
1473
1476
1482
1483
1484
1486
1488
1488
1489
1493
1493
1494
1494
1494
1495
1500
1503
1505
1506
1508
1509
1511
1512
1513
1513
1515
1516
1517
1520
1520
1522
1522
1524
1525
1529
1531
1532
1533
1536
1537
1538
1545
1546
1548
1549
1550
1550
1551
1553
1553
1553
1555
1560
1560
1562
1566
1567
1569
1570
1570
1571
1572
1574
1575
1576
1576
1578
1585
1585
1585
1587
1588
1588
1589
1589
1590
1599
1601
1602
1602
1602
1602
1604
1607
1608
1609
1611
1614
1615
1618
1625
1630
1630
1633
1637
1638
1640
1644
1652
1654
1654
1654
1655
1659
1661
1661
1662
1663
1665
1665
1666
1668
1671
1674
1676
1677
1677
1680
1683
1683
1685
1686
1687
1687
1687
1687
1688
1689
1691
1695
1696
1698
1699
1699
1700
1702
1703
1706
1707
1707
1707
1710
1715
1716
1717
1718
1719
1723
1727
1730
1732
1734
1734
1735
1736
1736
1736
1737
1737
1739
1742
1742
1743
1745
1746
1746
1748
1748
1749
1750
1751
1752
1756
1760
1768
1768
1769
1778
1785
1787
1789
1789
1799
1802
1803
1804
1805
1806
1806
1808
1808
1811
1812
1812
1816
1817
1818
1819
1820
1820
1822
1824
1825
1827
1829
1830
1834
1835
1835
1837
1837
1842
1842
1845
1849
1849
1852
1853
1853
1853
1856
1856
1858
1863
1866
1866
1867
1870
1870
1873
1874
1877
1886
1889
1890
1891
1891
1892
1895
1896
1897
1897
1899
1899
1901
1902
1902
1906
1909
1909
1910
1910
1914
1919
1921
1921
1923
1924
1925
1931
1931
1933
1939
1939
1940
1940
1941
1942
1943
1943
1943
1945
1945
1949
1952
1953
1954
1954
1954
1954
1954
1954
1955
1956
1959
1959
1960
1962
1962
1965
1972
1972
1978
1979
1980
1981
1983
1983
1985
1985
1985
1985
1985
1986
1988
1989
1990
1994
1996
1996
2000
2001
2004
2008
2015
2017
2017
2023
2024
2025
2026
2026
2028
2029
2029
2030
2031
2032
2034
2035
2039
2040
2041
2042
2043
2048
2050
2051
2052
2052
2055
2056
2057
2058
2059
2059
2059
2061
2063
2064
2065
2065
2067
2068
2068
2072
2074
2075
2076
2076
2077
2077
2077
2080
2081
2081
2083
2084
2084
2084
2084
2084
2086
2086
2088
2091
2093
2094
2094
2095
2095
2097
2098
2099
2100
2102
2103
2106
2112
2112
2113
2113
2116
2116
2117
2118
2119
2119
2119
2121
2121
2125
2127
2128
2129
2129
2132
2132
2132
2132
2134
2134
2135
2137
2138
2139
2145
2146
2147
2147
2151
2151
2154
2155
2160
2161
2161
2162
2166
2169
2170
2170
2173
2173
2175
2179
2181
2182
2186
2186
2188
2189
2190
2194
2195
2197
2199
2204
2204
2205
2205
2206
2206
2206
2209
2210
2214
2220
2220
2223
2224
2227
2229
2230
2232
2233
2237
2237
2240
2241
2245
2245
2246
2246
2247
2248
2248
2248
2248
2249
2250
2251
2252
2253
2255
2256
2256
2257
2257
2259
2262
2263
2265
2266
2267
2270
2272
2276
2279
2279
2281
2281
2282
2284
2285
2286
2287
2287
2290
2295
2296
2296
2297
2299
2299
2300
2303
2303
2308
2312
2312
2313
2314
2316
2316
2317
2318
2321
2327
2328
2330
2330
2331
2333
2333
2334
2336
2336
2337
2337
2339
2343
2345
2346
2352
2354
2354
2359
2359
2359
2359
2361
2362
2362
2362
2363
2367
2368
2368
2368
2369
2374
2375
2376
2378
2380
2381
2384
2385
2387
2389
2390
2395
2397
2397
2398
2400
2401
2404
2404
2404
2405
2406
2407
2407
2408
2408
2410
2413
2414
2418
2418
2419
2419
2419
2420
2424
2427
2429
2429
2430
2430
2431
2437
2440
2443
2445
2448
2448
2448
2451
2453
2453
2453
2453
2458
2460
2462
2463
2464
2465
2467
2468
2476
2477
2479
2480
2483
2485
2486
2488
2489
2490
2491
2491
2492
2493
2494
2500
2503
2503
2503
2505
2506
2506
2508
2513
2513
2514
2515
2516
2522
2522
2522
2522
2526
2527
2529
2531
2532
2534
2534
2535
2538
2541
2542
2543
2544
2547
2549
2550
2551
2555
2555
2556
2557
2558
2558
2559
2559
2561
2563
2563
2563
2565
2566
2566
2571
2572
2572
2572
2574
2575
2576
2580
2582
2583
2585
2587
2588
2588
2590
2591
2592
2592
2593
2598
2600
2600
2601
2603
2604
2604
2604
2606
2606
2606
2612
2612
2614
2614
2617
2617
2619
2619
2622
2623
2624
2624
2626
2630
2632
2632
2634
2635
2636
2638
2638
2639
2640
2640
2642
2642
2645
2645
2645
2646
2647
2649
2654
2655
2658
2659
2664
2665
2667
2674
2674
2675
2675
2678
2678
2679
2681
2690
2692
2693
2695
2699
2704
2707
2709
2712
2715
2716
2724
2724
2726
2726
2727
2728
2729
2730
2730
2732
2737
2737
2739
2741
2743
2744
2748
2749
2750
2752
2753
2754
2757
2758
2759
2760
2760
2761
2762
2764
2766
2766
2768
2771
2772
2773
2775
2776
2776
2777
2780
2784
2784
2784
2785
2786
2786
2787
2788
2790
2794
2794
2794
2794
2794
2799
2800
2802
2805
2806
2807
2808
2811
2811
2811
2815
2815
2816
2820
2821
2826
2826
2827
2828
2832
2832
2836
2836
2838
2839
2841
2841
2841
2843
2843
2847
2847
2851
2852
2854
2859
2860
2861
2862
2863
2864
2865
2866
2866
2869
2870
2874
2874
2875
2876
2877
2878
2878
2878
2879
2882
2885
2888
2891
2891
2893
2895
2895
2895
2896
2897
2898
2898
2899
2900
2901
2902
2904
2906
2910
2910
2913
2916
2917
2918
2921
2921
2923
2924
2925
2928
2929
2931
2931
2932
2932
2943
2946
2947
2947
2948
2949
2950
2951
2952
2953
2953
2953
2956
2957
2957
2960
2964
2965
2965
2969
2971
2971
2972
2972
2972
2974
2975
2975
2979
2980
2982
2982
2983
2984
2991
2992
2994
3000
3001
3002
3005
3006
3011
3013
3016
3016
3017
3020
3020
3020
3022
3022
3023
3024
3028
3029
3032
3033
3038
3039
3039
3040
3040
3040
3042
3042
3043
3046
3046
3047
3051
3056
3062
3062
3066
3073
3074
3077
3078
3082
3082
3086
3087
3087
3090
3090
3091
3091
3091
3092
3094
3094
3098
3099
3100
3101
3104
3104
3104
3105
3106
3107
3108
3109
3110
3114
3114
3117
3117
3117
3121
3128
3130
3131
3134
3137
3138
3138
3142
3143
3145
3149
3150
3154
3155
3156
3156
3158
3160
3160
3161
3161
3162
3164
3164
3166
3168
3169
3182
3185
3185
3186
3186
3187
3189
3189
3189
3191
3192
3193
3194
3195
3197
3199
3200
3202
3203
3209
3213
3216
3217
3219
3223
3223
3223
3227
3230
3230
3234
3239
3239
3240
3241
3241
3242
3244
3246
3246
3250
3251
3254
3255
3256
3257
3257
3264
3264
3266
3267
3268
3274
3275
3277
3278
3279
3279
3280
3282
3283
3284
3285
3285
3291
3291
3296
3297
3299
3299
3308
3309
3310
3311
3311
3313
3314
3315
3316
3320
3320
3322
3322
3322
3323
3324
3332
3335
3337
3340
3340
3341
3341
3342
3343
3348
3348
3349
3349
3350
3350
3350
3354
3354
3356
3356
3357
3358
3358
3362
3363
3367
3371
3371
3372
3374
3374
3375
3375
3376
3376
3377
3378
3379
3379
3380
3386
3389
3389
3393
3394
3395
3395
3396
3398
3398
3398
3399
3399
3400
3403
3403
3404
3410
3411
3413
3416
3417
3418
3421
3422
3423
3425
3425
3426
3428
3428
3430
3430
3431
3433
3434
3436
3438
3440
3447
3449
3449
3450
3451
3456
3456
3458
3459
3465
3466
3468
3473
3478
3480
3481
3481
3483
3483
3485
3485
3486
3487
3488
3491
3494
3497
3497
3497
3500
3500
3503
3510
3511
3514
3515
3520
3522
3523
3524
3524
3527
3529
3529
3530
3530
3530
3533
3535
3536
3537
3537
3538
3539
3539
3540
3541
3544
3545
3546
3548
3548
3554
3554
3557
3557
3562
3566
3572
3573
3573
3575
3575
3576
3578
3578
3578
3579
3580
3580
3582
3585
3585
3586
3586
3588
3589
3593
3595
3596
3600
3600
3602
3608
3616
3617
3620
3624
3624
3624
3625
3627
3627
3627
3629
3631
3636
3638
3638
3639
3640
3643
3646
3649
3650
3651
3652
3653
3653
3655
3656
3657
3658
3665
3671
3672
3674
3675
3676
3678
3680
3680
3683
3685
3686
3687
3687
3689
3689
3689
3692
3692
3694
3697
3698
3699
3701
3703
3705
3707
3709
3709
3710
3712
3713
3714
3715
3717
3718
3719
3721
3724
3725
3727
3727
3732
3734
3735
3739
3740
3740
3741
3749
3752
3752
3754
3755
3758
3759
3760
3762
3768
3770
3771
3776
3778
3781
3782
3782
3785
3786
3793
3794
3796
3797
3797
3799
3799
3800
3800
3801
3804
3804
3804
3805
3806
3809
3810
3813
3814
3817
3818
3819
3821
3826
3826
3828
3832
3832
3834
3834
3835
3837
3848
3848
3848
3848
3851
3851
3852
3857
3858
3863
3865
3865
3867
3867
3874
3876
3877
3879
3879
3888
3891
3892
3893
3894
3896
3898
3901
3905
3905
3908
3909
3912
3913
3914
3915
3918
3918
3918
3919
3919
3923
3924
3925
3926
3926
3930
3931
3938
3939
3939
3941
3942
3944
3944
3945
3947
3948
3948
3949
3954
3957
3957
3958
3969
3972
3973
3976
3977
3978
3982
3985
3991
3991
3992
3992
3993
4000
4001
4003
4004
4008
4008
4009
4011
4013
4017
4018
4018
4021
4023
4024
4024
4025
4026
4028
4028
4030
4030
4031
4033
4034
4036
4039
4041
4041
4042
4042
4046
4051
4051
4052
4053
4053
4053
4054
4054
4055
4056
4057
4057
4058
4058
4059
4060
4062
4062
4065
4066
4071
4072
4074
4076
4078
4079
4081
4082
4084
4084
4085
4085
4087
4088
4090
4092
4093
4093
4093
4094
4095
4097
4098
4102
4102
4103
4105
4105
4106
4108
4108
4109
4110
4111
4111
4113
4114
4114
4114
4118
4118
4118
4122
4127
4129
4130
4133
4134
4141
4141
4143
4147
4148
4151
4152
4153
4155
4156
4156
4157
4158
4161
4161
4161
4163
4164
4164
4165
4165
4166
4169
4169
4171
4177
4182
4182
4183
4183
4184
4184
4186
4190
4192
4197
4197
4198
4200
4200
4201
4208
4208
4209
4210
4212
4212
4217
4221
4221
4227
4227
4227
4228
4228
4231
4234
4235
4236
4236
4237
4238
4238
4239
4242
4242
4242
4245
4246
4251
4251
4253
4253
4253
4254
4256
4256
4256
4259
4263
4263
4265
4267
4268
4269
4270
4270
4271
4271
4272
4273
4274
4275
4277
4279
4279
4283
4283
4285
4285
4285
4286
4288
4288
4289
4291
4291
4291
4291
4294
4295
4295
4296
4297
4298
4298
4298
4299
4299
4300
4302
4303
4305
4306
4307
4310
4310
4314
4316
4316
4320
4321
4323
4323
4326
4328
4328
4329
4330
4332
4332
4333
4334
4335
4336
4338
4338
4340
4346
4352
4354
4356
4357
4359
4362
4365
4366
4366
4368
4368
4370
4370
4371
4374
4376
4376
4380
4383
4385
4385
4387
4388
4389
4395
4397
4407
4407
4408
4408
4408
4410
4411
4413
4414
4415
4415
4416
4417
4418
4422
4424
4424
4425
4426
4427
4429
4429
4431
4432
4434
4435
4437
4440
4442
4444
4445
4446
4446
4449
4450
4452
4452
4456
4459
4461
4463
4467
4468
4472
4473
4474
4474
4480
4482
4484
4486
4488
4489
4490
4494
4495
4496
4497
4501
4507
4511
4513
4514
4516
4517
4519
4521
4521
4522
4526
4527
4528
4530
4537
4538
4539
4540
4541
4543
4544
4544
4544
4544
4545
4547
4548
4550
4550
4552
4554
4554
4559
4559
4559
4562
4563
4564
4565
4565
4566
4567
4571
4573
4574
4574
4576
4578
4578
4581
4582
4583
4585
4585
4590
4593
4593
4593
4595
4595
4596
4598
4599
4604
4606
4606
4606
4606
4607
4608
4608
4610
4611
4612
4612
4613
4613
4614
4616
4618
4619
4620
4621
4622
4622
4624
4626
4627
4627
4628
4629
4629
4629
4630
4630
4631
4634
4636
4636
4637
4639
4641
4647
4647
4648
4650
4652
4657
4661
4664
4669
4669
4670
4671
4675
4676
4676
4678
4680
4680
4682
4684
4684
4686
4688
4691
4693
4693
4694
4695
4696
4696
4698
4700
4704
4705
4708
4710
4714
4718
4720
4721
4721
4722
4722
4723
4724
4727
4728
4729
4730
4730
4733
4735
4736
4737
4739
4743
4743
4746
4746
4748
4748
4753
4753
4754
4754
4755
4757
4758
4761
4762
4762
4763
4763
4765
4766
4766
4769
4770
4770
4771
4771
4775
4775
4780
4783
4784
4785
4787
4788
4790
4790
4790
4790
4791
4799
4801
4802
4802
4803
4804
4805
4806
4808
4808
4811
4812
4813
4813
4814
4814
4816
4817
4817
4820
4821
4822
4822
4823
4825
4829
4829
4832
4832
4833
4836
4839
4842
4843
4845
4846
4847
4849
4851
4852
4852
4852
4853
4856
4856
4857
4864
4870
4872
4873
4875
4876
4878
4880
4884
4886
4888
4889
4892
4893
4893
4895
4897
4902
4903
4903
4904
4906
4906
4907
4908
4910
4912
4913
4913
4915
4916
4917
4918
4919
4919
4920
4922
4924
4925
4929
4930
4930
4931
4937
4937
4937
4940
4940
4941
4941
4942
4943
4946
4948
4949
4949
4953
4954
4956
4956
4957
4957
4959
4962
4965
4969
4969
4969
4970
4970
4971
4973
4975
4976
4981
4982
4982
4983
4984
4985
4993
4995
4995
4996
4997
4999
5000
5001
5003
5004
5006
5009
5011
5015
5017
5021
5022
5024
5027
5028
5029
5033
5041
5043
5046
5053
5054
5057
5057
5057
5060
5060
5060
5062
5063
5068
5068
5070
5070
5072
5072
5072
5075
5076
5077
5078
5078
5079
5079
5080
5082
5083
5085
5086
5087
5088
5088
5089
5094
5095
5096
5096
5099
5104
5104
5104
5104
5105
5105
5106
5106
5110
5110
5110
5111
5111
5112
5112
5114
5114
5120
5121
5125
5126
5128
5129
5131
5131
5132
5138
5138
5139
5139
5140
5141
5144
5145
5146
5148
5150
5150
5151
5151
5154
5159
5162
5163
5165
5166
5168
5169
5173
5174
5175
5177
5179
5184
5187
5187
5188
5188
5189
5191
5193
5193
5194
5197
5199
5200
5201
5201
5202
5202
5202
5209
5209
5212
5213
5215
5215
5216
5217
5217
5218
5219
5221
5222
5223
5223
5223
5226
5226
5227
5227
5227
5228
5233
5234
5235
5235
5236
5240
5240
5241
5241
5242
5244
5244
5247
5247
5250
5251
5251
5253
5253
5254
5255
5259
5261
5263
5268
5269
5271
5271
5272
5273
5273
5278
5278
5279
5280
5286
5286
5287
5290
5292
5294
5295
5296
5299
5300
5303
5305
5305
5306
5307
5308
5309
5313
5315
5320
5322
5323
5327
5328
5329
5331
5331
5332
5332
5332
5333
5339
5339
5340
5343
5343
5343
5347
5348
5349
5351
5353
5353
5354
5355
5357
5358
5364
5365
5366
5367
5367
5370
5373
5373
5375
5375
5375
5376
5376
5378
5379
5379
5381
5383
5383
5383
5384
5385
5385
5386
5389
5390
5392
5394
5397
5398
5398
5400
5403
5404
5406
5406
5406
5409
5412
5412
5412
5412
5412
5414
5418
5419
5422
5422
5425
5426
5428
5430
5432
5434
5437
5438
5438
5438
5439
5440
5441
5442
5444
5445
5446
5447
5448
5450
5454
5454
5455
5455
5458
5461
5462
5464
5469
5474
5474
5479
5480
5481
5484
5484
5484
5485
5486
5488
5488
5488
5489
5489
5490
5492
5492
5492
5494
5498
5498
5503
5503
5504
5505
5506
5507
5508
5508
5508
5511
5516
5520
5521
5522
5524
5527
5527
5528
5530
5531
5531
5532
5535
5539
5539
5540
5544
5548
5555
5556
5556
5559
5559
5565
5569
5571
5572
5573
5573
5576
5576
5579
5579
5580
5580
5581
5584
5585
5587
5587
5591
5591
5594
5596
5596
5597
5598
5598
5601
5602
5602
5603
5604
5605
5607
5610
5613
5615
5616
5617
5618
5620
5623
5624
5626
5628
5628
5631
5631
5632
5633
5633
5635
5635
5638
5640
5641
5643
5643
5644
5645
5647
5650
5654
5656
5657
5658
5660
5660
5661
5665
5665
5669
5669
5670
5673
5674
5676
5677
5678
5679
5680
5681
5682
5682
5682
5683
5683
5683
5683
5685
5685
5687
5688
5688
5689
5690
5690
5694
5697
5700
5700
5706
5709
5711
5711
5712
5712
5714
5716
5717
5719
5723
5723
5723
5728
5728
5728
5730
5731
5732
5735
5738
5738
5740
5743
5743
5746
5746
5749
5752
5753
5754
5756
5756
5757
5757
5757
5760
5761
5763
5765
5768
5769
5770
5770
5771
5774
5775
5776
5776
5778
5779
5780
5784
5785
5785
5787
5788
5789
5790
5791
5797
5798
5799
5799
5801
5802
5807
5807
5810
5811
5813
5813
5813
5815
5816
5816
5821
5821
5827
5827
5828
5830
5831
5832
5833
5833
5833
5837
5837
5837
5839
5847
5848
5851
5851
5854
5856
5857
5858
5859
5859
5859
5859
5861
5861
5866
5867
5867
5868
5870
5874
5874
5875
5876
5880
5880
5881
5884
5886
5887
5887
5887
5889
5891
5891
5891
5891
5892
5893
5895
5896
5896
5896
5899
5900
5905
5908
5913
5913
5914
5916
5919
5923
5924
5925
5927
5928
5931
5932
5934
5935
5936
5937
5937
5941
5946
5952
5953
5955
5956
5957
5961
5962
5963
5964
5965
5966
5968
5970
5970
5970
5976
5978
5979
5981
5982
5983
5985
5986
5987
5987
5989
5991
5991
5997
5998
5998
6000
6000
6004
6005
6005
6007
6007
6009
6011
6015
6017
6017
6017
6019
6021
6023
6023
6024
6028
6030
6032
6034
6035
6035
6039
6039
6040
6041
6042
6044
6045
6046
6047
6048
6049
6051
6052
6053
6054
6054
6055
6057
6059
6060
6064
6065
6067
6072
6072
6072
6073
6073
6078
6081
6082
6083
6083
6083
6084
6087
6088
6090
6091
6096
6097
6097
6100
6101
6104
6111
6114
6114
6115
6116
6116
6119
6121
6123
6127
6128
6129
6129
6129
6134
6134
6135
6135
6136
6136
6141
6145
6150
6150
6153
6154
6155
6156
6159
6163
6163
6164
6167
6171
6175
6176
6179
6181
6182
6183
6184
6185
6185
6185
6185
6190
6190
6190
6193
6193
6196
6199
6199
6200
6201
6202
6204
6206
6212
6212
6215
6216
6217
6218
6222
6223
6224
6225
6228
6231
6232
6234
6234
6236
6236
6237
6238
6238
6239
6241
6244
6244
6245
6245
6245
6246
6247
6247
6249
6249
6251
6251
6251
6252
6255
6257
6264
6265
6265
6266
6267
6271
6272
6280
6281
6281
6283
6284
6285
6286
6288
6289
6292
6296
6300
6300
6301
6301
6301
6302
6303
6303
6305
6306
6307
6308
6310
6311
6313
6314
6315
6316
6321
6321
6321
6321
6326
6328
6328
6333
6337
6337
6338
6339
6340
6341
6343
6343
6344
6347
6348
6354
6356
6358
6358
6359
6364
6364
6366
6366
6367
6368
6368
6372
6374
6375
6376
6378
6380
6381
6383
6384
6386
6386
6387
6388
6391
6392
6392
6395
6396
6399
6401
6401
6403
6405
6407
6409
6410
6413
6416
6417
6417
6418
6418
6418
6419
6422
6423
6424
6424
6424
6426
6428
6430
6432
6433
6435
6438
6439
6439
6440
6440
6441
6442
6442
6443
6444
6444
6447
6449
6450
6452
6453
6453
6457
6458
6460
6460
6461
6463
6464
6466
6466
6468
6471
6474
6478
6480
6483
6485
6486
6486
6487
6488
6492
6496
6497
6499
6499
6500
6502
6502
6504
6505
6505
6505
6506
6507
6509
6509
6511
6513
6514
6515
6515
6515
6517
6519
6520
6520
6521
6523
6523
6523
6524
6526
6527
6529
6530
6532
6534
6537
6541
6541
6545
6547
6548
6549
6550
6550
6551
6554
6556
6558
6561
6562
6565
6566
6566
6566
6567
6567
6567
6568
6573
6575
6582
6585
6588
6589
6591
6593
6595
6597
6599
6600
6602
6603
6605
6605
6606
6608
6609
6611
6612
6618
6619
6621
6621
6622
6622
6623
6625
6627
6628
6630
6630
6631
6631
6635
6636
6637
6638
6640
6643
6644
6644
6644
6647
6648
6654
6655
6656
6656
6658
6659
6659
6661
6663
6665
6667
6667
6668
6671
6680
6680
6683
6684
6684
6687
6688
6688
6689
6689
6690
6691
6693
6697
6699
6700
6701
6704
6704
6705
6706
6710
6713
6714
6715
6718
6719
6721
6722
6723
6726
6726
6726
6727
6727
6732
6735
6738
6738
6739
6740
6742
6747
6748
6751
6752
6754
6754
6755
6757
6758
6761
6765
6765
6768
6776
6784
6785
6788
6788
6789
6789
6789
6790
6790
6790
6792
6794
6796
6798
6800
6801
6801
6801
6805
6805
6805
6807
6808
6809
6809
6809
6810
6810
6810
6813
6813
6814
6814
6816
6817
6817
6819
6820
6821
6822
6823
6824
6825
6825
6826
6826
6827
6828
6832
6834
6836
6837
6837
6838
6841
6841
6842
6843
6843
6849
6850
6850
6851
6852
6853
6856
6857
6859
6860
6861
6862
6863
6865
6866
6867
6868
6869
6878
6878
6879
6881
6882
6882
6883
6884
6885
6885
6887
6887
6888
6889
6889
6890
6890
6892
6893
6896
6896
6898
6898
6899
6899
6900
6901
6902
6902
6904
6904
6908
6909
6909
6911
6912
6915
6916
6917
6918
6920
6920
6920
6921
6922
6923
6924
6926
6930
6930
6930
6931
6931
6932
6936
6936
6936
6939
6939
6939
6939
6942
6944
6944
6945
6946
6947
6949
6950
6951
6952
6954
6956
6959
6960
6960
6960
6960
6962
6962
6963
6964
6965
6969
6972
6972
6975
6975
6976
6977
6979
6979
6979
6983
6984
6985
6989
6991
6994
6994
6996
6997
6998
7000
7002
7002
7002
7002
7003
7003
7003
7005
7006
7008
7009
7010
7013
7013
7017
7019
7020
7022
7025
7026
7027
7028
7031
7035
7037
7038
7041
7041
7042
7042
7043
7044
7044
7046
7048
7048
7050
7051
7052
7052
7053
7056
7057
7058
7061
7061
7062
7063
7064
7064
7064
7068
7069
7075
7078
7084
7086
7091
7093
7095
7097
7098
7099
7101
7104
7113
7115
7116
7118
7119
7120
7123
7124
7125
7125
7130
7131
7132
7132
7133
7134
7136
7137
7137
7138
7140
7140
7141
7142
7144
7146
7148
7150
7155
7158
7159
7160
7161
7161
7163
7163
7163
7171
7172
7177
7177
7180
7181
7182
7183
7183
7184
7184
7189
7190
7190
7190
7192
7192
7193
7196
7198
7201
7202
7202
7205
7208
7210
7210
7210
7210
7214
7216
7219
7219
7223
7227
7229
7232
7233
7234
7235
7235
7237
7241
7241
7244
7244
7244
7247
7247
7248
7250
7252
7255
7257
7257
7258
7260
7262
7265
7265
7265
7266
7268
7268
7268
7268
7268
7270
7271
7277
7278
7279
7279
7281
7282
7283
7284
7286
7286
7286
7286
7288
7288
7290
7293
7294
7299
7299
7299
7301
7302
7303
7305
7307
7308
7308
7309
7311
7316
7316
7319
7321
7325
7325
7328
7328
7329
7330
7331
7332
7332
7333
7333
7338
7338
7339
7339
7339
7341
7341
7341
7347
7348
7349
7350
7352
7357
7357
7358
7359
7359
7361
7362
7366
7370
7370
7370
7371
7371
7372
7373
7373
7374
7376
7379
7381
7381
7383
7383
7384
7385
7385
7385
7388
7388
7388
7389
7389
7390
7391
7392
7397
7398
7398
7400
7402
7403
7404
7406
7406
7409
7409
7409
7411
7411
7412
7412
7412
7414
7416
7417
7418
7419
7419
7420
7421
7421
7424
7424
7426
7426
7429
7431
7431
7435
7437
7437
7437
7438
7440
7441
7442
7444
7445
7448
7449
7449
7452
7456
7456
7457
7458
7458
7460
7462
7462
7465
7465
7465
7466
7468
7468
7470
7472
7473
7476
7478
7480
7482
7482
7482
7483
7484
7485
7486
7486
7488
7488
7488
7489
7490
7492
7493
7495
7496
7499
7501
7503
7504
7507
7509
7511
7513
7515
7515
7515
7516
7516
7518
7518
7518
7519
7519
7521
7524
7524
7526
7526
7526
7532
7534
7535
7535
7536
7537
7540
7542
7542
7545
7546
7548
7550
7550
7550
7551
7553
7554
7554
7557
7558
7559
7561
7564
7564
7565
7565
7565
7566
7573
7574
7576
7576
7577
7577
7579
7579
7580
7582
7584
7584
7587
7588
7589
7590
7592
7592
7593
7598
7598
7599
7599
7600
7603
7606
7606
7607
7608
7609
7610
7615
7616
7617
7618
7618
7619
7620
7620
7624
7625
7626
7627
7629
7629
7630
7631
7632
7633
7633
7635
7635
7637
7640
7641
7642
7643
7645
7647
7648
7649
7649
7650
7651
7651
7653
7653
7658
7660
7663
7666
7666
7669
7673
7675
7675
7676
7676
7676
7677
7678
7679
7682
7683
7683
7686
7687
7687
7687
7690
7690
7691
7693
7694
7696
7699
7699
7700
7702
7703
7705
7708
7708
7710
7714
7716
7719
7721
7722
7723
7724
7726
7729
7732
7732
7734
7734
7735
7736
7737
7738
7738
7739
7743
7743
7747
7750
7751
7752
7753
7754
7754
7754
7756
7761
7761
7762
7763
7763
7763
7765
7765
7767
7770
7771
7772
7775
7776
7779
7782
7784
7785
7785
7786
7788
7788
7790
7790
7790
7792
7792
7792
7795
7796
7797
7797
7798
7799
7799
7803
7805
7806
7806
7806
7806
7809
7810
7824
7826
7826
7827
7828
7829
7830
7831
7831
7833
7834
7838
7841
7842
7842
7843
7847
7850
7850
7858
7860
7861
7861
7864
7865
7866
7869
7870
7870
7871
7872
7876
7876
7877
7878
7878
7881
7881
7883
7884
7884
7887
7890
7894
7894
7896
7900
7901
7901
7901
7902
7903
7907
7910
7914
7915
7915
7917
7917
7919
7919
7920
7922
7923
7923
7924
7927
7928
7929
7929
7931
7933
7936
7936
7937
7938
7939
7941
7941
7942
7942
7943
7943
7946
7947
7947
7948
7950
7952
7952
7955
7957
7964
7964
7965
7966
7966
7967
7969
7971
7971
7971
7971
7972
7973
7974
7975
7975
7981
7983
7983
7983
7991
7992
7993
7995
7996
7998
8000
8000
8002
8003
8003
8004
8004
8005
8005
8006
8006
8008
8009
8010
8012
8014
8015
8017
8020
8030
8030
8031
8034
8035
8035
8038
8038
8039
8040
8040
8041
8041
8042
8043
8045
8045
8046
8046
8049
8051
8052
8053
8054
8055
8056
8056
8058
8059
8059
8060
8060
8060
8062
8062
8066
8067
8068
8069
8069
8069
8071
8071
8073
8073
8073
8073
8074
8076
8081
8082
8082
8083
8084
8084
8085
8085
8085
8085
8085
8089
8089
8093
8094
8095
8096
8097
8097
8098
8099
8101
8102
8103
8111
8112
8112
8115
8116
8118
8120
8123
8124
8125
8125
8126
8126
8127
8129
8129
8129
8132
8133
8138
8140
8140
8141
8141
8143
8145
8147
8148
8152
8155
8156
8156
8158
8158
8160
8160
8161
8164
8169
8171
8171
8173
8175
8176
8176
8177
8178
8178
8180
8181
8183
8188
8189
8191
8193
8193
8196
8198
8201
8201
8202
8204
8206
8208
8208
8208
8209
8213
8214
8214
8215
8217
8218
8219
8220
8222
8226
8226
8228
8229
8229
8235
8236
8236
8237
8238
8238
8242
8245
8247
8249
8249
8250
8250
8250
8252
8252
8253
8255
8258
8260
8264
8265
8267
8270
8274
8274
8278
8278
8281
8282
8282
8284
8286
8293
8294
8294
8295
8308
8310
8312
8314
8314
8314
8321
8322
8324
8324
8325
8327
8328
8329
8330
8332
8332
8336
8338
8339
8342
8343
8343
8349
8350
8351
8352
8353
8356
8356
8358
8360
8360
8364
8365
8366
8367
8368
8368
8371
8373
8377
8381
8382
8388
8394
8394
8397
8397
8399
8400
8401
8404
8405
8407
8409
8411
8411
8412
8414
8414
8415
8415
8420
8420
8421
8424
8425
8425
8425
8427
8429
8430
8435
8435
8435
8436
8441
8441
8446
8447
8447
8448
8449
8451
8453
8453
8457
8460
8464
8465
8466
8471
8471
8471
8472
8472
8473
8473
8479
8480
8480
8482
8486
8490
8491
8493
8494
8495
8496
8500
8500
8501
8502
8502
8507
8511
8513
8515
8515
8517
8518
8519
8521
8522
8522
8525
8527
8529
8529
8529
8529
8532
8536
8536
8538
8539
8539
8540
8542
8545
8545
8545
8547
8549
8550
8550
8554
8555
8560
8561
8561
8561
8562
8562
8565
8567
8567
8568
8568
8569
8570
8571
8573
8573
8574
8574
8575
8577
8577
8577
8578
8578
8578
8581
8582
8582
8584
8586
8587
8587
8589
8589
8590
8590
8590
8591
8600
8601
8602
8604
8605
8608
8609
8611
8614
8614
8614
8615
8617
8618
8619
8621
8621
8621
8623
8624
8624
8625
8625
8627
8627
8630
8633
8633
8637
8637
8637
8641
8641
8643
8650
8651
8653
8654
8654
8656
8661
8662
8663
8664
8665
8673
8678
8682
8684
8684
8685
8686
8687
8687
8690
8691
8692
8694
8696
8696
8698
8702
8703
8703
8703
8707
8708
8709
8709
8712
8713
8714
8714
8714
8715
8717
8717
8719
8727
8728
8730
8731
8732
8732
8736
8736
8737
8740
8744
8744
8746
8746
8749
8751
8751
8751
8751
8754
8755
8756
8757
8757
8760
8762
8763
8764
8764
8765
8766
8766
8768
8771
8771
8774
8774
8777
8783
8783
8786
8788
8788
8788
8790
8791
8792
8794
8806
8806
8806
8807
8808
8811
8812
8812
8813
8815
8822
8828
8828
8831
8831
8833
8834
8837
8837
8838
8838
8839
8840
8847
8852
8857
8857
8860
8861
8864
8866
8867
8868
8871
8871
8872
8873
8877
8878
8880
8882
8882
8883
8883
8883
8886
8886
8886
8890
8891
8891
8892
8901
8901
8907
8912
8912
8912
8916
8916
8922
8925
8925
8925
8925
8926
8926
8927
8929
8931
8934
8936
8936
8942
8944
8945
8946
8946
8950
8951
8955
8955
8959
8962
8964
8965
8968
8971
8975
8978
8981
8983
8992
8992
8992
8995
8995
8996
8997
8997
9000
9002
9002
9003
9003
9005
9006
9006
9007
9008
9008
9008
9010
9013
9014
9019
9022
9023
9024
9025
9026
9027
9027
9029
9031
9035
9036
9037
9039
9040
9043
9045
9046
9046
9047
9052
9052
9053
9055
9056
9056
9056
9058
9058
9059
9059
9060
9063
9063
9064
9066
9066
9067
9068
9069
9071
9071
9080
9080
9084
9090
9090
9092
9092
9093
9094
9095
9097
9098
9098
9099
9100
9104
9104
9104
9107
9107
9107
9109
9109
9110
9114
9119
9120
9122
9125
9125
9127
9128
9131
9137
9139
9141
9143
9143
9144
9144
9148
9155
9156
9159
9163
9166
9168
9168
9172
9173
9174
9176
9177
9177
9177
9177
9177
9178
9179
9180
9183
9187
9189
9190
9191
9192
9194
9194
9198
9199
9200
9202
9204
9205
9206
9207
9207
9208
9210
9211
9213
9215
9223
9223
9223
9225
9225
9228
9229
9232
9234
9235
9236
9239
9240
9241
9242
9243
9243
9244
9245
9247
9254
9254
9255
9256
9256
9257
9260
9260
9261
9268
9270
9271
9271
9272
9274
9277
9279
9280
9280
9280
9281
9281
9282
9283
9285
9286
9288
9292
9297
9299
9299
9300
9300
9301
9301
9302
9302
9302
9303
9303
9303
9303
9305
9307
9307
9308
9308
9310
9312
9314
9314
9315
9316
9322
9323
9324
9325
9325
9325
9331
9332
9333
9334
9336
9341
9341
9342
9343
9344
9348
9349
9349
9350
9350
9354
9357
9364
9365
9367
9367
9369
9370
9370
9371
9372
9373
9373
9375
9375
9376
9377
9379
9379
9381
9382
9385
9385
9386
9388
9389
9390
9391
9392
9393
9393
9394
9395
9396
9397
9398
9402
9404
9404
9405
9407
9407
9410
9410
9422
9423
9425
9427
9428
9428
9428
9429
9431
9432
9432
9432
9436
9437
9438
9438
9439
9440
9441
9441
9443
9443
9450
9455
9456
9460
9462
9463
9464
9465
9468
9474
9480
9483
9483
9484
9484
9485
9486
9487
9489
9490
9495
9496
9498
9500
9500
9503
9506
9506
9510
9512
9513
9513
9514
9514
9515
9516
9518
9523
9523
9527
9528
9536
9538
9540
9541
9544
9547
9548
9552
9554
9557
9559
9562
9563
9566
9567
9569
9571
9572
9573
9574
9575
9578
9579
9579
9582
9583
9587
9593
9593
9594
9595
9598
9598
9600
9601
9601
9604
9606
9608
9608
9608
9612
9612
9613
9614
9616
9618
9619
9620
9620
9620
9622
9622
9624
9626
9627
9629
9629
9630
9631
9631
9632
9633
9635
9636
9639
9640
9645
9645
9645
9646
9646
9647
9649
9653
9654
9660
9661
9662
9663
9666
9668
9669
9670
9675
9677
9677
9678
9679
9682
9683
9685
9686
9687
9687
9688
9690
9692
9693
9693
9694
9694
9698
9699
9700
9701
9701
9702
9703
9705
9706
9709
9710
9715
9715
9715
9715
9718
9720
9721
9724
9724
9726
9726
9727
9728
9729
9730
9730
9732
9736
9739
9741
9743
9743
9745
9749
9751
9755
9757
9765
9766
9767
9768
9768
9768
9770
9772
9773
9773
9775
9776
9776
9776
9777
9778
9779
9782
9783
9786
9786
9786
9787
9787
9787
9788
9790
9790
9790
9792
9795
9802
9802
9803
9805
9806
9806
9807
9808
9809
9810
9810
9810
9811
9813
9814
9815
9817
9819
9821
9821
9822
9826
9827
9828
9828
9828
9828
9829
9829
9831
9832
9832
9832
9833
9835
9836
9839
9839
9842
9845
9845
9846
9848
9848
9849
9850
9851
9852
9855
9855
9858
9860
9862
9865
9869
9869
9872
9873
9874
9874
9875
9878
9880
9882
9886
9889
9889
9889
9891
9894
9894
9896
9898
9900
9905
9906
9906
9906
9907
9909
9914
9916
9918
9918
9919
9923
9923
9925
9926
9928
9930
9930
9932
9932
9934
9935
9941
9942
9942
9943
9943
9944
9945
9946
9946
9948
9948
9949
9949
9951
9951
9952
9959
9959
9962
9962
9963
9963
9964
9965
9968
9971
9971
9972
9972
9973
9973
9974
9975
9976
9979
9979
9980
9983
9985
9987
9989
9992
9998
