100
115
168
179
189
220
239
254
260
287
308
319
334
347
380
419
426
462
467
487
491
499
522
558
567
575
584
606
611
629
634
653
738
797
818
819
883
900
951
955
974
976
991
997
1008
1032
1072
1086
1107
1118
1127
1138
1145
1145
1164
1175
1274
1282
1284
1312
1316
1341
1399
1415
1419
1471
1476
1530
1567
1583
1591
1597
1625
1668
1676
1683
1707
1734
1751
1762
1770
1781
1814
1818
1829
1890
1947
1959
1977
1993
2002
2042
2067
2081
2096
2129
2147
2155
2166
2189
2200
2223
2257
2267
2280
2314
2337
2402
2422
2427
2458
2484
2487
2576
2590
2640
2645
2649
2682
2722
2725
2754
2770
2779
2827
2849
2897
2913
2922
2923
3008
3086
3110
3117
3187
3272
3282
3283
3296
3334
3350
3365
3376
3389
3395
3404
3404
3432
3458
3487
3519
3522
3532
3558
3570
3618
3627
3628
3724
3739
3760
3772
3810
3825
3840
3911
3919
3936
3991
4035
4042
4051
4060
4104
4114
4208
4231
4268
4301
4364
4399
4414
4443
4512
4522
4541
4548
4568
4576
4583
4594
4600
4705
4731
4751
4753
4758
4764
4810
4820
4828
4852
4852
4857
4928
4933
4942
4964
4970
4995
5032
5052
5082
5085
5108
5137
5160
5184
5203
5290
5330
5342
5388
5455
5461
5507
5544
5560
5567
5577
5610
5612
5613
5614
5630
5653
5713
5766
5771
5813
5824
5833
5887
5896
5937
5950
6002
6032
6057
6071
6076
6078
6080
6127
6146
6152
6156
6185
6242
6255
6271
6290
6310
6312
6330
6335
6341
6358
6363
6370
6400
6417
6425
6435
6474
6535
6562
6581
6581
6604
6647
6652
6654
6719
6763
6764
6785
6816
6834
6855
6855
6897
6932
7003
7073
7075
7130
7134
7147
7153
7171
7215
7281
7330
7354
7369
7370
7424
7537
7563
7578
7579
7584
7618
7641
7673
7689
7712
7718
7723
7736
7791
7811
7821
7833
7856
7862
7878
7917
7959
7968
7976
8050
8065
8074
8106
8150
8161
8219
8234
8244
8244
8245
8255
8264
8287
8295
8313
8317
8318
8330
8356
8369
8415
8428
8444
8459
8523
8546
8554
8568
8570
8630
8666
8734
8736
8818
8828
8944
8945
8996
9011
9108
9129
9133
9168
9185
9209
9229
9233
9262
9263
9282
9296
9326
9352
9357
9374
9376
9400
9427
9445
9466
9499
9504
9561
9627
9627
9727
9741
9852
9900
9918
9964
9990
9995
