1
1
4
6
7
9
9
9
14
14
18
18
20
20
28
28
29
30
30
31
32
32
33
33
33
34
37
38
39
40
42
46
46
48
48
50
51
52
52
53
57
58
59
59
62
63
63
64
64
66
66
71
71
72
72
74
76
78
79
79
81
81
81
83
84
86
87
89
90
91
92
94
94
96
97
97
98
100
106
108
113
115
117
118
119
120
120
121
124
125
125
126
127
128
133
135
137
137
141
142
142
142
145
149
149
150
151
151
151
155
161
161
162
163
164
167
168
171
172
174
176
176
178
179
179
181
181
187
191
191
192
193
193
194
195
198
200
206
206
207
207
208
208
210
215
215
216
217
217
218
218
219
221
222
223
224
225
226
226
228
229
232
233
235
235
239
240
248
249
254
256
257
257
264
264
271
271
273
274
281
282
283
284
285
290
291
291
292
294
294
294
295
295
297
297
297
299
299
300
302
305
308
308
310
315
317
319
323
324
327
332
332
333
333
334
334
335
336
337
341
342
342
343
344
344
347
351
354
354
354
355
357
358
358
358
359
359
359
360
361
362
363
369
370
372
374
375
375
380
391
394
401
402
402
406
408
417
417
420
422
426
430
433
433
433
435
435
442
443
443
444
449
450
451
451
451
452
455
457
458
461
462
463
465
468
475
476
476
481
482
484
486
487
488
488
489
490
490
492
493
494
495
498
500
503
503
505
508
509
513
515
515
516
522
522
522
523
523
527
527
534
535
542
544
546
546
548
551
552
552
556
557
559
562
564
566
568
569
569
570
572
572
572
580
581
583
586
587
587
592
595
596
596
609
609
610
616
619
619
630
633
636
642
643
646
647
651
652
652
653
656
657
662
663
666
666
672
675
676
678
680
682
684
685
685
686
686
687
689
689
693
698
699
702
702
706
711
719
719
720
725
737
739
739
739
741
741
743
744
747
749
749
751
752
753
755
758
761
762
764
770
776
777
778
780
781
783
783
784
784
787
789
792
803
803
808
810
810
814
814
814
814
815
817
819
823
823
823
826
831
833
837
838
840
843
844
847
849
850
851
851
855
859
860
863
863
867
867
870
872
873
876
882
883
885
886
887
888
890
896
900
900
904
904
905
906
907
908
909
909
909
913
915
916
917
918
920
922
926
927
930
936
941
942
942
948
949
949
951
956
957
961
963
964
964
964
966
969
971
972
973
974
975
978
979
979
981
984
984
985
989
990
991
993
994
995
997
997
998
998
1000
1000
1001
1004
1008
1011
1013
1014
1016
1018
1018
1019
1021
1023
1027
1027
1033
1033
1038
1038
1039
1039
1040
1043
1044
1045
1048
1049
1056
1056
1057
1058
1060
1060
1065
1069
1078
1078
1082
1082
1084
1085
1088
1088
1101
1102
1103
1104
1104
1111
1112
1113
1115
1118
1122
1123
1123
1123
1123
1124
1125
1126
1126
1128
1133
1138
1140
1147
1148
1148
1149
1150
1152
1153
1155
1156
1157
1159
1159
1167
1170
1171
1172
1173
1173
1178
1178
1181
1181
1181
1183
1185
1188
1192
1192
1193
1197
1200
1203
1204
1208
1210
1212
1212
1215
1218
1219
1220
1223
1225
1231
1231
1232
1236
1236
1236
1241
1243
1244
1244
1245
1248
1248
1249
1251
1251
1252
1254
1256
1257
1258
1260
1260
1261
1261
1261
1262
1263
1266
1267
1269
1270
1271
1272
1272
1275
1276
1277
1281
1281
1283
1285
1285
1288
1292
1296
1297
1298
1303
1304
1305
1307
1308
1313
1314
1316
1317
1318
1318
1320
1321
1322
1329
1334
1335
1336
1340
1344
1347
1349
1350
1350
1350
1352
1354
1356
1356
1356
1357
1362
1363
1365
1365
1366
1369
1369
1372
1377
1378
1381
1384
1390
1393
1394
1394
1395
1396
1397
1401
1403
1403
1406
1407
1407
1408
1409
1411
1416
1416
1416
1419
1419
1420
1424
1425
1426
1427
1428
1428
1428
1429
1430
1433
1436
1436
1439
1439
1439
1441
1442
1444
1446
1448
1449
1450
1450
1450
1451
1452
1459
1460
1460
1460
1463
1464
1464
1464
1466
1467
1468
1470
1472
1473
1474
1475
1476
1476
1478
1480
1485
1489
1490
1492
1492
1492
1495
1495
1499
1499
1499
1500
1501
1503
1504
1506
1509
1512
1514
1515
1515
1519
1520
1522
1523
1526
1527
1529
1532
1532
1533
1533
1533
1534
1536
1536
1539
1540
1550
1552
1552
1552
1554
1555
1557
1558
1564
1564
1565
1566
1567
1570
1570
1572
1572
1572
1572
1574
1574
1575
1577
1578
1582
1590
1592
1593
1594
1596
1599
1603
1604
1604
1605
1609
1613
1615
1615
1616
1618
1620
1621
1625
1625
1627
1628
1629
1630
1631
1633
1634
1636
1639
1640
1643
1643
1646
1652
1656
1657
1657
1660
1662
1663
1665
1669
1671
1672
1677
1679
1679
1680
1683
1685
1691
1692
1697
1698
1699
1699
1701
1701
1710
1711
1713
1713
1715
1716
1718
1720
1721
1724
1724
1726
1726
1728
1729
1730
1731
1734
1734
1734
1743
1744
1745
1746
1750
1752
1754
1754
1756
1756
1758
1763
1765
1766
1766
1767
1767
1773
1776
1777
1777
1781
1783
1783
1786
1787
1788
1790
1791
1791
1793
1797
1803
1808
1810
1813
1814
1814
1816
1816
1819
1821
1821
1821
1823
1825
1826
1828
1829
1830
1830
1843
1844
1847
1851
1853
1854
1856
1856
1858
1858
1859
1864
1865
1865
1867
1868
1868
1869
1872
1874
1875
1875
1881
1883
1894
1895
1896
1896
1896
1897
1898
1898
1899
1903
1905
1905
1907
1908
1910
1910
1912
1912
1918
1920
1920
1923
1923
1923
1926
1927
1928
1928
1931
1931
1937
1940
1940
1941
1943
1945
1947
1948
1949
1953
1955
1955
1957
1957
1959
1962
1966
1973
1973
1979
1986
1987
1987
1987
1988
1989
1992
1995
1995
1996
1996
1996
1997
1998
2001
2003
2005
2005
2007
2013
2014
2016
2018
2020
2020
2022
2025
2031
2031
2035
2036
2037
2038
2039
2040
2040
2041
2045
2045
2047
2048
2049
2050
2055
2056
2058
2058
2058
2059
2060
2060
2061
2063
2070
2072
2075
2076
2077
2084
2088
2091
2092
2092
2096
2097
2101
2104
2107
2107
2107
2108
2110
2110
2112
2114
2115
2115
2117
2118
2119
2121
2134
2138
2139
2144
2144
2144
2148
2158
2158
2160
2160
2164
2166
2167
2167
2170
2170
2170
2173
2175
2177
2183
2184
2185
2190
2190
2192
2192
2193
2196
2198
2199
2199
2199
2201
2202
2203
2204
2207
2208
2209
2209
2213
2216
2221
2222
2224
2224
2227
2228
2229
2230
2233
2234
2236
2240
2240
2241
2242
2243
2243
2244
2244
2245
2247
2249
2252
2253
2255
2255
2256
2256
2256
2257
2258
2260
2264
2264
2265
2270
2271
2273
2275
2277
2278
2279
2281
2282
2283
2287
2289
2291
2294
2299
2300
2300
2300
2301
2302
2303
2307
2312
2312
2312
2321
2321
2324
2324
2324
2326
2329
2329
2330
2333
2334
2338
2344
2346
2348
2353
2353
2353
2358
2358
2362
2363
2364
2365
2365
2366
2372
2374
2377
2383
2386
2387
2388
2389
2389
2391
2392
2396
2403
2406
2406
2407
2408
2408
2413
2413
2416
2416
2418
2419
2425
2427
2429
2439
2440
2442
2442
2448
2450
2451
2456
2457
2458
2459
2459
2460
2460
2463
2464
2466
2469
2469
2474
2475
2475
2478
2478
2479
2479
2480
2481
2482
2482
2486
2493
2493
2494
2496
2496
2497
2500
2504
2509
2513
2516
2518
2519
2524
2525
2527
2528
2532
2532
2533
2536
2537
2542
2546
2547
2548
2550
2554
2557
2558
2560
2564
2566
2566
2567
2567
2567
2568
2575
2575
2577
2579
2582
2583
2584
2587
2588
2591
2593
2594
2595
2598
2600
2601
2605
2606
2608
2610
2611
2613
2614
2623
2626
2627
2627
2632
2632
2633
2633
2634
2637
2638
2641
2644
2645
2645
2647
2647
2648
2648
2649
2651
2657
2658
2658
2661
2662
2665
2667
2668
2671
2673
2675
2679
2680
2682
2682
2685
2686
2694
2697
2701
2701
2703
2711
2712
2713
2713
2715
2718
2720
2724
2725
2727
2731
2731
2732
2732
2733
2733
2736
2739
2742
2743
2744
2744
2746
2747
2748
2750
2753
2753
2754
2754
2757
2757
2760
2761
2761
2767
2768
2777
2777
2780
2782
2783
2793
2798
2801
2803
2803
2804
2804
2806
2807
2808
2808
2808
2810
2814
2814
2815
2816
2817
2817
2819
2822
2822
2823
2824
2827
2828
2829
2833
2835
2836
2837
2838
2840
2841
2842
2842
2843
2845
2845
2845
2846
2848
2849
2849
2852
2852
2853
2854
2856
2856
2859
2859
2859
2859
2860
2861
2862
2865
2868
2870
2871
2874
2875
2876
2877
2878
2879
2880
2880
2886
2886
2887
2888
2889
2892
2893
2894
2895
2897
2898
2898
2898
2900
2904
2905
2907
2908
2910
2911
2915
2920
2921
2923
2924
2925
2925
2926
2926
2930
2934
2934
2936
2937
2942
2942
2944
2944
2945
2947
2947
2951
2953
2953
2955
2957
2960
2960
2967
2972
2977
2981
2984
2986
2987
2990
2990
2992
2994
2995
2999
3000
3000
3005
3006
3006
3008
3013
3015
3016
3016
3021
3026
3029
3030
3030
3036
3036
3037
3037
3038
3039
3041
3045
3047
3049
3052
3055
3056
3058
3058
3059
3060
3063
3066
3068
3069
3070
3070
3070
3070
3073
3074
3079
3080
3080
3081
3081
3083
3083
3084
3085
3085
3085
3085
3087
3090
3091
3092
3092
3093
3093
3094
3094
3094
3094
3096
3099
3100
3100
3104
3104
3105
3106
3108
3108
3119
3121
3122
3123
3126
3136
3140
3145
3145
3149
3150
3153
3154
3157
3160
3163
3166
3167
3169
3170
3170
3171
3173
3178
3178
3180
3182
3182
3183
3183
3189
3191
3193
3197
3201
3205
3206
3207
3208
3211
3216
3217
3221
3222
3224
3224
3224
3227
3231
3234
3238
3240
3240
3241
3242
3244
3244
3245
3246
3251
3256
3257
3257
3262
3265
3269
3270
3272
3273
3275
3275
3278
3282
3285
3287
3290
3294
3294
3294
3298
3300
3300
3304
3308
3309
3310
3310
3312
3319
3321
3321
3322
3323
3324
3325
3326
3331
3333
3333
3336
3339
3341
3342
3345
3347
3347
3347
3348
3351
3354
3357
3358
3359
3360
3365
3365
3368
3372
3379
3380
3381
3382
3384
3384
3385
3386
3391
3392
3393
3393
3393
3394
3395
3395
3401
3403
3406
3406
3410
3410
3416
3417
3417
3418
3428
3428
3430
3431
3433
3433
3436
3436
3438
3441
3441
3442
3444
3449
3449
3453
3453
3456
3458
3464
3466
3467
3471
3472
3473
3473
3474
3477
3479
3480
3480
3483
3485
3486
3487
3488
3489
3492
3494
3495
3496
3497
3498
3498
3500
3500
3505
3505
3510
3511
3512
3513
3514
3516
3517
3518
3519
3520
3521
3523
3524
3528
3529
3530
3530
3536
3537
3538
3540
3541
3541
3544
3544
3547
3548
3550
3550
3551
3552
3553
3558
3558
3559
3559
3565
3566
3566
3567
3568
3571
3571
3572
3572
3573
3578
3581
3585
3589
3591
3593
3596
3600
3605
3605
3606
3607
3609
3610
3611
3611
3613
3613
3613
3613
3613
3615
3615
3624
3624
3627
3629
3629
3630
3633
3638
3639
3640
3643
3648
3650
3651
3657
3661
3662
3663
3664
3664
3665
3665
3665
3668
3671
3673
3674
3683
3687
3688
3690
3690
3694
3697
3700
3700
3701
3704
3708
3710
3711
3711
3713
3715
3716
3723
3726
3727
3729
3729
3732
3736
3736
3737
3737
3739
3742
3743
3744
3745
3746
3747
3749
3750
3752
3752
3754
3754
3754
3755
3755
3756
3757
3757
3757
3768
3768
3770
3776
3777
3783
3785
3788
3788
3790
3790
3791
3792
3796
3797
3798
3800
3801
3804
3809
3809
3810
3812
3814
3816
3816
3818
3819
3821
3821
3822
3823
3824
3825
3826
3831
3832
3833
3839
3843
3843
3845
3848
3851
3854
3854
3857
3859
3859
3860
3862
3864
3866
3869
3870
3870
3873
3875
3876
3879
3883
3883
3884
3885
3887
3890
3890
3890
3891
3894
3894
3895
3896
3896
3902
3904
3904
3906
3910
3913
3914
3914
3915
3916
3916
3923
3925
3927
3927
3929
3932
3935
3936
3936
3938
3938
3944
3948
3948
3958
3960
3961
3961
3964
3967
3969
3973
3974
3976
3976
3979
3979
3980
3990
3992
3993
3999
3999
4000
4003
4004
4005
4009
4011
4014
4016
4017
4019
4020
4020
4025
4026
4031
4032
4032
4034
4034
4039
4040
4044
4045
4045
4046
4047
4048
4050
4050
4056
4058
4058
4058
4059
4059
4062
4062
4062
4068
4070
4072
4079
4080
4081
4081
4083
4084
4085
4086
4088
4092
4095
4099
4100
4102
4103
4105
4109
4112
4112
4112
4117
4119
4119
4121
4123
4125
4129
4129
4131
4132
4133
4134
4135
4136
4146
4147
4149
4153
4155
4155
4155
4156
4160
4163
4168
4171
4172
4172
4173
4173
4181
4182
4187
4187
4188
4190
4191
4191
4191
4194
4194
4195
4203
4204
4205
4205
4208
4210
4211
4213
4214
4217
4225
4227
4229
4232
4233
4234
4234
4235
4235
4237
4237
4239
4242
4248
4248
4248
4249
4249
4249
4253
4260
4268
4274
4278
4278
4281
4282
4283
4284
4284
4286
4286
4287
4287
4287
4290
4291
4294
4295
4296
4297
4299
4302
4302
4303
4307
4310
4312
4313
4315
4316
4322
4322
4322
4322
4323
4326
4328
4330
4330
4333
4334
4336
4337
4337
4337
4339
4339
4341
4342
4345
4346
4346
4352
4353
4355
4355
4357
4360
4360
4363
4363
4363
4364
4365
4366
4366
4369
4370
4370
4373
4375
4379
4385
4385
4385
4389
4389
4393
4394
4394
4394
4399
4401
4402
4404
4404
4404
4409
4412
4414
4417
4417
4423
4425
4425
4431
4433
4435
4438
4438
4439
4440
4443
4447
4452
4454
4456
4460
4461
4462
4462
4466
4468
4468
4470
4471
4473
4477
4477
4478
4479
4481
4483
4484
4486
4487
4489
4490
4490
4490
4492
4494
4494
4497
4498
4503
4503
4506
4506
4507
4508
4509
4512
4514
4517
4518
4519
4519
4521
4522
4523
4523
4524
4524
4526
4526
4527
4527
4529
4530
4532
4532
4533
4538
4539
4539
4542
4549
4551
4554
4554
4555
4555
4555
4559
4560
4562
4568
4570
4570
4570
4571
4572
4573
4575
4578
4583
4584
4585
4589
4589
4589
4592
4598
4601
4601
4602
4602
4610
4614
4616
4619
4621
4631
4634
4639
4640
4642
4643
4647
4650
4653
4655
4655
4656
4656
4658
4668
4669
4670
4671
4671
4672
4676
4676
4678
4678
4678
4682
4684
4684
4684
4686
4687
4688
4688
4691
4692
4693
4696
4696
4697
4699
4701
4702
4704
4704
4704
4706
4707
4707
4708
4709
4709
4713
4713
4720
4720
4720
4722
4722
4729
4736
4745
4745
4746
4746
4747
4749
4750
4751
4754
4755
4760
4765
4766
4767
4769
4770
4770
4772
4777
4777
4778
4779
4780
4780
4785
4786
4788
4789
4790
4790
4790
4790
4792
4794
4795
4795
4799
4802
4803
4803
4804
4805
4812
4812
4814
4817
4818
4818
4824
4825
4825
4825
4826
4828
4832
4836
4836
4838
4839
4840
4840
4842
4843
4845
4845
4846
4846
4849
4850
4850
4852
4852
4857
4858
4861
4863
4864
4865
4867
4868
4871
4872
4873
4874
4877
4882
4884
4884
4888
4888
4894
4894
4897
4906
4907
4908
4909
4912
4914
4915
4917
4919
4920
4920
4926
4926
4933
4934
4937
4938
4941
4942
4942
4943
4945
4949
4950
4953
4955
4955
4957
4957
4959
4960
4962
4963
4964
4966
4966
4968
4971
4975
4975
4976
4983
4983
4985
4987
4988
4989
4992
4994
4995
4997
4997
4997
4997
4997
5000
5002
5003
5004
5005
5005
5009
5011
5013
5013
5016
5021
5025
5025
5025
5030
5030
5032
5037
5038
5040
5043
5045
5047
5050
5054
5055
5055
5056
5056
5059
5060
5063
5064
5070
5070
5072
5074
5074
5078
5080
5081
5086
5089
5091
5092
5098
5099
5102
5105
5109
5110
5112
5117
5124
5125
5125
5126
5129
5134
5137
5140
5143
5144
5151
5152
5153
5156
5156
5158
5159
5161
5163
5163
5164
5165
5166
5167
5167
5167
5171
5172
5172
5180
5180
5181
5184
5184
5186
5188
5189
5193
5193
5193
5195
5197
5197
5198
5199
5200
5204
5205
5206
5210
5210
5211
5213
5217
5219
5220
5222
5226
5227
5232
5243
5244
5247
5248
5248
5248
5249
5249
5249
5252
5252
5253
5253
5255
5256
5258
5260
5261
5265
5267
5270
5270
5275
5278
5279
5282
5283
5289
5289
5292
5292
5294
5294
5297
5299
5302
5302
5309
5309
5311
5311
5311
5314
5315
5316
5316
5316
5318
5322
5322
5323
5324
5325
5325
5327
5328
5329
5331
5331
5331
5331
5332
5334
5335
5335
5341
5344
5348
5348
5354
5355
5359
5359
5359
5360
5361
5362
5368
5370
5373
5374
5376
5382
5384
5385
5385
5388
5392
5397
5397
5398
5398
5398
5408
5408
5410
5410
5411
5413
5414
5416
5416
5418
5420
5423
5426
5426
5429
5431
5433
5434
5434
5435
5436
5436
5438
5438
5438
5439
5441
5442
5442
5442
5443
5445
5446
5448
5451
5451
5452
5455
5456
5461
5462
5463
5465
5472
5474
5474
5476
5480
5480
5485
5487
5487
5490
5494
5494
5494
5496
5497
5497
5497
5503
5504
5509
5510
5511
5511
5511
5511
5515
5517
5521
5523
5524
5525
5526
5530
5532
5534
5536
5538
5538
5539
5542
5545
5547
5547
5551
5556
5559
5560
5560
5562
5563
5563
5566
5567
5569
5570
5570
5572
5573
5576
5586
5587
5588
5588
5589
5591
5591
5591
5591
5593
5594
5595
5601
5601
5607
5607
5611
5612
5612
5622
5628
5629
5630
5631
5634
5636
5638
5638
5639
5642
5644
5646
5647
5648
5649
5650
5652
5658
5661
5662
5662
5662
5662
5663
5664
5669
5669
5671
5675
5675
5676
5679
5681
5689
5689
5690
5692
5693
5694
5694
5695
5697
5703
5704
5709
5711
5713
5714
5716
5717
5718
5719
5723
5725
5726
5727
5728
5736
5736
5741
5741
5743
5745
5745
5747
5749
5752
5753
5754
5755
5759
5761
5762
5762
5771
5772
5774
5775
5776
5776
5777
5778
5779
5779
5779
5780
5780
5781
5787
5788
5790
5791
5792
5792
5793
5796
5796
5797
5800
5802
5802
5802
5803
5805
5807
5808
5811
5811
5813
5813
5815
5815
5817
5818
5819
5821
5824
5825
5830
5831
5832
5834
5835
5843
5844
5846
5846
5847
5853
5857
5858
5860
5866
5867
5869
5871
5872
5875
5876
5880
5881
5882
5883
5884
5891
5891
5892
5893
5898
5898
5902
5904
5904
5908
5909
5911
5912
5912
5913
5913
5916
5916
5917
5918
5921
5921
5921
5922
5922
5926
5928
5929
5932
5937
5939
5940
5941
5943
5943
5944
5944
5945
5945
5952
5953
5954
5954
5957
5957
5957
5963
5963
5963
5963
5966
5968
5968
5973
5978
5985
5986
5986
5987
5988
5988
5989
5989
5989
5991
5992
5997
5997
5997
5998
5998
5998
6003
6006
6008
6012
6014
6019
6019
6021
6022
6024
6025
6028
6028
6030
6032
6032
6033
6036
6037
6038
6039
6043
6043
6044
6046
6047
6048
6054
6055
6055
6059
6060
6065
6066
6066
6066
6068
6076
6081
6084
6086
6089
6090
6090
6096
6101
6104
6106
6106
6107
6107
6108
6108
6110
6110
6111
6111
6114
6115
6115
6115
6118
6120
6120
6123
6128
6129
6132
6136
6137
6139
6139
6142
6146
6146
6147
6149
6158
6160
6163
6165
6166
6171
6172
6173
6174
6179
6180
6182
6185
6185
6185
6185
6187
6189
6190
6193
6194
6195
6196
6198
6200
6201
6202
6204
6205
6206
6210
6215
6221
6222
6234
6236
6237
6237
6237
6238
6238
6240
6242
6246
6250
6255
6256
6256
6257
6257
6259
6261
6263
6263
6265
6266
6266
6269
6270
6278
6280
6281
6282
6285
6285
6287
6287
6290
6290
6294
6295
6297
6298
6300
6307
6310
6311
6312
6313
6316
6321
6322
6323
6323
6324
6336
6339
6340
6340
6341
6342
6342
6343
6347
6349
6349
6349
6349
6350
6353
6355
6357
6360
6361
6361
6363
6364
6368
6368
6368
6369
6370
6370
6371
6372
6372
6374
6374
6376
6376
6377
6377
6378
6379
6382
6383
6384
6387
6390
6393
6395
6396
6397
6397
6397
6400
6400
6407
6409
6411
6412
6413
6415
6419
6420
6423
6423
6426
6427
6428
6429
6430
6434
6437
6440
6444
6445
6445
6447
6450
6451
6452
6452
6453
6453
6453
6454
6460
6463
6464
6466
6466
6470
6474
6478
6478
6479
6479
6479
6479
6481
6482
6483
6486
6488
6489
6493
6494
6496
6496
6499
6500
6505
6507
6508
6512
6515
6517
6517
6519
6522
6526
6531
6537
6540
6541
6542
6542
6544
6545
6546
6549
6557
6559
6565
6565
6566
6567
6572
6573
6573
6577
6581
6582
6582
6582
6587
6589
6590
6591
6591
6594
6594
6595
6595
6598
6603
6603
6605
6607
6608
6608
6613
6616
6617
6622
6624
6627
6627
6627
6628
6629
6634
6636
6637
6640
6644
6644
6650
6652
6652
6653
6653
6655
6659
6662
6663
6663
6668
6668
6668
6670
6670
6672
6674
6675
6675
6676
6679
6679
6681
6682
6683
6685
6687
6689
6690
6692
6692
6693
6694
6697
6703
6705
6706
6706
6707
6708
6709
6716
6718
6719
6722
6722
6726
6728
6729
6736
6743
6743
6745
6746
6746
6749
6750
6752
6752
6754
6754
6755
6755
6757
6758
6759
6760
6763
6766
6768
6771
6775
6775
6776
6776
6778
6779
6780
6780
6782
6783
6784
6784
6785
6787
6789
6789
6789
6789
6790
6793
6796
6796
6805
6805
6808
6811
6815
6816
6817
6824
6824
6824
6825
6826
6832
6832
6835
6836
6836
6837
6839
6845
6846
6846
6848
6848
6848
6849
6850
6850
6851
6853
6855
6857
6859
6860
6861
6864
6866
6867
6868
6868
6870
6872
6872
6873
6874
6878
6878
6879
6880
6881
6883
6886
6887
6892
6899
6900
6900
6901
6902
6903
6904
6905
6909
6911
6912
6915
6917
6919
6920
6921
6923
6927
6928
6932
6935
6935
6938
6939
6940
6940
6941
6942
6943
6947
6948
6949
6953
6954
6954
6954
6955
6957
6963
6963
6967
6969
6970
6971
6971
6973
6974
6975
6981
6981
6981
6983
6986
6987
6987
6992
6994
6994
6994
6995
6996
6996
6996
6997
7003
7006
7006
7008
7014
7016
7022
7023
7032
7032
7033
7033
7036
7037
7038
7039
7041
7042
7044
7044
7045
7046
7048
7049
7049
7051
7053
7055
7056
7057
7061
7061
7061
7064
7071
7073
7078
7082
7083
7083
7084
7084
7086
7087
7088
7089
7090
7094
7094
7097
7097
7098
7100
7101
7103
7105
7109
7110
7112
7113
7117
7117
7119
7121
7122
7126
7128
7134
7137
7147
7147
7147
7149
7150
7156
7157
7160
7162
7163
7172
7172
7173
7177
7177
7178
7178
7179
7179
7183
7187
7187
7189
7191
7191
7194
7194
7197
7198
7199
7200
7203
7203
7210
7214
7215
7216
7219
7220
7223
7224
7226
7228
7231
7232
7235
7236
7239
7239
7240
7241
7242
7242
7243
7243
7243
7244
7245
7246
7246
7250
7253
7253
7254
7254
7259
7261
7262
7263
7270
7282
7282
7285
7287
7287
7288
7290
7290
7294
7299
7299
7303
7305
7307
7309
7309
7312
7314
7318
7319
7320
7321
7325
7325
7326
7332
7332
7333
7334
7338
7347
7348
7350
7351
7352
7356
7358
7359
7360
7360
7361
7368
7368
7374
7375
7377
7377
7379
7380
7381
7385
7385
7387
7389
7391
7397
7397
7397
7398
7399
7401
7402
7402
7402
7403
7403
7404
7404
7404
7407
7413
7414
7417
7417
7417
7418
7419
7422
7422
7423
7427
7433
7433
7434
7435
7435
7436
7438
7441
7445
7445
7449
7449
7450
7451
7453
7454
7455
7456
7458
7461
7463
7465
7466
7467
7468
7468
7469
7472
7478
7483
7484
7484
7484
7485
7490
7492
7493
7497
7497
7499
7501
7502
7503
7506
7507
7509
7510
7511
7512
7513
7518
7523
7525
7525
7525
7534
7534
7535
7538
7539
7539
7540
7542
7552
7555
7560
7560
7561
7562
7563
7565
7565
7565
7567
7567
7569
7570
7573
7573
7575
7576
7577
7578
7578
7581
7581
7585
7587
7590
7591
7594
7596
7598
7599
7601
7602
7602
7603
7605
7607
7608
7609
7613
7613
7617
7619
7620
7620
7622
7623
7624
7628
7628
7631
7633
7633
7635
7637
7641
7642
7643
7643
7646
7649
7649
7649
7652
7653
7656
7657
7658
7664
7665
7665
7668
7670
7670
7672
7672
7678
7678
7684
7685
7686
7686
7687
7692
7692
7695
7696
7697
7701
7702
7702
7704
7705
7709
7710
7710
7712
7719
7725
7727
7733
7733
7733
7734
7735
7736
7737
7739
7739
7740
7740
7741
7741
7746
7748
7754
7756
7761
7765
7767
7768
7768
7768
7768
7769
7771
7772
7774
7774
7779
7779
7780
7781
7786
7787
7789
7792
7793
7800
7801
7804
7805
7807
7809
7809
7813
7816
7817
7817
7818
7818
7822
7824
7836
7837
7837
7839
7839
7841
7841
7843
7844
7844
7844
7845
7845
7853
7854
7854
7855
7857
7858
7858
7860
7861
7864
7866
7868
7872
7876
7877
7878
7880
7881
7882
7884
7886
7887
7889
7890
7898
7900
7903
7903
7904
7906
7910
7916
7922
7923
7924
7926
7931
7935
7935
7935
7941
7944
7946
7948
7948
7951
7952
7953
7953
7954
7959
7959
7960
7961
7962
7962
7968
7971
7973
7973
7976
7978
7980
7986
7987
7990
7995
7995
7997
7998
7998
7998
8002
8003
8004
8004
8004
8005
8006
8008
8008
8009
8009
8009
8009
8010
8011
8012
8017
8021
8022
8024
8027
8036
8037
8037
8038
8043
8048
8050
8052
8052
8053
8056
8057
8061
8062
8069
8078
8083
8085
8087
8088
8091
8092
8095
8100
8102
8105
8106
8107
8107
8107
8109
8113
8113
8113
8116
8118
8118
8118
8119
8119
8120
8121
8123
8124
8127
8131
8133
8135
8135
8136
8138
8139
8139
8139
8141
8143
8150
8151
8153
8153
8153
8155
8156
8156
8161
8161
8162
8162
8163
8164
8165
8166
8171
8172
8173
8176
8180
8185
8186
8187
8188
8190
8191
8191
8193
8195
8196
8196
8196
8198
8199
8201
8202
8202
8204
8207
8208
8208
8213
8215
8215
8218
8219
8221
8221
8223
8224
8227
8228
8228
8229
8230
8234
8236
8237
8237
8237
8238
8238
8239
8239
8242
8245
8245
8248
8249
8250
8251
8251
8253
8254
8258
8260
8261
8263
8267
8268
8275
8277
8280
8283
8284
8285
8286
8286
8286
8289
8291
8291
8291
8292
8293
8294
8298
8301
8301
8302
8303
8304
8305
8306
8306
8309
8312
8314
8315
8317
8318
8318
8319
8320
8322
8323
8323
8324
8324
8325
8325
8331
8332
8332
8335
8338
8341
8347
8348
8353
8354
8354
8356
8362
8363
8365
8371
8374
8375
8378
8380
8381
8382
8382
8383
8385
8386
8387
8388
8388
8395
8396
8397
8398
8399
8399
8400
8406
8406
8408
8410
8412
8412
8413
8413
8414
8418
8418
8419
8421
8426
8427
8427
8428
8429
8433
8434
8434
8436
8437
8441
8441
8442
8442
8443
8443
8444
8445
8445
8446
8446
8448
8451
8455
8456
8457
8458
8458
8459
8460
8462
8465
8468
8469
8473
8473
8474
8474
8474
8474
8476
8477
8477
8477
8478
8482
8487
8488
8490
8491
8492
8493
8493
8493
8498
8498
8499
8501
8505
8506
8508
8520
8523
8523
8525
8527
8527
8529
8531
8531
8532
8532
8533
8537
8537
8541
8541
8542
8542
8544
8545
8546
8555
8556
8557
8560
8562
8563
8565
8566
8573
8575
8577
8584
8585
8585
8588
8594
8594
8596
8599
8601
8601
8603
8608
8611
8613
8613
8613
8615
8617
8620
8620
8623
8623
8624
8627
8628
8631
8635
8638
8639
8639
8640
8641
8643
8643
8649
8652
8661
8662
8664
8669
8669
8670
8670
8672
8673
8675
8677
8683
8683
8685
8685
8685
8687
8688
8690
8690
8697
8697
8699
8702
8708
8709
8710
8714
8715
8716
8717
8717
8717
8718
8724
8725
8725
8725
8726
8728
8730
8732
8734
8734
8737
8739
8740
8741
8741
8745
8746
8750
8752
8753
8753
8753
8754
8755
8755
8755
8758
8759
8760
8762
8762
8762
8763
8766
8768
8776
8777
8779
8782
8782
8785
8786
8791
8793
8796
8796
8798
8800
8800
8806
8806
8807
8807
8811
8812
8812
8812
8815
8816
8819
8822
8823
8824
8827
8829
8829
8829
8830
8830
8831
8836
8842
8842
8846
8847
8849
8852
8854
8857
8861
8861
8862
8862
8864
8866
8870
8872
8872
8874
8874
8879
8886
8886
8887
8889
8895
8896
8896
8896
8896
8898
8907
8909
8911
8914
8914
8915
8915
8916
8923
8923
8924
8924
8926
8927
8927
8932
8935
8936
8936
8937
8937
8940
8943
8944
8945
8954
8954
8956
8958
8962
8963
8965
8965
8966
8968
8969
8970
8974
8976
8977
8977
8979
8979
8982
8983
8988
8994
8995
8996
8996
8998
9002
9002
9006
9007
9008
9013
9014
9015
9018
9018
9018
9021
9024
9024
9029
9030
9032
9032
9034
9036
9038
9040
9045
9047
9048
9048
9048
9049
9049
9052
9052
9052
9052
9053
9053
9056
9057
9057
9064
9067
9067
9067
9072
9073
9073
9073
9076
9077
9078
9088
9088
9090
9090
9094
9095
9095
9095
9100
9100
9108
9110
9115
9116
9119
9120
9121
9122
9122
9122
9122
9126
9126
9129
9132
9132
9132
9133
9133
9133
9136
9136
9137
9138
9140
9141
9143
9148
9149
9151
9151
9154
9155
9155
9156
9157
9158
9159
9161
9166
9170
9180
9181
9193
9195
9197
9197
9200
9201
9205
9208
9208
9209
9211
9212
9212
9213
9216
9218
9220
9220
9225
9226
9227
9229
9230
9232
9232
9233
9240
9241
9246
9248
9249
9253
9253
9255
9256
9260
9261
9263
9266
9267
9269
9271
9271
9273
9274
9274
9275
9275
9276
9278
9279
9280
9281
9281
9287
9288
9289
9289
9289
9290
9291
9293
9296
9298
9299
9301
9302
9305
9306
9306
9308
9310
9311
9313
9314
9315
9322
9323
9323
9324
9325
9326
9327
9328
9329
9330
9332
9333
9336
9340
9341
9341
9341
9342
9344
9344
9345
9347
9347
9347
9347
9349
9354
9356
9358
9359
9359
9359
9359
9360
9367
9368
9370
9370
9370
9376
9379
9382
9382
9384
9386
9386
9386
9387
9388
9389
9392
9392
9393
9394
9394
9396
9397
9400
9400
9401
9403
9403
9405
9408
9408
9411
9415
9418
9422
9423
9424
9433
9434
9436
9438
9443
9449
9449
9459
9461
9463
9467
9467
9468
9471
9474
9476
9478
9478
9483
9483
9485
9486
9486
9487
9490
9491
9493
9494
9496
9499
9499
9499
9500
9500
9503
9504
9504
9505
9506
9513
9514
9522
9523
9525
9531
9532
9533
9533
9533
9533
9536
9539
9539
9540
9541
9546
9547
9551
9551
9553
9555
9557
9562
9563
9565
9568
9575
9575
9578
9578
9578
9578
9581
9582
9583
9583
9588
9588
9590
9591
9592
9593
9594
9600
9605
9606
9609
9610
9613
9616
9616
9620
9621
9624
9624
9626
9628
9629
9631
9633
9634
9636
9639
9640
9641
9647
9648
9650
9650
9657
9660
9661
9662
9663
9664
9664
9665
9667
9669
9670
9672
9673
9674
9675
9675
9677
9677
9679
9684
9685
9686
9687
9691
9694
9695
9696
9698
9698
9698
9700
9700
9701
9703
9703
9713
9714
9715
9716
9719
9720
9721
9721
9724
9725
9728
9729
9730
9731
9732
9733
9734
9734
9734
9739
9739
9740
9742
9743
9743
9744
9746
9748
9753
9755
9755
9755
9757
9758
9760
9761
9764
9764
9767
9768
9769
9772
9775
9776
9777
9780
9780
9783
9783
9793
9793
9794
9796
9798
9799
9801
9803
9804
9806
9807
9807
9809
9809
9810
9814
9814
9820
9822
9822
9823
9823
9823
9825
9827
9828
9829
9830
9833
9834
9835
9836
9837
9843
9845
9846
9849
9852
9854
9854
9857
9861
9861
9862
9869
9874
9874
9874
9878
9878
9878
9880
9883
9884
9884
9885
9887
9890
9891
9896
9898
9902
9902
9902
9902
9903
9906
9906
9906
9907
9909
9909
9912
9914
9916
9919
9920
9921
9922
9922
9924
9926
9926
9927
9933
9933
9936
9937
9939
9939
9940
9943
9944
9946
9947
9949
9954
9955
9959
9960
9962
9963
9963
9966
9967
9969
9970
9970
9973
9973
9976
9977
9978
9979
9981
9982
9986
9987
9992
9992
9993
9993
9994
9995
