112*1000001**3222
1*3331001123**2**
123**1112*2233322
01*3211*33*11*221
12210012*22222*2*
1*111101111*22221
1111*10011212*111
011322001*112211*
01*2*1112111*1122
0112111*1001111*1
12121112210000122
*3*3*213*2000012*
13*312*4*201112*3
0111023*2101*12*2
001112*3111222211
112*12*201*11*100
1*322221011112321
12*11*21100001**1
1211113*200112221
*211002*3101*1000
12*10012*10112121
12110002220012*2*
*1001122*2111*342
22001*3*33*213*3*
*211113*22*202*31
23*21133211102220
1*3*12**100112*21
112112*42113*312*
0111012*23*4*2022
02*31123*4*42323*
03**11*213*21**4*
13*312231212233*2
1*3201*2*101*3432
12*1011223222***1
012221102**123421
002*3*102*312*310
002*422012212**10
11112*1112*223221
*1001222*323*101*
110001*212*322011
000002343322*2110
112223****2323*10
2*2**4*433*2*2110
*223*311012322221
22112210001*11**1
2*211*11111111221
*3*11111*10000000
