*12*20000000111
112*200000002*2
0011100000002*2
221000000111222
**10000001*22*1
*3100000012*211
222110000011111
2*3*1000000002*
2*422121112213*
12*11*3*11**23*
012222*3234*33*
123*2334*4*22*3
1**43**4**3223*
25*4*444**32*21
1**32*4*43*2121
123333**443201*
001**223***2111
012332113*4*111
23*11*10112111*
**2111111211022
33101111*2*112*
*1001*2212112*3
110024*200002*3
22102**4210023*
**102*4**1001*2
221022322211111
00012*3211*1000
0001*3**2111000
0001123*2000000
012210122211000
02**3101*2*1000
03***1133323321
13**522**11***2
2*4*4*22211233*
*222*2100000011
122321000111000
12**211001*2111
2*323*42112*11*
*3212***3121233
24*2124*3*322**
1**2001122**332
122100111245*10
0000001*11**331
000000112233*2*
110000112*11121
*210012*2110000
3*1123*21000000
*211**210000000
